component	engine	booster	weapon_0	weapon_1	weapon_2	weapon_3	weapon_4
s	s	s	s	s	s	s	s
collection_reward_booster_01_mk1		y8_booster_s01:booster_on1					
collection_reward_booster_01_mk2		y8_booster_s01:booster_on1					
collection_reward_booster_01_mk3		y8_booster_s01:booster_on1					
collection_reward_booster_01_mk4		y8_booster_s01:booster_on1					
collection_reward_booster_01_mk5		y8_booster_s01:booster_on1					
bst_corellian_advanced_thrust_enhancer		y8_booster_s01:booster_on1					
bst_corellian_elite_thrust_enhancer		y8_booster_s01:booster_on1					
bst_corellian_experimental_tjh3		y8_booster_s01:booster_on1					
bst_corellian_heavy_thrust_enhancer		y8_booster_s01:booster_on1					
bst_corellian_highly_modified_elite_thrust_enhancer		y8_booster_s01:booster_on1					
bst_corellian_performance_advanced_thrust_enhancer		y8_booster_s01:booster_on1					
bst_corellian_promotional_standard_thrust_enhancer		y8_booster_s01:booster_on1					
bst_corellian_standard_thrust_enhancer		y8_booster_s01:booster_on1					
bst_corellian_tjh3		y8_booster_s01:booster_on1					
bst_corellian_tuned_heavy_thrust_enhancer		y8_booster_s01:booster_on1
bst_cygnus_flashboost3		y8_booster_s01:booster_on1
bst_cygnus_flashboost4		y8_booster_s01:booster_on1
bst_elite_booster		y8_booster_s01:booster_on1
bst_freitek_outrunner_x1		y8_booster_s01:booster_on1
bst_gallofree_light		y8_booster_s01:booster_on1
bst_generic		y8_booster_s01:booster_on1
bst_incom_deluxe_fynock		y8_booster_s01:booster_on1
bst_incom_elite_sls_1		y8_booster_s01:booster_on1
bst_incom_enhanced_mynock		y8_booster_s01:booster_on1
bst_incom_fynock		y8_booster_s01:booster_on1
bst_incom_intimidator_mk1		y8_booster_s01:booster_on1
bst_incom_intimidator_mk2		y8_booster_s01:booster_on1
bst_incom_intimidator_mk3		y8_booster_s01:booster_on1
bst_incom_intimidator_mk4		y8_booster_s01:booster_on1
bst_incom_mynock		y8_booster_s01:booster_on1
bst_incom_nkj31		y8_booster_s01:booster_on1
bst_incom_performance_nkj31		y8_booster_s01:booster_on1
bst_incom_sls_1		y8_booster_s01:booster_on1
bst_incom_supercharged_vynock		y8_booster_s01:booster_on1
bst_incom_vynock		y8_booster_s01:booster_on1
bst_kde_br12		y8_booster_s01:booster_on1
bst_kessel_imperial_cygnus_hyperthrust		y8_booster_s01:booster_on1
bst_kessel_imperial_sds_experimental_b7		y8_booster_s01:booster_on1
bst_kessel_imperial_sfs_ultra_thrust		y8_booster_s01:booster_on1
bst_kessel_rebel_incom_quicksilver		y8_booster_s01:booster_on1
bst_kessel_rebel_incom_windrunner		y8_booster_s01:booster_on1
bst_kessel_rebel_mandal_lightning_m1		y8_booster_s01:booster_on1
bst_koensayr_advanced		y8_booster_s01:booster_on1
bst_koensayr_charged_advanced		y8_booster_s01:booster_on1
bst_koensayr_deluxe_elite		y8_booster_s01:booster_on1
bst_koensayr_elite		y8_booster_s01:booster_on1
bst_koensayr_evh12		y8_booster_s01:booster_on1
bst_koensayr_heavy		y8_booster_s01:booster_on1
bst_koensayr_modified_heavy		y8_booster_s01:booster_on1
bst_koensayr_racer_mk1		y8_booster_s01:booster_on1
bst_koensayr_racer_mk2		y8_booster_s01:booster_on1
bst_koensayr_racer_mk3		y8_booster_s01:booster_on1
bst_koensayr_racer_mk4		y8_booster_s01:booster_on1
bst_koensayr_special_evh12		y8_booster_s01:booster_on1
bst_koensayr_improved_standard		y8_booster_s01:booster_on1
bst_koensayr_standard		y8_booster_s01:booster_on1
bst_kse_als_1		y8_booster_s01:booster_on1
bst_kse_bti1		y8_booster_s01:booster_on1
bst_kse_bti2		y8_booster_s01:booster_on1
bst_kse_bti3		y8_booster_s01:booster_on1
bst_kse_cb6		y8_booster_s01:booster_on1
bst_kse_deluxe_bti3		y8_booster_s01:booster_on1
bst_kse_elite_als_1		y8_booster_s01:booster_on1
bst_kse_enhanced_bti2		y8_booster_s01:booster_on1
bst_kse_performance_bti1		y8_booster_s01:booster_on1
bst_kse_performance_cb6		y8_booster_s01:booster_on1
bst_kuat_military_mk1		y8_booster_s01:booster_on1
bst_kuat_military_mk2		y8_booster_s01:booster_on1
bst_kuat_military_mk3		y8_booster_s01:booster_on1
bst_kuat_military_mk4		y8_booster_s01:booster_on1
bst_mandal_deluxe_jbj_mk4		y8_booster_s01:booster_on1
bst_mandal_enhanced_jbj_mk1		y8_booster_s01:booster_on1
bst_mandal_improved_jbj_mk3		y8_booster_s01:booster_on1
bst_mandal_jbj_mk1		y8_booster_s01:booster_on1
bst_mandal_jbj_mk2		y8_booster_s01:booster_on1
bst_mandal_jbj_mk3		y8_booster_s01:booster_on1
bst_mandal_jbj_mk4		y8_booster_s01:booster_on1
bst_mandal_jbj_mk5		y8_booster_s01:booster_on1
bst_mandal_limited_jbj_mk5		y8_booster_s01:booster_on1
bst_mandal_modified_jbj_mk2		y8_booster_s01:booster_on1
bst_mission_reward_imperial_rss_ion_booster		y8_booster_s01:booster_on1
bst_mission_reward_neutral_mandal_m_series		y8_booster_s01:booster_on1
bst_mission_reward_neutral_mandal_q_series		y8_booster_s01:booster_on1
bst_mission_reward_rebel_novaldex_hypernova		y8_booster_s01:booster_on1
bst_mission_reward_rebel_qualdex_halcyon		y8_booster_s01:booster_on1
bst_mk1		y8_booster_s01:booster_on1
bst_mk2		y8_booster_s01:booster_on1
bst_mk3		y8_booster_s01:booster_on1
bst_mk4		y8_booster_s01:booster_on1
bst_mk5		y8_booster_s01:booster_on1
bst_moncal_advanced		y8_booster_s01:booster_on1
bst_moncal_charged_heavy		y8_booster_s01:booster_on1
bst_moncal_deluxe_standard		y8_booster_s01:booster_on1
bst_moncal_elite		y8_booster_s01:booster_on1
bst_moncal_enhanced_elite		y8_booster_s01:booster_on1
bst_moncal_heavy		y8_booster_s01:booster_on1
bst_moncal_jlc37		y8_booster_s01:booster_on1
bst_moncal_limited_jlc37		y8_booster_s01:booster_on1
bst_moncal_rare_advanced		y8_booster_s01:booster_on1
bst_moncal_standard		y8_booster_s01:booster_on1
bst_nova_breaker		y8_booster_s01:booster_on1
bst_novaldex_pulsar		y8_booster_s01:booster_on1
bst_novaldex_pulsar_advanced		y8_booster_s01:booster_on1
bst_novaldex_quasar		y8_booster_s01:booster_on1
bst_novaldex_quasar_advanced		y8_booster_s01:booster_on1
bst_qualdex_xboost_mk1		y8_booster_s01:booster_on1
bst_qualdex_xboost_mk2		y8_booster_s01:booster_on1
bst_qualdex_xboost_mk3		y8_booster_s01:booster_on1
bst_qualdex_xboost_mk4		y8_booster_s01:booster_on1
bst_reward_incom_elite		y8_booster_s01:booster_on1
bst_reward_koensayr_elite		y8_booster_s01:booster_on1
bst_reward_kuat_elite		y8_booster_s01:booster_on1
bst_reward_novaldex_elite		y8_booster_s01:booster_on1
bst_reward_qualdex_elite		y8_booster_s01:booster_on1
bst_rss_special		y8_booster_s01:booster_on1
bst_sap_imperial_1		y8_booster_s01:booster_on1
bst_sap_imperial_2		y8_booster_s01:booster_on1
bst_sds_enhanced_imperial_2		y8_booster_s01:booster_on1
bst_sfs_imperial_1		y8_booster_s01:booster_on1
bst_sfs_imperial_2		y8_booster_s01:booster_on1
bst_slayn_ion_booster_mk1		y8_booster_s01:booster_on1
bst_sorosuub_enhanced_liberator_mk4		y8_booster_s01:booster_on1
bst_sorosuub_improved_liberator_mk2		y8_booster_s01:booster_on1
bst_sorosuub_liberator_mk1		y8_booster_s01:booster_on1
bst_sorosuub_liberator_mk2		y8_booster_s01:booster_on1
bst_sorosuub_liberator_mk3		y8_booster_s01:booster_on1
bst_sorosuub_liberator_mk4		y8_booster_s01:booster_on1
bst_sorosuub_liberator_mk5		y8_booster_s01:booster_on1
bst_sorosuub_prized_liberator_mk1		y8_booster_s01:booster_on1
bst_sorosuub_supercharged_liberator_mk3		y8_booster_s01:booster_on1
bst_sorosuub_well_tuned_liberator_mk5		y8_booster_s01:booster_on1
bst_subpro_accelatron_mk1		y8_booster_s01:booster_on1
bst_subpro_accelatron_mk2		y8_booster_s01:booster_on1
bst_subpro_accelatron_mk3		y8_booster_s01:booster_on1
bst_subpro_accelatron_mk4		y8_booster_s01:booster_on1
bst_subpro_accelatron_mk5		y8_booster_s01:booster_on1
bst_subpro_deluxe_accelatron_mk3		y8_booster_s01:booster_on1
bst_subpro_elite_accelatron_mk5		y8_booster_s01:booster_on1
bst_subpro_enhanced_accelatron_mk2		y8_booster_s01:booster_on1
bst_subpro_modified_accelatron_mk4		y8_booster_s01:booster_on1
bst_subpro_tuned_accelatron_mk1		y8_booster_s01:booster_on1
bst_surronian_accelerator_mk1		y8_booster_s01:booster_on1
bst_surronian_accelerator_mk2		y8_booster_s01:booster_on1
bst_surronian_nomad_x4		y8_booster_s01:booster_on1
bst_surronian_nomad_x8		y8_booster_s01:booster_on1
bst_tiefighter_basic		y8_booster_s01:booster_on1
bst_xwing_booster_s01		y8_booster_s01:booster_on1
bst_z95_basic		y8_booster_s01:booster_on1
eng_bezelbok_kessel_runner	y8_engine_s01:engine_on1	
eng_corellian_cruiser_grade_mk1	y8_engine_s01:engine_on1	
eng_corellian_cruiser_grade_mk2	y8_engine_s01:engine_on1	
eng_corellian_deluxe_cruiser_grade_mk1	y8_engine_s01:engine_on1	
eng_crafted_incom_fusialthrust	y8_engine_s01:engine_on1	
eng_crafted_novaldex_eventhorizon	y8_engine_s01:engine_on1	
eng_crafted_qualdex_kyromaster	y8_engine_s01:engine_on1	
eng_cygnus_hd3	y8_engine_s01:engine_on1	
eng_cygnus_hd7	y8_engine_s01:engine_on1	
eng_cygnus_hd8	y8_engine_s01:engine_on1	
eng_cygnus_hd_5	y8_engine_s01:engine_on1
eng_cygnus_hdx	y8_engine_s01:engine_on1
eng_damorian_rx7	y8_engine_s01:engine_on1
eng_elite_mk2	y8_engine_s01:engine_on1
eng_elite_engine	y8_engine_s01:engine_on1
eng_freitek_dual_jet	y8_engine_s01:engine_on1
eng_gallofree_advanced	y8_engine_s01:engine_on1
eng_gallofree_jx2	y8_engine_s01:engine_on1
eng_gallofree_jx3	y8_engine_s01:engine_on1
eng_generic	y8_engine_s01:engine_on1
eng_h17_singularity	y8_engine_s01:engine_on1
eng_haor_chall_old_engine	y8_engine_s01:engine_on1
eng_incom_advanced	y8_engine_s01:engine_on1
eng_incom_advanced_fusialthrust	y8_engine_s01:engine_on1
eng_incom_e16	y8_engine_s01:engine_on1
eng_incom_elite	y8_engine_s01:engine_on1
eng_incom_fusialthrust	y8_engine_s01:engine_on1
eng_incom_fusialthrust_2	y8_engine_s01:engine_on1
eng_incom_heavy_fusialthrust	y8_engine_s01:engine_on1
eng_incom_improved_fusialthrust_2	y8_engine_s01:engine_on1
eng_incom_light_fusialthrust	y8_engine_s01:engine_on1
eng_kessel_imperial_rendili_hyperion_drive	y8_engine_s01:engine_on1
eng_kessel_imperial_sds_special_forces	y8_engine_s01:engine_on1
eng_kessel_imperial_sfs_special_forces	y8_engine_s01:engine_on1
eng_kessel_rebel_incom_t11_elite	y8_engine_s01:engine_on1
eng_kessel_rebel_novaldex_blackhole_elite	y8_engine_s01:engine_on1
eng_kessel_rebel_novaldex_grb1138	y8_engine_s01:engine_on1
eng_reward_kuat_elite	y8_engine_s01:engine_on1
eng_koensayr_advanced	y8_engine_s01:engine_on1
eng_koensayr_dual_small_ionjet	y8_engine_s01:engine_on1
eng_koensayr_elite	y8_engine_s01:engine_on1
eng_koensayr_enhanced_dual_small_ionjet	y8_engine_s01:engine_on1
eng_koensayr_heavy_ionjet	y8_engine_s01:engine_on1
eng_koensayr_ionjet	y8_engine_s01:engine_on1
eng_koensayr_small_ionjet	y8_engine_s01:engine_on1
eng_koensayr_tuned_small_ionjet	y8_engine_s01:engine_on1
eng_kongar_defender	y8_engine_s01:engine_on1
eng_kse_a2x	y8_engine_s01:engine_on1
eng_kse_a5x	y8_engine_s01:engine_on1
eng_kse_a7x	y8_engine_s01:engine_on1
eng_kse_a8x	y8_engine_s01:engine_on1
eng_kse_advanced	y8_engine_s01:engine_on1
eng_kse_elite	y8_engine_s01:engine_on1
eng_kse_improved_a2x	y8_engine_s01:engine_on1
eng_kuat_a9x	y8_engine_s01:engine_on1
eng_kuat_f31	y8_engine_s01:engine_on1
eng_kuat_tc40	y8_engine_s01:engine_on1
eng_mandal_advanced	y8_engine_s01:engine_on1
eng_mandal_elite	y8_engine_s01:engine_on1
eng_mandal_enhanced_heavy	y8_engine_s01:engine_on1
eng_mandal_firestorm	y8_engine_s01:engine_on1
eng_mandal_firestorm_2	y8_engine_s01:engine_on1
eng_mandal_heavy	y8_engine_s01:engine_on1
eng_mandal_x37_vandal	y8_engine_s01:engine_on1
eng_mandal_x57_vandal	y8_engine_s01:engine_on1
eng_mission_reward_imperial_cygnus_megadrive	y8_engine_s01:engine_on1
eng_mission_reward_neutral_haor_chall_military	y8_engine_s01:engine_on1
eng_mission_reward_neutral_mandal_inferno	y8_engine_s01:engine_on1
eng_mission_reward_rebel_incom_military	y8_engine_s01:engine_on1
eng_mk1	y8_engine_s01:engine_on1
eng_mk2	y8_engine_s01:engine_on1
eng_mk3	y8_engine_s01:engine_on1
eng_mk4	y8_engine_s01:engine_on1
eng_mk5	y8_engine_s01:engine_on1
eng_moncal_charged_standard	y8_engine_s01:engine_on1
eng_moncal_enhanced_light	y8_engine_s01:engine_on1
eng_moncal_heavy	y8_engine_s01:engine_on1
eng_moncal_ifs32	y8_engine_s01:engine_on1
eng_moncal_ifs64	y8_engine_s01:engine_on1
eng_moncal_improved_heavy	y8_engine_s01:engine_on1
eng_moncal_light	y8_engine_s01:engine_on1
eng_moncal_standard	y8_engine_s01:engine_on1
eng_novaldex_advanced	y8_engine_s01:engine_on1
eng_novaldex_eventhorizon	y8_engine_s01:engine_on1
eng_novaldex_light_eventhorizon	y8_engine_s01:engine_on1
eng_novaldex_singularity	y8_engine_s01:engine_on1
eng_novaldex_x12	y8_engine_s01:engine_on1
eng_novaldex_x6	y8_engine_s01:engine_on1
eng_novaldex_x7	y8_engine_s01:engine_on1
eng_novaldex_x9	y8_engine_s01:engine_on1
eng_nubian_221	y8_engine_s01:engine_on1
eng_nubian_221_racing_mod	y8_engine_s01:engine_on1
eng_prototype	y8_engine_s01:engine_on1
eng_qualdex_a10	y8_engine_s01:engine_on1
eng_qualdex_a13	y8_engine_s01:engine_on1
eng_qualdex_advanced	y8_engine_s01:engine_on1
eng_qualdex_b10	y8_engine_s01:engine_on1
eng_qualdex_elite	y8_engine_s01:engine_on1
eng_qualdex_igt	y8_engine_s01:engine_on1
eng_qualdex_kyromaster	y8_engine_s01:engine_on1
eng_qualdex_small_kyromaster	y8_engine_s01:engine_on1
eng_quantum_ion_drive	y8_engine_s01:engine_on1
eng_rendili_demon_mk1	y8_engine_s01:engine_on1
eng_rendili_elite	y8_engine_s01:engine_on1
eng_rss_advanced	y8_engine_s01:engine_on1
eng_rss_elite	y8_engine_s01:engine_on1
eng_rss_imperial_skyrunner	y8_engine_s01:engine_on1
eng_rss_imperial_skyrunner_2	y8_engine_s01:engine_on1
eng_rss_imperial_skyrunner_3	y8_engine_s01:engine_on1
eng_rss_imperial_skyrunner_4	y8_engine_s01:engine_on1
eng_sds_imperial_1	y8_engine_s01:engine_on1
eng_sds_imperial_2	y8_engine_s01:engine_on1
eng_sds_limited_imperial_1	y8_engine_s01:engine_on1
eng_seinar_ps56	y8_engine_s01:engine_on1
eng_sfs_advanced	y8_engine_s01:engine_on1
eng_sfs_elite	y8_engine_s01:engine_on1
eng_sfs_imperial_1	y8_engine_s01:engine_on1
eng_sfs_imperial_2	y8_engine_s01:engine_on1
eng_sfs_imperial_3	y8_engine_s01:engine_on1
eng_sfs_imperial_4	y8_engine_s01:engine_on1
eng_sfs_imperial_5	y8_engine_s01:engine_on1
eng_sfs_modified_imperial_3	y8_engine_s01:engine_on1
eng_sfs_performance_imperial_1	y8_engine_s01:engine_on1
eng_sfs_tuned_imperial_2	y8_engine_s01:engine_on1
eng_sorosuub_l_337_ion_engine	y8_engine_s01:engine_on1
eng_sorosuub_tuned_l_337_ion_engine	y8_engine_s01:engine_on1
eng_sorosuub_u83r_ion_drive	y8_engine_s01:engine_on1
eng_subpro_light_engines	y8_engine_s01:engine_on1
eng_surronian_a2	y8_engine_s01:engine_on1
eng_surronian_a25	y8_engine_s01:engine_on1
eng_ubrikkian_n2	y8_engine_s01:engine_on1
eng_nova_01	y8_engine_s01:engine_on1
eng_orion_01	y8_engine_s01:engine_on1
collection_reward_engine_01_mk1	y8_engine_s01:engine_on1
collection_reward_engine_01_mk2	y8_engine_s01:engine_on1
collection_reward_engine_01_mk3	y8_engine_s01:engine_on1
collection_reward_engine_01_mk4	y8_engine_s01:engine_on1
collection_reward_engine_01_mk5	y8_engine_s01:engine_on1
eng_t86_shooting_star	y8_engine_s01:engine_on1						
eng_kuat_m24	y8_engine_s01:engine_on1						
wpn_advanced_blaster			decimator_turret_base:turretyaw1	decimator_turret_base:turretyaw2	y8_weapon_s01:engine_on1	decimator_turret_base:turretyaw3	decimator_turret_base:turretyaw4
wpn_advanced_blaster_green			decimator_turret_base:turretyaw1	decimator_turret_base:turretyaw2	y8_weapon_s01:engine_on1	decimator_turret_base:turretyaw3	decimator_turret_base:turretyaw4
wpn_advanced_disruptor			decimator_turret_base:turretyaw1	decimator_turret_base:turretyaw2	y8_weapon_s01:engine_on1	decimator_turret_base:turretyaw3	decimator_turret_base:turretyaw4
wpn_advanced_ioncannon			decimator_turret_base:turretyaw1	decimator_turret_base:turretyaw2	y8_weapon_s01:engine_on1	decimator_turret_base:turretyaw3	decimator_turret_base:turretyaw4
wpn_armek_advanced			decimator_turret_base:turretyaw1	decimator_turret_base:turretyaw2	y8_weapon_s01:engine_on1	decimator_turret_base:turretyaw3	decimator_turret_base:turretyaw4
wpn_armek_elite			decimator_turret_base:turretyaw1	decimator_turret_base:turretyaw2	y8_weapon_s01:engine_on1	decimator_turret_base:turretyaw3	decimator_turret_base:turretyaw4
wpn_armek_sw4			decimator_turret_base:turretyaw1	decimator_turret_base:turretyaw2	y8_weapon_s01:engine_on1	decimator_turret_base:turretyaw3	decimator_turret_base:turretyaw4
wpn_armek_sw6			decimator_turret_base:turretyaw1	decimator_turret_base:turretyaw2	y8_weapon_s01:engine_on1	decimator_turret_base:turretyaw3	decimator_turret_base:turretyaw4
wpn_armek_sw7			decimator_turret_base:turretyaw1	decimator_turret_base:turretyaw2	y8_weapon_s01:engine_on1	decimator_turret_base:turretyaw3	decimator_turret_base:turretyaw4
wpn_armek_sw8			decimator_turret_base:turretyaw1	decimator_turret_base:turretyaw2	y8_weapon_s01:engine_on1	decimator_turret_base:turretyaw3	decimator_turret_base:turretyaw4
wpn_awing_blaster			decimator_turret_base:turretyaw1	decimator_turret_base:turretyaw2	y8_weapon_s01:engine_on1	decimator_turret_base:turretyaw3	decimator_turret_base:turretyaw4
wpn_borstel_rg9			decimator_turret_base:turretyaw1	decimator_turret_base:turretyaw2	y8_weapon_s01:engine_on1	decimator_turret_base:turretyaw3	decimator_turret_base:turretyaw4
wpn_bwing_blaster			decimator_turret_base:turretyaw1	decimator_turret_base:turretyaw2	y8_weapon_s01:engine_on1	decimator_turret_base:turretyaw3	decimator_turret_base:turretyaw4
wpn_corellian_1d			decimator_turret_base:turretyaw1	decimator_turret_base:turretyaw2	y8_weapon_s01:engine_on1	decimator_turret_base:turretyaw3	decimator_turret_base:turretyaw4
wpn_corellian_ag1g_laser			decimator_turret_base:turretyaw1	decimator_turret_base:turretyaw2	y8_weapon_s01:engine_on1	decimator_turret_base:turretyaw3	decimator_turret_base:turretyaw4
wpn_corellian_ag2g_quad_laser			decimator_turret_base:turretyaw1	decimator_turret_base:turretyaw2	y8_weapon_s01:engine_on1	decimator_turret_base:turretyaw3	decimator_turret_base:turretyaw4
wpn_corellian_cruiser_grade_blaster_mk1			decimator_turret_base:turretyaw1	decimator_turret_base:turretyaw2	y8_weapon_s01:engine_on1	decimator_turret_base:turretyaw3	decimator_turret_base:turretyaw4
wpn_corellian_heavy_gauss			decimator_turret_base:turretyaw1	decimator_turret_base:turretyaw2	y8_weapon_s01:engine_on1	decimator_turret_base:turretyaw3	decimator_turret_base:turretyaw4
wpn_crafted_incom_disruptor			decimator_turret_base:turretyaw1	decimator_turret_base:turretyaw2	y8_weapon_s01:engine_on1	decimator_turret_base:turretyaw3	decimator_turret_base:turretyaw4
wpn_crafted_slayn_ioncannon			decimator_turret_base:turretyaw1	decimator_turret_base:turretyaw2	y8_weapon_s01:engine_on1	decimator_turret_base:turretyaw3	decimator_turret_base:turretyaw4
wpn_crafted_subpro_tripleblaster			decimator_turret_base:turretyaw1	decimator_turret_base:turretyaw2	y8_weapon_s01:engine_on1	decimator_turret_base:turretyaw3	decimator_turret_base:turretyaw4
wpn_crafted_tractor_beam			decimator_turret_base:turretyaw1	decimator_turret_base:turretyaw2	y8_weapon_s01:engine_on1	decimator_turret_base:turretyaw3	decimator_turret_base:turretyaw4
wpn_cygnus_destroyer_mk1			decimator_turret_base:turretyaw1	decimator_turret_base:turretyaw2	y8_weapon_s01:engine_on1	decimator_turret_base:turretyaw3	decimator_turret_base:turretyaw4
wpn_cygnus_destroyer_mk2			decimator_turret_base:turretyaw1	decimator_turret_base:turretyaw2	y8_weapon_s01:engine_on1	decimator_turret_base:turretyaw3	decimator_turret_base:turretyaw4
wpn_cygnus_elite			decimator_turret_base:turretyaw1	decimator_turret_base:turretyaw2	y8_weapon_s01:engine_on1	decimator_turret_base:turretyaw3	decimator_turret_base:turretyaw4
wpn_cygnus_eradicator_1			decimator_turret_base:turretyaw1	decimator_turret_base:turretyaw2	y8_weapon_s01:engine_on1	decimator_turret_base:turretyaw3	decimator_turret_base:turretyaw4
wpn_elite_gauss			decimator_turret_base:turretyaw1	decimator_turret_base:turretyaw2	y8_weapon_s01:engine_on1	decimator_turret_base:turretyaw3	decimator_turret_base:turretyaw4
wpn_elite_null_bolt			decimator_turret_base:turretyaw1	decimator_turret_base:turretyaw2	y8_weapon_s01:engine_on1	decimator_turret_base:turretyaw3	decimator_turret_base:turretyaw4
wpn_elite_railgun			decimator_turret_base:turretyaw1	decimator_turret_base:turretyaw2	y8_weapon_s01:engine_on1	decimator_turret_base:turretyaw3	decimator_turret_base:turretyaw4
wpn_experimental_blaster			decimator_turret_base:turretyaw1	decimator_turret_base:turretyaw2	y8_weapon_s01:engine_on1	decimator_turret_base:turretyaw3	decimator_turret_base:turretyaw4
wpn_experimental_blaster_green			decimator_turret_base:turretyaw1	decimator_turret_base:turretyaw2	y8_weapon_s01:engine_on1	decimator_turret_base:turretyaw3	decimator_turret_base:turretyaw4
wpn_experimental_disruptor			decimator_turret_base:turretyaw1	decimator_turret_base:turretyaw2	y8_weapon_s01:engine_on1	decimator_turret_base:turretyaw3	decimator_turret_base:turretyaw4
wpn_experimental_ioncannon			decimator_turret_base:turretyaw1	decimator_turret_base:turretyaw2	y8_weapon_s01:engine_on1	decimator_turret_base:turretyaw3	decimator_turret_base:turretyaw4
wpn_fastspray_2000_disruptor			decimator_turret_base:turretyaw1	decimator_turret_base:turretyaw2	y8_weapon_s01:engine_on1	decimator_turret_base:turretyaw3	decimator_turret_base:turretyaw4
wpn_freitek_cannoneer_mk1			decimator_turret_base:turretyaw1	decimator_turret_base:turretyaw2	y8_weapon_s01:engine_on1	decimator_turret_base:turretyaw3	decimator_turret_base:turretyaw4
wpn_gyrhil_auto_blaster			decimator_turret_base:turretyaw1	decimator_turret_base:turretyaw2	y8_weapon_s01:engine_on1	decimator_turret_base:turretyaw3	decimator_turret_base:turretyaw4
wpn_gyrhil_r9x			decimator_turret_base:turretyaw1	decimator_turret_base:turretyaw2	y8_weapon_s01:engine_on1	decimator_turret_base:turretyaw3	decimator_turret_base:turretyaw4
wpn_haor_chall_speedblaster			decimator_turret_base:turretyaw1	decimator_turret_base:turretyaw2	y8_weapon_s01:engine_on1	decimator_turret_base:turretyaw3	decimator_turret_base:turretyaw4
wpn_heavy_blaster			decimator_turret_base:turretyaw1	decimator_turret_base:turretyaw2	y8_weapon_s01:engine_on1	decimator_turret_base:turretyaw3	decimator_turret_base:turretyaw4
wpn_heavy_blaster_green			decimator_turret_base:turretyaw1	decimator_turret_base:turretyaw2	y8_weapon_s01:engine_on1	decimator_turret_base:turretyaw3	decimator_turret_base:turretyaw4
wpn_heavy_disruptor			decimator_turret_base:turretyaw1	decimator_turret_base:turretyaw2	y8_weapon_s01:engine_on1	decimator_turret_base:turretyaw3	decimator_turret_base:turretyaw4
wpn_heavy_ioncannon			decimator_turret_base:turretyaw1	decimator_turret_base:turretyaw2	y8_weapon_s01:engine_on1	decimator_turret_base:turretyaw3	decimator_turret_base:turretyaw4
wpn_hk_modified_scorcher_elite			decimator_turret_base:turretyaw1	decimator_turret_base:turretyaw2	y8_weapon_s01:engine_on1	decimator_turret_base:turretyaw3	decimator_turret_base:turretyaw4
wpn_hk_scorcher			decimator_turret_base:turretyaw1	decimator_turret_base:turretyaw2	y8_weapon_s01:engine_on1	decimator_turret_base:turretyaw3	decimator_turret_base:turretyaw4
wpn_hk_scorcher_2			decimator_turret_base:turretyaw1	decimator_turret_base:turretyaw2	y8_weapon_s01:engine_on1	decimator_turret_base:turretyaw3	decimator_turret_base:turretyaw4
wpn_hk_scorcher_3			decimator_turret_base:turretyaw1	decimator_turret_base:turretyaw2	y8_weapon_s01:engine_on1	decimator_turret_base:turretyaw3	decimator_turret_base:turretyaw4
wpn_hk_scorcher_advanced			decimator_turret_base:turretyaw1	decimator_turret_base:turretyaw2	y8_weapon_s01:engine_on1	decimator_turret_base:turretyaw3	decimator_turret_base:turretyaw4
wpn_hk_scorcher_elite			decimator_turret_base:turretyaw1	decimator_turret_base:turretyaw2	y8_weapon_s01:engine_on1	decimator_turret_base:turretyaw3	decimator_turret_base:turretyaw4
wpn_hk_scorcher_heavy			decimator_turret_base:turretyaw1	decimator_turret_base:turretyaw2	y8_weapon_s01:engine_on1	decimator_turret_base:turretyaw3	decimator_turret_base:turretyaw4
wpn_hoersch_railgun			decimator_turret_base:turretyaw1	decimator_turret_base:turretyaw2	y8_weapon_s01:engine_on1	decimator_turret_base:turretyaw3	decimator_turret_base:turretyaw4
wpn_incom_advanced_blaster			decimator_turret_base:turretyaw1	decimator_turret_base:turretyaw2	y8_weapon_s01:engine_on1	decimator_turret_base:turretyaw3	decimator_turret_base:turretyaw4
wpn_incom_blaster			decimator_turret_base:turretyaw1	decimator_turret_base:turretyaw2	y8_weapon_s01:engine_on1	decimator_turret_base:turretyaw3	decimator_turret_base:turretyaw4
wpn_incom_disruptor			decimator_turret_base:turretyaw1	decimator_turret_base:turretyaw2	y8_weapon_s01:engine_on1	decimator_turret_base:turretyaw3	decimator_turret_base:turretyaw4
wpn_incom_elite_quad_blaster			decimator_turret_base:turretyaw1	decimator_turret_base:turretyaw2	y8_weapon_s01:engine_on1	decimator_turret_base:turretyaw3	decimator_turret_base:turretyaw4
wpn_incom_heavy_blaster			decimator_turret_base:turretyaw1	decimator_turret_base:turretyaw2	y8_weapon_s01:engine_on1	decimator_turret_base:turretyaw3	decimator_turret_base:turretyaw4
wpn_incom_heavy_quad_blaster			decimator_turret_base:turretyaw1	decimator_turret_base:turretyaw2	y8_weapon_s01:engine_on1	decimator_turret_base:turretyaw3	decimator_turret_base:turretyaw4
wpn_incom_light_blaster			decimator_turret_base:turretyaw1	decimator_turret_base:turretyaw2	y8_weapon_s01:engine_on1	decimator_turret_base:turretyaw3	decimator_turret_base:turretyaw4
wpn_incom_proton_missile_s01			decimator_turret_base:turretyaw1	decimator_turret_base:turretyaw2	y8_weapon_s01:engine_on1	decimator_turret_base:turretyaw3	decimator_turret_base:turretyaw4
wpn_incom_quad_blaster			decimator_turret_base:turretyaw1	decimator_turret_base:turretyaw2	y8_weapon_s01:engine_on1	decimator_turret_base:turretyaw3	decimator_turret_base:turretyaw4
wpn_incom_seismic_missile_s01			decimator_turret_base:turretyaw1	decimator_turret_base:turretyaw2	y8_weapon_s01:engine_on1	decimator_turret_base:turretyaw3	decimator_turret_base:turretyaw4
wpn_incom_shredder			decimator_turret_base:turretyaw1	decimator_turret_base:turretyaw2	y8_weapon_s01:engine_on1	decimator_turret_base:turretyaw3	decimator_turret_base:turretyaw4
wpn_incom_tt13			decimator_turret_base:turretyaw1	decimator_turret_base:turretyaw2	y8_weapon_s01:engine_on1	decimator_turret_base:turretyaw3	decimator_turret_base:turretyaw4
wpn_incom_tt8			decimator_turret_base:turretyaw1	decimator_turret_base:turretyaw2	y8_weapon_s01:engine_on1	decimator_turret_base:turretyaw3	decimator_turret_base:turretyaw4
wpn_ionic_pulse_weapon			decimator_turret_base:turretyaw1	decimator_turret_base:turretyaw2	y8_weapon_s01:engine_on1	decimator_turret_base:turretyaw3	decimator_turret_base:turretyaw4
wpn_kdy_pounder_mk1			decimator_turret_base:turretyaw1	decimator_turret_base:turretyaw2	y8_weapon_s01:engine_on1	decimator_turret_base:turretyaw3	decimator_turret_base:turretyaw4
wpn_koensayr_deluxe_ion_accelerator			decimator_turret_base:turretyaw1	decimator_turret_base:turretyaw2	y8_weapon_s01:engine_on1	decimator_turret_base:turretyaw3	decimator_turret_base:turretyaw4
wpn_koensayr_ion_accelerator			decimator_turret_base:turretyaw1	decimator_turret_base:turretyaw2	y8_weapon_s01:engine_on1	decimator_turret_base:turretyaw3	decimator_turret_base:turretyaw4
wpn_koensayr_ion_accelerator_2			decimator_turret_base:turretyaw1	decimator_turret_base:turretyaw2	y8_weapon_s01:engine_on1	decimator_turret_base:turretyaw3	decimator_turret_base:turretyaw4
wpn_koensayr_ion_accelerator_3			decimator_turret_base:turretyaw1	decimator_turret_base:turretyaw2	y8_weapon_s01:engine_on1	decimator_turret_base:turretyaw3	decimator_turret_base:turretyaw4
wpn_koensayr_ion_accelerator_advanced			decimator_turret_base:turretyaw1	decimator_turret_base:turretyaw2	y8_weapon_s01:engine_on1	decimator_turret_base:turretyaw3	decimator_turret_base:turretyaw4
wpn_koensayr_light_disruptor			decimator_turret_base:turretyaw1	decimator_turret_base:turretyaw2	y8_weapon_s01:engine_on1	decimator_turret_base:turretyaw3	decimator_turret_base:turretyaw4
wpn_koensayr_tuned_light_disruptor			decimator_turret_base:turretyaw1	decimator_turret_base:turretyaw2	y8_weapon_s01:engine_on1	decimator_turret_base:turretyaw3	decimator_turret_base:turretyaw4
wpn_kse_double_blaster			decimator_turret_base:turretyaw1	decimator_turret_base:turretyaw2	y8_weapon_s01:engine_on1	decimator_turret_base:turretyaw3	decimator_turret_base:turretyaw4
wpn_kse_light_disruptor			decimator_turret_base:turretyaw1	decimator_turret_base:turretyaw2	y8_weapon_s01:engine_on1	decimator_turret_base:turretyaw3	decimator_turret_base:turretyaw4
wpn_light_blaster			decimator_turret_base:turretyaw1	decimator_turret_base:turretyaw2	y8_weapon_s01:engine_on1	decimator_turret_base:turretyaw3	decimator_turret_base:turretyaw4
wpn_light_blaster_green			decimator_turret_base:turretyaw1	decimator_turret_base:turretyaw2	y8_weapon_s01:engine_on1	decimator_turret_base:turretyaw3	decimator_turret_base:turretyaw4
wpn_light_disruptor			decimator_turret_base:turretyaw1	decimator_turret_base:turretyaw2	y8_weapon_s01:engine_on1	decimator_turret_base:turretyaw3	decimator_turret_base:turretyaw4
wpn_light_ioncannon			decimator_turret_base:turretyaw1	decimator_turret_base:turretyaw2	y8_weapon_s01:engine_on1	decimator_turret_base:turretyaw3	decimator_turret_base:turretyaw4
wpn_mandal_advanced_annihilator			decimator_turret_base:turretyaw1	decimator_turret_base:turretyaw2	y8_weapon_s01:engine_on1	decimator_turret_base:turretyaw3	decimator_turret_base:turretyaw4
wpn_mandal_annihilator_mk2			decimator_turret_base:turretyaw1	decimator_turret_base:turretyaw2	y8_weapon_s01:engine_on1	decimator_turret_base:turretyaw3	decimator_turret_base:turretyaw4
wpn_mandal_annilhator_mk1			decimator_turret_base:turretyaw1	decimator_turret_base:turretyaw2	y8_weapon_s01:engine_on1	decimator_turret_base:turretyaw3	decimator_turret_base:turretyaw4
wpn_mandal_elite_annihilator			decimator_turret_base:turretyaw1	decimator_turret_base:turretyaw2	y8_weapon_s01:engine_on1	decimator_turret_base:turretyaw3	decimator_turret_base:turretyaw4
wpn_mandal_enhanced_mangler_mk1			decimator_turret_base:turretyaw1	decimator_turret_base:turretyaw2	y8_weapon_s01:engine_on1	decimator_turret_base:turretyaw3	decimator_turret_base:turretyaw4
wpn_mandal_heavy_annihilator			decimator_turret_base:turretyaw1	decimator_turret_base:turretyaw2	y8_weapon_s01:engine_on1	decimator_turret_base:turretyaw3	decimator_turret_base:turretyaw4
wpn_mandal_mangler_mk1			decimator_turret_base:turretyaw1	decimator_turret_base:turretyaw2	y8_weapon_s01:engine_on1	decimator_turret_base:turretyaw3	decimator_turret_base:turretyaw4
wpn_mandal_qv3_disruptor			decimator_turret_base:turretyaw1	decimator_turret_base:turretyaw2	y8_weapon_s01:engine_on1	decimator_turret_base:turretyaw3	decimator_turret_base:turretyaw4
wpn_mandal_qv5_disruptor			decimator_turret_base:turretyaw1	decimator_turret_base:turretyaw2	y8_weapon_s01:engine_on1	decimator_turret_base:turretyaw3	decimator_turret_base:turretyaw4
wpn_mandal_super_mangler			decimator_turret_base:turretyaw1	decimator_turret_base:turretyaw2	y8_weapon_s01:engine_on1	decimator_turret_base:turretyaw3	decimator_turret_base:turretyaw4
wpn_medium_blaster			decimator_turret_base:turretyaw1	decimator_turret_base:turretyaw2	y8_weapon_s01:engine_on1	decimator_turret_base:turretyaw3	decimator_turret_base:turretyaw4
wpn_medium_blaster_green			decimator_turret_base:turretyaw1	decimator_turret_base:turretyaw2	y8_weapon_s01:engine_on1	decimator_turret_base:turretyaw3	decimator_turret_base:turretyaw4
wpn_medium_disruptor			decimator_turret_base:turretyaw1	decimator_turret_base:turretyaw2	y8_weapon_s01:engine_on1	decimator_turret_base:turretyaw3	decimator_turret_base:turretyaw4
wpn_medium_ioncannon			decimator_turret_base:turretyaw1	decimator_turret_base:turretyaw2	y8_weapon_s01:engine_on1	decimator_turret_base:turretyaw3	decimator_turret_base:turretyaw4
wpn_mining_laser_mk1			decimator_turret_base:turretyaw1	decimator_turret_base:turretyaw2	y8_weapon_s01:engine_on1	decimator_turret_base:turretyaw3	decimator_turret_base:turretyaw4
wpn_mining_laser_mk2			decimator_turret_base:turretyaw1	decimator_turret_base:turretyaw2	y8_weapon_s01:engine_on1	decimator_turret_base:turretyaw3	decimator_turret_base:turretyaw4
wpn_mining_laser_mk3			decimator_turret_base:turretyaw1	decimator_turret_base:turretyaw2	y8_weapon_s01:engine_on1	decimator_turret_base:turretyaw3	decimator_turret_base:turretyaw4
wpn_mission_reward_imperial_cygnus_starblaster			decimator_turret_base:turretyaw1	decimator_turret_base:turretyaw2	y8_weapon_s01:engine_on1	decimator_turret_base:turretyaw3	decimator_turret_base:turretyaw4
wpn_mission_reward_imperial_sds_boltdriver			decimator_turret_base:turretyaw1	decimator_turret_base:turretyaw2	y8_weapon_s01:engine_on1	decimator_turret_base:turretyaw3	decimator_turret_base:turretyaw4
wpn_mission_reward_neutral_borstel_disruptor			decimator_turret_base:turretyaw1	decimator_turret_base:turretyaw2	y8_weapon_s01:engine_on1	decimator_turret_base:turretyaw3	decimator_turret_base:turretyaw4
wpn_mission_reward_neutral_hk_military_blaster			decimator_turret_base:turretyaw1	decimator_turret_base:turretyaw2	y8_weapon_s01:engine_on1	decimator_turret_base:turretyaw3	decimator_turret_base:turretyaw4
wpn_mission_reward_neutral_mandal_light_blaster			decimator_turret_base:turretyaw1	decimator_turret_base:turretyaw2	y8_weapon_s01:engine_on1	decimator_turret_base:turretyaw3	decimator_turret_base:turretyaw4
wpn_mission_reward_rebel_incom_tricannon			decimator_turret_base:turretyaw1	decimator_turret_base:turretyaw2	y8_weapon_s01:engine_on1	decimator_turret_base:turretyaw3	decimator_turret_base:turretyaw4
wpn_mission_reward_rebel_taim_ion_driver			decimator_turret_base:turretyaw1	decimator_turret_base:turretyaw2	y8_weapon_s01:engine_on1	decimator_turret_base:turretyaw3	decimator_turret_base:turretyaw4
wpn_moncal_light_blaster			decimator_turret_base:turretyaw1	decimator_turret_base:turretyaw2	y8_weapon_s01:engine_on1	decimator_turret_base:turretyaw3	decimator_turret_base:turretyaw4
wpn_prototype			decimator_turret_base:turretyaw1	decimator_turret_base:turretyaw2	y8_weapon_s01:engine_on1	decimator_turret_base:turretyaw3	decimator_turret_base:turretyaw4
wpn_prototype_tie			decimator_turret_base:turretyaw1	decimator_turret_base:turretyaw2	y8_weapon_s01:engine_on1	decimator_turret_base:turretyaw3	decimator_turret_base:turretyaw4
wpn_rendili_advanced			decimator_turret_base:turretyaw1	decimator_turret_base:turretyaw2	y8_weapon_s01:engine_on1	decimator_turret_base:turretyaw3	decimator_turret_base:turretyaw4
wpn_rendili_fr13_disruptor			decimator_turret_base:turretyaw1	decimator_turret_base:turretyaw2	y8_weapon_s01:engine_on1	decimator_turret_base:turretyaw3	decimator_turret_base:turretyaw4
wpn_rendili_fr9_disruptor			decimator_turret_base:turretyaw1	decimator_turret_base:turretyaw2	y8_weapon_s01:engine_on1	decimator_turret_base:turretyaw3	decimator_turret_base:turretyaw4
wpn_rendili_sc3_disruptor			decimator_turret_base:turretyaw1	decimator_turret_base:turretyaw2	y8_weapon_s01:engine_on1	decimator_turret_base:turretyaw3	decimator_turret_base:turretyaw4
wpn_rendili_sc8_disruptor			decimator_turret_base:turretyaw1	decimator_turret_base:turretyaw2	y8_weapon_s01:engine_on1	decimator_turret_base:turretyaw3	decimator_turret_base:turretyaw4
wpn_rss_imperial_cannon			decimator_turret_base:turretyaw1	decimator_turret_base:turretyaw2	y8_weapon_s01:engine_on1	decimator_turret_base:turretyaw3	decimator_turret_base:turretyaw4
wpn_sds_elite			decimator_turret_base:turretyaw1	decimator_turret_base:turretyaw2	y8_weapon_s01:engine_on1	decimator_turret_base:turretyaw3	decimator_turret_base:turretyaw4
wpn_sds_heavy_imperial_spc_forces_cannon			decimator_turret_base:turretyaw1	decimator_turret_base:turretyaw2	y8_weapon_s01:engine_on1	decimator_turret_base:turretyaw3	decimator_turret_base:turretyaw4
wpn_sds_imperial_blaster_1			decimator_turret_base:turretyaw1	decimator_turret_base:turretyaw2	y8_weapon_s01:engine_on1	decimator_turret_base:turretyaw3	decimator_turret_base:turretyaw4
wpn_sds_imperial_blaster_2			decimator_turret_base:turretyaw1	decimator_turret_base:turretyaw2	y8_weapon_s01:engine_on1	decimator_turret_base:turretyaw3	decimator_turret_base:turretyaw4
wpn_sds_imperial_special_forces_cannon			decimator_turret_base:turretyaw1	decimator_turret_base:turretyaw2	y8_weapon_s01:engine_on1	decimator_turret_base:turretyaw3	decimator_turret_base:turretyaw4
wpn_sds_modified_elite			decimator_turret_base:turretyaw1	decimator_turret_base:turretyaw2	y8_weapon_s01:engine_on1	decimator_turret_base:turretyaw3	decimator_turret_base:turretyaw4
wpn_seinar_concussion_missile_s01			decimator_turret_base:turretyaw1	decimator_turret_base:turretyaw2	y8_weapon_s01:engine_on1	decimator_turret_base:turretyaw3	decimator_turret_base:turretyaw4
wpn_seinar_disruptor			decimator_turret_base:turretyaw1	decimator_turret_base:turretyaw2	y8_weapon_s01:engine_on1	decimator_turret_base:turretyaw3	decimator_turret_base:turretyaw4
wpn_seinar_ion_cannon			decimator_turret_base:turretyaw1	decimator_turret_base:turretyaw2	y8_weapon_s01:engine_on1	decimator_turret_base:turretyaw3	decimator_turret_base:turretyaw4
wpn_seinar_linked_cannon			decimator_turret_base:turretyaw1	decimator_turret_base:turretyaw2	y8_weapon_s01:engine_on1	decimator_turret_base:turretyaw3	decimator_turret_base:turretyaw4
wpn_seinar_ls1			decimator_turret_base:turretyaw1	decimator_turret_base:turretyaw2	y8_weapon_s01:engine_on1	decimator_turret_base:turretyaw3	decimator_turret_base:turretyaw4
wpn_seinar_ls72			decimator_turret_base:turretyaw1	decimator_turret_base:turretyaw2	y8_weapon_s01:engine_on1	decimator_turret_base:turretyaw3	decimator_turret_base:turretyaw4
wpn_sfs_elite			decimator_turret_base:turretyaw1	decimator_turret_base:turretyaw2	y8_weapon_s01:engine_on1	decimator_turret_base:turretyaw3	decimator_turret_base:turretyaw4
wpn_sfs_imperial_blaster_1			decimator_turret_base:turretyaw1	decimator_turret_base:turretyaw2	y8_weapon_s01:engine_on1	decimator_turret_base:turretyaw3	decimator_turret_base:turretyaw4
wpn_sfs_imperial_blaster_2			decimator_turret_base:turretyaw1	decimator_turret_base:turretyaw2	y8_weapon_s01:engine_on1	decimator_turret_base:turretyaw3	decimator_turret_base:turretyaw4
wpn_sfs_imperial_blaster_3			decimator_turret_base:turretyaw1	decimator_turret_base:turretyaw2	y8_weapon_s01:engine_on1	decimator_turret_base:turretyaw3	decimator_turret_base:turretyaw4
wpn_sfs_imperial_blaster_4			decimator_turret_base:turretyaw1	decimator_turret_base:turretyaw2	y8_weapon_s01:engine_on1	decimator_turret_base:turretyaw3	decimator_turret_base:turretyaw4
wpn_sfs_imperial_special_forces_blaster			decimator_turret_base:turretyaw1	decimator_turret_base:turretyaw2	y8_weapon_s01:engine_on1	decimator_turret_base:turretyaw3	decimator_turret_base:turretyaw4
wpn_sfs_improved_imperial_blaster_2			decimator_turret_base:turretyaw1	decimator_turret_base:turretyaw2	y8_weapon_s01:engine_on1	decimator_turret_base:turretyaw3	decimator_turret_base:turretyaw4
wpn_sienar_heatseeker_missile_s01			decimator_turret_base:turretyaw1	decimator_turret_base:turretyaw2	y8_weapon_s01:engine_on1	decimator_turret_base:turretyaw3	decimator_turret_base:turretyaw4
wpn_slayn_deluxe_light_ioncannon			decimator_turret_base:turretyaw1	decimator_turret_base:turretyaw2	y8_weapon_s01:engine_on1	decimator_turret_base:turretyaw3	decimator_turret_base:turretyaw4
wpn_slayn_imagerec_missile_s01			decimator_turret_base:turretyaw1	decimator_turret_base:turretyaw2	y8_weapon_s01:engine_on1	decimator_turret_base:turretyaw3	decimator_turret_base:turretyaw4
wpn_slayn_ioncannon			decimator_turret_base:turretyaw1	decimator_turret_base:turretyaw2	y8_weapon_s01:engine_on1	decimator_turret_base:turretyaw3	decimator_turret_base:turretyaw4
wpn_slayn_light_ioncannon			decimator_turret_base:turretyaw1	decimator_turret_base:turretyaw2	y8_weapon_s01:engine_on1	decimator_turret_base:turretyaw3	decimator_turret_base:turretyaw4
wpn_subpro_advanced_cannon			decimator_turret_base:turretyaw1	decimator_turret_base:turretyaw2	y8_weapon_s01:engine_on1	decimator_turret_base:turretyaw3	decimator_turret_base:turretyaw4
wpn_subpro_improved_light_ioncannon			decimator_turret_base:turretyaw1	decimator_turret_base:turretyaw2	y8_weapon_s01:engine_on1	decimator_turret_base:turretyaw3	decimator_turret_base:turretyaw4
wpn_subpro_light_ioncannon			decimator_turret_base:turretyaw1	decimator_turret_base:turretyaw2	y8_weapon_s01:engine_on1	decimator_turret_base:turretyaw3	decimator_turret_base:turretyaw4
wpn_subpro_modified_tricannon			decimator_turret_base:turretyaw1	decimator_turret_base:turretyaw2	y8_weapon_s01:engine_on1	decimator_turret_base:turretyaw3	decimator_turret_base:turretyaw4
wpn_subpro_tricannon			decimator_turret_base:turretyaw1	decimator_turret_base:turretyaw2	y8_weapon_s01:engine_on1	decimator_turret_base:turretyaw3	decimator_turret_base:turretyaw4
wpn_subpro_tripleblaster			decimator_turret_base:turretyaw1	decimator_turret_base:turretyaw2	y8_weapon_s01:engine_on1	decimator_turret_base:turretyaw3	decimator_turret_base:turretyaw4
wpn_subpro_tripleblaster_mark2			decimator_turret_base:turretyaw1	decimator_turret_base:turretyaw2	y8_weapon_s01:engine_on1	decimator_turret_base:turretyaw3	decimator_turret_base:turretyaw4
wpn_subpro_tripleblaster_mark3			decimator_turret_base:turretyaw1	decimator_turret_base:turretyaw2	y8_weapon_s01:engine_on1	decimator_turret_base:turretyaw3	decimator_turret_base:turretyaw4
wpn_taim_elite			decimator_turret_base:turretyaw1	decimator_turret_base:turretyaw2	y8_weapon_s01:engine_on1	decimator_turret_base:turretyaw3	decimator_turret_base:turretyaw4
wpn_taim_heavy_laser			decimator_turret_base:turretyaw1	decimator_turret_base:turretyaw2	y8_weapon_s01:engine_on1	decimator_turret_base:turretyaw3	decimator_turret_base:turretyaw4
wpn_taim_ix4			decimator_turret_base:turretyaw1	decimator_turret_base:turretyaw2	y8_weapon_s01:engine_on1	decimator_turret_base:turretyaw3	decimator_turret_base:turretyaw4
wpn_taim_ix5			decimator_turret_base:turretyaw1	decimator_turret_base:turretyaw2	y8_weapon_s01:engine_on1	decimator_turret_base:turretyaw3	decimator_turret_base:turretyaw4
wpn_taim_kx5			decimator_turret_base:turretyaw1	decimator_turret_base:turretyaw2	y8_weapon_s01:engine_on1	decimator_turret_base:turretyaw3	decimator_turret_base:turretyaw4
wpn_taim_kx8			decimator_turret_base:turretyaw1	decimator_turret_base:turretyaw2	y8_weapon_s01:engine_on1	decimator_turret_base:turretyaw3	decimator_turret_base:turretyaw4
wpn_taim_kx9			decimator_turret_base:turretyaw1	decimator_turret_base:turretyaw2	y8_weapon_s01:engine_on1	decimator_turret_base:turretyaw3	decimator_turret_base:turretyaw4
wpn_tieadvanced_blaster			decimator_turret_base:turretyaw1	decimator_turret_base:turretyaw2	y8_weapon_s01:engine_on1	decimator_turret_base:turretyaw3	decimator_turret_base:turretyaw4
wpn_tractor_beam_gun			decimator_turret_base:turretyaw1	decimator_turret_base:turretyaw2	y8_weapon_s01:engine_on1	decimator_turret_base:turretyaw3	decimator_turret_base:turretyaw4
wpn_tractor_pulse_gun			decimator_turret_base:turretyaw1	decimator_turret_base:turretyaw2	y8_weapon_s01:engine_on1	decimator_turret_base:turretyaw3	decimator_turret_base:turretyaw4
wpn_trandoshan_fg1a			decimator_turret_base:turretyaw1	decimator_turret_base:turretyaw2	y8_weapon_s01:engine_on1	decimator_turret_base:turretyaw3	decimator_turret_base:turretyaw4
wpn_vengeance_ion_cannon			decimator_turret_base:turretyaw1	decimator_turret_base:turretyaw2	y8_weapon_s01:engine_on1	decimator_turret_base:turretyaw3	decimator_turret_base:turretyaw4
wpn_vulcan_cannon			decimator_turret_base:turretyaw1	decimator_turret_base:turretyaw2	y8_weapon_s01:engine_on1	decimator_turret_base:turretyaw3	decimator_turret_base:turretyaw4
wpn_z95_blaster			decimator_turret_base:turretyaw1	decimator_turret_base:turretyaw2	y8_weapon_s01:engine_on1	decimator_turret_base:turretyaw3	decimator_turret_base:turretyaw4
wpn_heavy_ionic_pulse_weapon			decimator_turret_base:turretyaw1	decimator_turret_base:turretyaw2	y8_weapon_s01:engine_on1	decimator_turret_base:turretyaw3	decimator_turret_base:turretyaw4
wpn_crafted_mining_laser_mk1			decimator_turret_base:turretyaw1	decimator_turret_base:turretyaw2	y8_weapon_s01:engine_on1	decimator_turret_base:turretyaw3	decimator_turret_base:turretyaw4
wpn_crafted_mining_laser_mk2			decimator_turret_base:turretyaw1	decimator_turret_base:turretyaw2	y8_weapon_s01:engine_on1	decimator_turret_base:turretyaw3	decimator_turret_base:turretyaw4
wpn_crafted_mining_laser_mk3			decimator_turret_base:turretyaw1	decimator_turret_base:turretyaw2	y8_weapon_s01:engine_on1	decimator_turret_base:turretyaw3	decimator_turret_base:turretyaw4
wpn_crafted_mining_laser_elite			decimator_turret_base:turretyaw1	decimator_turret_base:turretyaw2	y8_weapon_s01:engine_on1	decimator_turret_base:turretyaw3	decimator_turret_base:turretyaw4
wpn_ionic_pulse_weapon			decimator_turret_base:turretyaw1	decimator_turret_base:turretyaw2	y8_weapon_s01:engine_on1	decimator_turret_base:turretyaw3	decimator_turret_base:turretyaw4
wpn_reward_seinar_elite			decimator_turret_base:turretyaw1	decimator_turret_base:turretyaw2	y8_weapon_s01:engine_on1	decimator_turret_base:turretyaw3	decimator_turret_base:turretyaw4
wpn_kessel_imperial_rendili_prototype_x			decimator_turret_base:turretyaw1	decimator_turret_base:turretyaw2	y8_weapon_s01:engine_on1	decimator_turret_base:turretyaw3	decimator_turret_base:turretyaw4
wpn_kessel_imperial_sds_experimental_secret_ops			decimator_turret_base:turretyaw1	decimator_turret_base:turretyaw2	y8_weapon_s01:engine_on1	decimator_turret_base:turretyaw3	decimator_turret_base:turretyaw4
wpn_kessel_imperial_sfs_elite_ops			decimator_turret_base:turretyaw1	decimator_turret_base:turretyaw2	y8_weapon_s01:engine_on1	decimator_turret_base:turretyaw3	decimator_turret_base:turretyaw4
wpn_kessel_rebel_incom_dualcore_flashcannon			decimator_turret_base:turretyaw1	decimator_turret_base:turretyaw2	y8_weapon_s01:engine_on1	decimator_turret_base:turretyaw3	decimator_turret_base:turretyaw4
wpn_kessel_rebel_riiz_combine_slammer_cannon			decimator_turret_base:turretyaw1	decimator_turret_base:turretyaw2	y8_weapon_s01:engine_on1	decimator_turret_base:turretyaw3	decimator_turret_base:turretyaw4
wpn_kessel_rebel_unknown_rayslinger			decimator_turret_base:turretyaw1	decimator_turret_base:turretyaw2	y8_weapon_s01:engine_on1	decimator_turret_base:turretyaw3	decimator_turret_base:turretyaw4
wpn_reward_incom_elite			decimator_turret_base:turretyaw1	decimator_turret_base:turretyaw2	y8_weapon_s01:engine_on1	decimator_turret_base:turretyaw3	decimator_turret_base:turretyaw4
wpn_reward_seinar_elite			decimator_turret_base:turretyaw1	decimator_turret_base:turretyaw2	y8_weapon_s01:engine_on1	decimator_turret_base:turretyaw3	decimator_turret_base:turretyaw4
wpn_reward_slayn_elite			decimator_turret_base:turretyaw1	decimator_turret_base:turretyaw2	y8_weapon_s01:engine_on1	decimator_turret_base:turretyaw3	decimator_turret_base:turretyaw4
wpn_reward_subpro_elite			decimator_turret_base:turretyaw1	decimator_turret_base:turretyaw2	y8_weapon_s01:engine_on1	decimator_turret_base:turretyaw3	decimator_turret_base:turretyaw4
wpn_reward_taim_elite			decimator_turret_base:turretyaw1	decimator_turret_base:turretyaw2	y8_weapon_s01:engine_on1	decimator_turret_base:turretyaw3	decimator_turret_base:turretyaw4
wpn_nova_ioncannon			decimator_turret_base:turretyaw1	decimator_turret_base:turretyaw2	y8_weapon_s01:engine_on1	decimator_turret_base:turretyaw3	decimator_turret_base:turretyaw4
wpn_orion_disruptor			decimator_turret_base:turretyaw1	decimator_turret_base:turretyaw2	y8_weapon_s01:engine_on1	decimator_turret_base:turretyaw3	decimator_turret_base:turretyaw4
