component	engine	booster	weapon_0	weapon_1	weapon_2	weapon_3	modification_0
s	s	s	s	s	s	s	s
collection_reward_booster_01_mk1		hutt_heavy_booster_s02:booster1					
collection_reward_booster_01_mk2		hutt_heavy_booster_s02:booster1					
collection_reward_booster_01_mk3		hutt_heavy_booster_s02:booster1					
collection_reward_booster_01_mk4		hutt_heavy_booster_s02:booster1					
collection_reward_booster_01_mk5		hutt_heavy_booster_s02:booster1					
bst_corellian_advanced_thrust_enhancer		hutt_heavy_booster_s01:booster1					
bst_corellian_elite_thrust_enhancer		hutt_heavy_booster_s01:booster1					
bst_corellian_experimental_tjh3		hutt_heavy_booster_s01:booster1					
bst_corellian_heavy_thrust_enhancer		hutt_heavy_booster_s02:booster1					
bst_corellian_highly_modified_elite_thrust_enhancer		hutt_heavy_booster_s01:booster1					
bst_corellian_performance_advanced_thrust_enhancer		hutt_heavy_booster_s01:booster1					
bst_corellian_promotional_standard_thrust_enhancer		hutt_heavy_booster_s01:booster1					
bst_corellian_standard_thrust_enhancer		hutt_heavy_booster_s01:booster1					
bst_corellian_tjh3		hutt_heavy_booster_s01:booster1					
bst_corellian_tuned_heavy_thrust_enhancer		hutt_heavy_booster_s02:booster1
bst_cygnus_flashboost3		hutt_heavy_booster_s01:booster1
bst_cygnus_flashboost4		hutt_heavy_booster_s01:booster1
bst_elite_booster		hutt_heavy_booster_s01:booster1
bst_freitek_outrunner_x1		hutt_heavy_booster_s01:booster1
bst_gallofree_light		hutt_heavy_booster_s01:booster1
bst_generic		hutt_heavy_booster_s01:booster1
bst_incom_deluxe_fynock		hutt_heavy_booster_s01:booster1
bst_incom_elite_sls_1		hutt_heavy_booster_s01:booster1
bst_incom_enhanced_mynock		hutt_heavy_booster_s01:booster1
bst_incom_fynock		hutt_heavy_booster_s01:booster1
bst_incom_intimidator_mk1		hutt_heavy_booster_s01:booster1
bst_incom_intimidator_mk2		hutt_heavy_booster_s01:booster1
bst_incom_intimidator_mk3		hutt_heavy_booster_s01:booster1
bst_incom_intimidator_mk4		hutt_heavy_booster_s01:booster1
bst_incom_mynock		hutt_heavy_booster_s01:booster1
bst_incom_nkj31		hutt_heavy_booster_s01:booster1
bst_incom_performance_nkj31		hutt_heavy_booster_s01:booster1
bst_incom_sls_1		hutt_heavy_booster_s01:booster1
bst_incom_supercharged_vynock		hutt_heavy_booster_s02:booster1
bst_incom_vynock		hutt_heavy_booster_s01:booster1
bst_kde_br12		hutt_heavy_booster_s01:booster1
bst_kessel_imperial_cygnus_hyperthrust		hutt_heavy_booster_s01:booster1
bst_kessel_imperial_sds_experimental_b7		hutt_heavy_booster_s01:booster1
bst_kessel_imperial_sfs_ultra_thrust		hutt_heavy_booster_s01:booster1
bst_kessel_rebel_incom_quicksilver		hutt_heavy_booster_s01:booster1
bst_kessel_rebel_incom_windrunner		hutt_heavy_booster_s01:booster1
bst_kessel_rebel_mandal_lightning_m1		hutt_heavy_booster_s01:booster1
bst_koensayr_advanced		hutt_heavy_booster_s01:booster1
bst_koensayr_charged_advanced		hutt_heavy_booster_s01:booster1
bst_koensayr_deluxe_elite		hutt_heavy_booster_s01:booster1
bst_koensayr_elite		hutt_heavy_booster_s01:booster1
bst_koensayr_evh12		hutt_heavy_booster_s01:booster1
bst_koensayr_heavy		hutt_heavy_booster_s02:booster1
bst_koensayr_modified_heavy		hutt_heavy_booster_s02:booster1
bst_koensayr_racer_mk1		hutt_heavy_booster_s02:booster1
bst_koensayr_racer_mk2		hutt_heavy_booster_s02:booster1
bst_koensayr_racer_mk3		hutt_heavy_booster_s02:booster1
bst_koensayr_racer_mk4		hutt_heavy_booster_s02:booster1
bst_koensayr_special_evh12		hutt_heavy_booster_s01:booster1
bst_koensayr_improved_standard		hutt_heavy_booster_s01:booster1
bst_koensayr_standard		hutt_heavy_booster_s01:booster1
bst_kse_als_1		hutt_heavy_booster_s01:booster1
bst_kse_bti1		hutt_heavy_booster_s01:booster1
bst_kse_bti2		hutt_heavy_booster_s01:booster1
bst_kse_bti3		hutt_heavy_booster_s01:booster1
bst_kse_cb6		hutt_heavy_booster_s01:booster1
bst_kse_deluxe_bti3		hutt_heavy_booster_s01:booster1
bst_kse_elite_als_1		hutt_heavy_booster_s01:booster1
bst_kse_enhanced_bti2		hutt_heavy_booster_s01:booster1
bst_kse_performance_bti1		hutt_heavy_booster_s01:booster1
bst_kse_performance_cb6		hutt_heavy_booster_s01:booster1
bst_kuat_military_mk1		hutt_heavy_booster_s02:booster1
bst_kuat_military_mk2		hutt_heavy_booster_s02:booster1
bst_kuat_military_mk3		hutt_heavy_booster_s01:booster1
bst_kuat_military_mk4		hutt_heavy_booster_s02:booster1
bst_mandal_deluxe_jbj_mk4		hutt_heavy_booster_s01:booster1
bst_mandal_enhanced_jbj_mk1		hutt_heavy_booster_s01:booster1
bst_mandal_improved_jbj_mk3		hutt_heavy_booster_s01:booster1
bst_mandal_jbj_mk1		hutt_heavy_booster_s01:booster1
bst_mandal_jbj_mk2		hutt_heavy_booster_s01:booster1
bst_mandal_jbj_mk3		hutt_heavy_booster_s01:booster1
bst_mandal_jbj_mk4		hutt_heavy_booster_s01:booster1
bst_mandal_jbj_mk5		hutt_heavy_booster_s01:booster1
bst_mandal_limited_jbj_mk5		hutt_heavy_booster_s01:booster1
bst_mandal_modified_jbj_mk2		hutt_heavy_booster_s01:booster1
bst_mission_reward_imperial_rss_ion_booster		hutt_heavy_booster_s02:booster1
bst_mission_reward_neutral_mandal_m_series		hutt_heavy_booster_s02:booster1
bst_mission_reward_neutral_mandal_q_series		hutt_heavy_booster_s02:booster1
bst_mission_reward_rebel_novaldex_hypernova		hutt_heavy_booster_s02:booster1
bst_mission_reward_rebel_qualdex_halcyon		hutt_heavy_booster_s02:booster1
bst_mk1		hutt_heavy_booster_s01:booster1
bst_mk2		hutt_heavy_booster_s01:booster1
bst_mk3		hutt_heavy_booster_s02:booster1
bst_mk4		hutt_heavy_booster_s02:booster1
bst_mk5		hutt_heavy_booster_s02:booster1
bst_moncal_advanced		hutt_heavy_booster_s01:booster1
bst_moncal_charged_heavy		hutt_heavy_booster_s01:booster1
bst_moncal_deluxe_standard		hutt_heavy_booster_s01:booster1
bst_moncal_elite		hutt_heavy_booster_s01:booster1
bst_moncal_enhanced_elite		hutt_heavy_booster_s01:booster1
bst_moncal_heavy		hutt_heavy_booster_s01:booster1
bst_moncal_jlc37		hutt_heavy_booster_s01:booster1
bst_moncal_limited_jlc37		hutt_heavy_booster_s01:booster1
bst_moncal_rare_advanced		hutt_heavy_booster_s01:booster1
bst_moncal_standard		hutt_heavy_booster_s01:booster1
bst_nova_breaker		hutt_heavy_booster_s01:booster1
bst_novaldex_pulsar		hutt_heavy_booster_s01:booster1
bst_novaldex_pulsar_advanced		hutt_heavy_booster_s01:booster1
bst_novaldex_quasar		hutt_heavy_booster_s01:booster1
bst_novaldex_quasar_advanced		hutt_heavy_booster_s01:booster1
bst_qualdex_xboost_mk1		hutt_heavy_booster_s01:booster1
bst_qualdex_xboost_mk2		hutt_heavy_booster_s01:booster1
bst_qualdex_xboost_mk3		hutt_heavy_booster_s01:booster1
bst_qualdex_xboost_mk4		hutt_heavy_booster_s01:booster1
bst_reward_incom_elite		hutt_heavy_booster_s01:booster1
bst_reward_koensayr_elite		hutt_heavy_booster_s01:booster1
bst_reward_kuat_elite		hutt_heavy_booster_s01:booster1
bst_reward_novaldex_elite		hutt_heavy_booster_s01:booster1
bst_reward_qualdex_elite		hutt_heavy_booster_s01:booster1
bst_rss_special		hutt_heavy_booster_s01:booster1
bst_sap_imperial_1		hutt_heavy_booster_s01:booster1
bst_sap_imperial_2		hutt_heavy_booster_s01:booster1
bst_sds_enhanced_imperial_2		hutt_heavy_booster_s01:booster1
bst_sfs_imperial_1		hutt_heavy_booster_s01:booster1
bst_sfs_imperial_2		hutt_heavy_booster_s01:booster1
bst_slayn_ion_booster_mk1		hutt_heavy_booster_s01:booster1
bst_sorosuub_enhanced_liberator_mk4		hutt_heavy_booster_s01:booster1
bst_sorosuub_improved_liberator_mk2		hutt_heavy_booster_s01:booster1
bst_sorosuub_liberator_mk1		hutt_heavy_booster_s01:booster1
bst_sorosuub_liberator_mk2		hutt_heavy_booster_s01:booster1
bst_sorosuub_liberator_mk3		hutt_heavy_booster_s01:booster1
bst_sorosuub_liberator_mk4		hutt_heavy_booster_s01:booster1
bst_sorosuub_liberator_mk5		hutt_heavy_booster_s01:booster1
bst_sorosuub_prized_liberator_mk1		hutt_heavy_booster_s01:booster1
bst_sorosuub_supercharged_liberator_mk3		hutt_heavy_booster_s01:booster1
bst_sorosuub_well_tuned_liberator_mk5		hutt_heavy_booster_s01:booster1
bst_subpro_accelatron_mk1		hutt_heavy_booster_s01:booster1
bst_subpro_accelatron_mk2		hutt_heavy_booster_s01:booster1
bst_subpro_accelatron_mk3		hutt_heavy_booster_s01:booster1
bst_subpro_accelatron_mk4		hutt_heavy_booster_s01:booster1
bst_subpro_accelatron_mk5		hutt_heavy_booster_s01:booster1
bst_subpro_deluxe_accelatron_mk3		hutt_heavy_booster_s01:booster1
bst_subpro_elite_accelatron_mk5		hutt_heavy_booster_s01:booster1
bst_subpro_enhanced_accelatron_mk2		hutt_heavy_booster_s01:booster1
bst_subpro_modified_accelatron_mk4		hutt_heavy_booster_s01:booster1
bst_subpro_tuned_accelatron_mk1		hutt_heavy_booster_s01:booster1
bst_surronian_accelerator_mk1		hutt_heavy_booster_s01:booster1
bst_surronian_accelerator_mk2		hutt_heavy_booster_s01:booster1
bst_surronian_nomad_x4		hutt_heavy_booster_s01:booster1
bst_surronian_nomad_x8		hutt_heavy_booster_s01:booster1
bst_tiefighter_basic		hutt_heavy_booster_s02:booster1
bst_xwing_booster_s01		hutt_heavy_booster_s01:booster1
bst_z95_basic		hutt_heavy_booster_s01:booster1
eng_bezelbok_kessel_runner	hutt_heavy_engine_s02:engine1	
eng_corellian_cruiser_grade_mk1	hutt_heavy_engine_s01:engine1	
eng_corellian_cruiser_grade_mk2	hutt_heavy_engine_s01:engine1	
eng_corellian_deluxe_cruiser_grade_mk1	hutt_heavy_engine_s01:engine1	
eng_crafted_incom_fusialthrust	hutt_heavy_engine_s01:engine1	
eng_crafted_novaldex_eventhorizon	hutt_heavy_engine_s02:engine1	
eng_crafted_qualdex_kyromaster	hutt_heavy_engine_s02:engine1	
eng_cygnus_hd3	hutt_heavy_engine_s01:engine1	
eng_cygnus_hd7	hutt_heavy_engine_s01:engine1	
eng_cygnus_hd8	hutt_heavy_engine_s01:engine1	
eng_cygnus_hd_5	hutt_heavy_engine_s01:engine1
eng_cygnus_hdx	hutt_heavy_engine_s01:engine1
eng_damorian_rx7	hutt_heavy_engine_s01:engine1
eng_freitek_dual_jet	hutt_heavy_engine_s01:engine1
eng_gallofree_advanced	hutt_heavy_engine_s01:engine1
eng_gallofree_jx2	hutt_heavy_engine_s01:engine1
eng_gallofree_jx3	hutt_heavy_engine_s01:engine1
eng_generic	hutt_heavy_engine_s01:engine1
eng_h17_singularity	hutt_heavy_engine_s02:engine1
eng_haor_chall_old_engine	hutt_heavy_engine_s01:engine1
eng_incom_advanced	hutt_heavy_engine_s01:engine1
eng_incom_advanced_fusialthrust	hutt_heavy_engine_s01:engine1
eng_incom_e16	hutt_heavy_engine_s01:engine1
eng_incom_elite	hutt_heavy_engine_s01:engine1
eng_incom_fusialthrust	hutt_heavy_engine_s01:engine1
eng_incom_fusialthrust_2	hutt_heavy_engine_s01:engine1
eng_incom_heavy_fusialthrust	hutt_heavy_engine_s01:engine1
eng_incom_improved_fusialthrust_2	hutt_heavy_engine_s01:engine1
eng_incom_light_fusialthrust	hutt_heavy_engine_s01:engine1
eng_koensayr_advanced	hutt_heavy_engine_s01:engine1
eng_koensayr_dual_small_ionjet	hutt_heavy_engine_s01:engine1
eng_koensayr_elite	hutt_heavy_engine_s01:engine1
eng_koensayr_enhanced_dual_small_ionjet	hutt_heavy_engine_s01:engine1
eng_koensayr_heavy_ionjet	hutt_heavy_engine_s01:engine1
eng_koensayr_ionjet	hutt_heavy_engine_s01:engine1
eng_koensayr_small_ionjet	hutt_heavy_engine_s01:engine1
eng_koensayr_tuned_small_ionjet	hutt_heavy_engine_s01:engine1
eng_kongar_defender	hutt_heavy_engine_s01:engine1
eng_kse_a2x	hutt_heavy_engine_s01:engine1
eng_kse_a5x	hutt_heavy_engine_s01:engine1
eng_kse_a7x	hutt_heavy_engine_s01:engine1
eng_kse_a8x	hutt_heavy_engine_s01:engine1
eng_kse_advanced	hutt_heavy_engine_s01:engine1
eng_kse_elite	hutt_heavy_engine_s01:engine1
eng_kse_improved_a2x	hutt_heavy_engine_s01:engine1
eng_kuat_a9x	hutt_heavy_engine_s01:engine1
eng_kuat_f31	hutt_heavy_engine_s01:engine1
eng_kuat_tc40	hutt_heavy_engine_s01:engine1
eng_mandal_advanced	hutt_heavy_engine_s01:engine1
eng_mandal_elite	hutt_heavy_engine_s01:engine1
eng_mandal_enhanced_heavy	hutt_heavy_engine_s01:engine1
eng_mandal_firestorm	hutt_heavy_engine_s01:engine1
eng_mandal_firestorm_2	hutt_heavy_engine_s01:engine1
eng_mandal_heavy	hutt_heavy_engine_s01:engine1
eng_mandal_x37_vandal	hutt_heavy_engine_s01:engine1
eng_mandal_x57_vandal	hutt_heavy_engine_s01:engine1
eng_mission_reward_imperial_cygnus_megadrive	hutt_heavy_engine_s02:engine1
eng_mission_reward_neutral_haor_chall_military	hutt_heavy_engine_s02:engine1
eng_mission_reward_neutral_mandal_inferno	hutt_heavy_engine_s02:engine1
eng_mission_reward_rebel_incom_military	hutt_heavy_engine_s02:engine1
eng_mk1	hutt_heavy_engine_s01:engine1
eng_mk2	hutt_heavy_engine_s01:engine1
eng_mk3	hutt_heavy_engine_s02:engine1
eng_mk4	hutt_heavy_engine_s02:engine1
eng_mk5	hutt_heavy_engine_s02:engine1
eng_moncal_charged_standard	hutt_heavy_engine_s01:engine1
eng_moncal_enhanced_light	hutt_heavy_engine_s01:engine1
eng_moncal_heavy	hutt_heavy_engine_s01:engine1
eng_moncal_ifs32	hutt_heavy_engine_s01:engine1
eng_moncal_ifs64	hutt_heavy_engine_s01:engine1
eng_moncal_improved_heavy	hutt_heavy_engine_s01:engine1
eng_moncal_light	hutt_heavy_engine_s01:engine1
eng_moncal_standard	hutt_heavy_engine_s01:engine1
eng_novaldex_advanced	hutt_heavy_engine_s01:engine1
eng_novaldex_eventhorizon	hutt_heavy_engine_s02:engine1
eng_novaldex_light_eventhorizon	hutt_heavy_engine_s01:engine1
eng_novaldex_singularity	hutt_heavy_engine_s02:engine1
eng_novaldex_x12	hutt_heavy_engine_s02:engine1
eng_novaldex_x6	hutt_heavy_engine_s01:engine1
eng_novaldex_x7	hutt_heavy_engine_s01:engine1
eng_novaldex_x9	hutt_heavy_engine_s01:engine1
eng_nubian_221	hutt_heavy_engine_s01:engine1
eng_nubian_221_racing_mod	hutt_heavy_engine_s01:engine1
eng_prototype	hutt_heavy_engine_s02:engine1
eng_qualdex_a10	hutt_heavy_engine_s02:engine1
eng_qualdex_a13	hutt_heavy_engine_s01:engine1
eng_qualdex_advanced	hutt_heavy_engine_s01:engine1
eng_qualdex_b10	hutt_heavy_engine_s01:engine1
eng_qualdex_elite	hutt_heavy_engine_s01:engine1
eng_qualdex_igt	hutt_heavy_engine_s02:engine1
eng_qualdex_kyromaster	hutt_heavy_engine_s02:engine1
eng_qualdex_small_kyromaster	hutt_heavy_engine_s01:engine1
eng_quantum_ion_drive	hutt_heavy_engine_s02:engine1
eng_rendili_demon_mk1	hutt_heavy_engine_s01:engine1
eng_rendili_elite	hutt_heavy_engine_s01:engine1
eng_rss_advanced	hutt_heavy_engine_s01:engine1
eng_rss_elite	hutt_heavy_engine_s01:engine1
eng_rss_imperial_skyrunner	hutt_heavy_engine_s01:engine1
eng_rss_imperial_skyrunner_2	hutt_heavy_engine_s01:engine1
eng_rss_imperial_skyrunner_3	hutt_heavy_engine_s01:engine1
eng_rss_imperial_skyrunner_4	hutt_heavy_engine_s01:engine1
eng_sds_imperial_1	hutt_heavy_engine_s01:engine1
eng_sds_imperial_2	hutt_heavy_engine_s01:engine1
eng_sds_limited_imperial_1	hutt_heavy_engine_s01:engine1
eng_seinar_ps56	hutt_heavy_engine_s01:engine1
eng_sfs_advanced	hutt_heavy_engine_s01:engine1
eng_sfs_elite	hutt_heavy_engine_s01:engine1
eng_sfs_imperial_1	hutt_heavy_engine_s01:engine1
eng_sfs_imperial_2	hutt_heavy_engine_s01:engine1
eng_sfs_imperial_3	hutt_heavy_engine_s01:engine1
eng_sfs_imperial_4	hutt_heavy_engine_s01:engine1
eng_sfs_imperial_5	hutt_heavy_engine_s01:engine1
eng_sfs_modified_imperial_3	hutt_heavy_engine_s01:engine1
eng_sfs_performance_imperial_1	hutt_heavy_engine_s01:engine1
eng_sfs_tuned_imperial_2	hutt_heavy_engine_s01:engine1
eng_sorosuub_l_337_ion_engine	hutt_heavy_engine_s01:engine1
eng_sorosuub_tuned_l_337_ion_engine	hutt_heavy_engine_s01:engine1
eng_sorosuub_u83r_ion_drive	hutt_heavy_engine_s01:engine1
eng_subpro_light_engines	hutt_heavy_engine_s01:engine1
eng_surronian_a2	hutt_heavy_engine_s02:engine1
eng_surronian_a25	hutt_heavy_engine_s02:engine1
eng_ubrikkian_n2	hutt_heavy_engine_s01:engine1
eng_kessel_imperial_rendili_hyperion_drive	hutt_heavy_engine_s01:engine1
eng_kessel_imperial_sds_special_forces	hutt_heavy_engine_s01:engine1
eng_kessel_imperial_sfs_special_forces	hutt_heavy_engine_s01:engine1
eng_kessel_rebel_incom_t11_elite	hutt_heavy_engine_s01:engine1
eng_kessel_rebel_novaldex_blackhole_elite	hutt_heavy_engine_s01:engine1
eng_kessel_rebel_novaldex_grb1138	hutt_heavy_engine_s01:engine1
eng_reward_kuat_elite	hutt_heavy_engine_s01:engine1
eng_nova_01	hutt_heavy_engine_s01:engine1
eng_orion_01	hutt_heavy_engine_s01:engine1
collection_reward_engine_01_mk1	hutt_heavy_engine_s01:engine1
collection_reward_engine_01_mk2	hutt_heavy_engine_s01:engine1
collection_reward_engine_01_mk3	hutt_heavy_engine_s01:engine1
collection_reward_engine_01_mk4	hutt_heavy_engine_s01:engine1
collection_reward_engine_01_mk5	hutt_heavy_engine_s01:engine1
eng_t86_shooting_star	hutt_heavy_engine_s01:engine1
eng_kuat_m24	hutt_heavy_engine_s01:engine1
wpn_advanced_blaster			hutt_heavy_weapon1_s05:weapon1_1	hutt_heavy_weapon2_s05:weapon2_1	hutt_heavy_weapon3_s05:weapon3_1
wpn_advanced_blaster_green			hutt_heavy_weapon1_s05:weapon1_1	hutt_heavy_weapon2_s05:weapon2_1	hutt_heavy_weapon3_s05:weapon3_1
wpn_advanced_disruptor			hutt_heavy_weapon1_s01:weapon1_1	hutt_heavy_weapon2_s01:weapon2_1	hutt_heavy_weapon3_s01:weapon3_1
wpn_advanced_ioncannon			hutt_heavy_weapon1_s06:weapon1_1	hutt_heavy_weapon2_s06:weapon2_1	hutt_heavy_weapon3_s06:weapon3_1
wpn_armek_advanced			hutt_heavy_weapon1_s01:weapon1_1	hutt_heavy_weapon2_s01:weapon2_1	hutt_heavy_weapon3_s01:weapon3_1
wpn_armek_elite			hutt_heavy_weapon1_s01:weapon1_1	hutt_heavy_weapon2_s01:weapon2_1	hutt_heavy_weapon3_s01:weapon3_1
wpn_armek_sw4			hutt_heavy_weapon1_s06:weapon1_1	hutt_heavy_weapon2_s05:weapon2_1	hutt_heavy_weapon3_s05:weapon3_1
wpn_armek_sw6			hutt_heavy_weapon1_s01:weapon1_1	hutt_heavy_weapon2_s01:weapon2_1	hutt_heavy_weapon3_s01:weapon3_1
wpn_armek_sw7			hutt_heavy_weapon1_s06:weapon1_1	hutt_heavy_weapon2_s05:weapon2_1	hutt_heavy_weapon3_s05:weapon3_1
wpn_armek_sw8			hutt_heavy_weapon1_s01:weapon1_1	hutt_heavy_weapon2_s01:weapon2_1	hutt_heavy_weapon3_s01:weapon3_1
wpn_awing_blaster			hutt_heavy_weapon1_s01:weapon1_1	hutt_heavy_weapon2_s01:weapon2_1	hutt_heavy_weapon3_s01:weapon3_1
wpn_bwing_blaster			hutt_heavy_weapon1_s01:weapon1_1	hutt_heavy_weapon2_s01:weapon2_1	hutt_heavy_weapon3_s01:weapon3_1
wpn_corellian_1d			hutt_heavy_weapon1_s01:weapon1_1	hutt_heavy_weapon2_s01:weapon2_1	hutt_heavy_weapon3_s01:weapon3_1
wpn_corellian_ag1g_laser			hutt_heavy_weapon1_s01:weapon1_1	hutt_heavy_weapon2_s01:weapon2_1	hutt_heavy_weapon3_s01:weapon3_1
wpn_corellian_ag2g_quad_laser			hutt_heavy_weapon1_s01:weapon1_1	hutt_heavy_weapon2_s01:weapon2_1	hutt_heavy_weapon3_s01:weapon3_1
wpn_corellian_cruiser_grade_blaster_mk1			hutt_heavy_weapon1_s01:weapon1_1	hutt_heavy_weapon2_s01:weapon2_1	hutt_heavy_weapon3_s01:weapon3_1
wpn_corellian_heavy_gauss			hutt_heavy_weapon1_s06:weapon1_1	hutt_heavy_weapon2_s06:weapon2_1	hutt_heavy_weapon3_s06:weapon3_1
wpn_crafted_incom_disruptor			hutt_heavy_weapon1_s01:weapon1_1	hutt_heavy_weapon2_s01:weapon2_1	hutt_heavy_weapon3_s01:weapon3_1
wpn_crafted_slayn_ioncannon			hutt_heavy_weapon1_s01:weapon1_1	hutt_heavy_weapon2_s02:weapon2_1	hutt_heavy_weapon3_s02:weapon3_1
wpn_crafted_subpro_tripleblaster			hutt_heavy_weapon1_s04:weapon1_1	hutt_heavy_weapon2_s04:weapon2_1	hutt_heavy_weapon3_s04:weapon3_1
wpn_crafted_tractor_beam			hutt_heavy_weapon1_s01:weapon1_1	hutt_heavy_weapon2_s01:weapon2_1	hutt_heavy_weapon3_s01:weapon3_1
wpn_cygnus_destroyer_mk1			hutt_heavy_weapon1_s01:weapon1_1	hutt_heavy_weapon2_s01:weapon2_1	hutt_heavy_weapon3_s01:weapon3_1
wpn_cygnus_destroyer_mk2			hutt_heavy_weapon1_s01:weapon1_1	hutt_heavy_weapon2_s01:weapon2_1	hutt_heavy_weapon3_s01:weapon3_1
wpn_cygnus_elite			hutt_heavy_weapon1_s01:weapon1_1	hutt_heavy_weapon2_s01:weapon2_1	hutt_heavy_weapon3_s01:weapon3_1
wpn_cygnus_eradicator_1			hutt_heavy_weapon1_s01:weapon1_1	hutt_heavy_weapon2_s01:weapon2_1	hutt_heavy_weapon3_s01:weapon3_1
wpn_experimental_blaster			hutt_heavy_weapon1_s05:weapon1_1	hutt_heavy_weapon2_s05:weapon2_1	hutt_heavy_weapon3_s05:weapon3_1
wpn_experimental_blaster_green			hutt_heavy_weapon1_s05:weapon1_1	hutt_heavy_weapon2_s05:weapon2_1	hutt_heavy_weapon3_s05:weapon3_1
wpn_experimental_disruptor			hutt_heavy_weapon1_s01:weapon1_1	hutt_heavy_weapon2_s01:weapon2_1	hutt_heavy_weapon3_s01:weapon3_1
wpn_experimental_ioncannon			hutt_heavy_weapon1_s06:weapon1_1	hutt_heavy_weapon2_s06:weapon2_1	hutt_heavy_weapon3_s06:weapon3_1
wpn_fastspray_2000_disruptor			hutt_heavy_weapon1_s06:weapon1_1	hutt_heavy_weapon2_s06:weapon2_1	hutt_heavy_weapon3_s06:weapon3_1
wpn_freitek_cannoneer_mk1			hutt_heavy_weapon1_s01:weapon1_1	hutt_heavy_weapon2_s01:weapon2_1	hutt_heavy_weapon3_s01:weapon3_1
wpn_gyrhil_auto_blaster			hutt_heavy_weapon1_s01:weapon1_1	hutt_heavy_weapon2_s01:weapon2_1	hutt_heavy_weapon3_s01:weapon3_1
wpn_gyrhil_r9x			hutt_heavy_weapon1_s01:weapon1_1	hutt_heavy_weapon2_s01:weapon2_1	hutt_heavy_weapon3_s01:weapon3_1
wpn_haor_chall_speedblaster			hutt_heavy_weapon1_s01:weapon1_1	hutt_heavy_weapon2_s01:weapon2_1	hutt_heavy_weapon3_s01:weapon3_1
wpn_heavy_blaster			hutt_heavy_weapon1_s05:weapon1_1	hutt_heavy_weapon2_s05:weapon2_1	hutt_heavy_weapon3_s05:weapon3_1
wpn_heavy_blaster_green			hutt_heavy_weapon1_s05:weapon1_1	hutt_heavy_weapon2_s05:weapon2_1	hutt_heavy_weapon3_s05:weapon3_1
wpn_heavy_disruptor			hutt_heavy_weapon1_s06:weapon1_1	hutt_heavy_weapon2_s06:weapon2_1	hutt_heavy_weapon3_s06:weapon3_1
wpn_heavy_ioncannon			hutt_heavy_weapon1_s01:weapon1_1	hutt_heavy_weapon2_s01:weapon2_1	hutt_heavy_weapon3_s01:weapon3_1
wpn_hk_modified_scorcher_elite			hutt_heavy_weapon1_s01:weapon1_1	hutt_heavy_weapon2_s01:weapon2_1	hutt_heavy_weapon3_s01:weapon3_1
wpn_hk_scorcher			hutt_heavy_weapon1_s01:weapon1_1	hutt_heavy_weapon2_s01:weapon2_1	hutt_heavy_weapon3_s01:weapon3_1
wpn_hk_scorcher_2			hutt_heavy_weapon1_s01:weapon1_1	hutt_heavy_weapon2_s01:weapon2_1	hutt_heavy_weapon3_s01:weapon3_1
wpn_hk_scorcher_3			hutt_heavy_weapon1_s01:weapon1_1	hutt_heavy_weapon2_s01:weapon2_1	hutt_heavy_weapon3_s01:weapon3_1
wpn_hk_scorcher_advanced			hutt_heavy_weapon1_s01:weapon1_1	hutt_heavy_weapon2_s01:weapon2_1	hutt_heavy_weapon3_s01:weapon3_1
wpn_hk_scorcher_elite			hutt_heavy_weapon1_s01:weapon1_1	hutt_heavy_weapon2_s01:weapon2_1	hutt_heavy_weapon3_s01:weapon3_1
wpn_hk_scorcher_heavy			hutt_heavy_weapon1_s01:weapon1_1	hutt_heavy_weapon2_s01:weapon2_1	hutt_heavy_weapon3_s01:weapon3_1
wpn_hoersch_railgun			hutt_heavy_weapon1_s06:weapon1_1	hutt_heavy_weapon2_s06:weapon2_1	hutt_heavy_weapon3_s06:weapon3_1
wpn_incom_advanced_blaster			hutt_heavy_weapon1_s01:weapon1_1	hutt_heavy_weapon2_s01:weapon2_1	hutt_heavy_weapon3_s01:weapon3_1
wpn_incom_blaster			hutt_heavy_weapon1_s01:weapon1_1	hutt_heavy_weapon2_s01:weapon2_1	hutt_heavy_weapon3_s01:weapon3_1
wpn_incom_disruptor			hutt_heavy_weapon1_s01:weapon1_1	hutt_heavy_weapon2_s01:weapon2_1	hutt_heavy_weapon3_s01:weapon3_1
wpn_incom_elite_quad_blaster			hutt_heavy_weapon1_s01:weapon1_1	hutt_heavy_weapon2_s01:weapon2_1	hutt_heavy_weapon3_s01:weapon3_1
wpn_incom_heavy_blaster			hutt_heavy_weapon1_s01:weapon1_1	hutt_heavy_weapon2_s01:weapon2_1	hutt_heavy_weapon3_s01:weapon3_1
wpn_incom_heavy_quad_blaster			hutt_heavy_weapon1_s01:weapon1_1	hutt_heavy_weapon2_s01:weapon2_1	hutt_heavy_weapon3_s01:weapon3_1
wpn_incom_light_blaster			hutt_heavy_weapon1_s01:weapon1_1	hutt_heavy_weapon2_s01:weapon2_1	hutt_heavy_weapon3_s01:weapon3_1
wpn_incom_quad_blaster			hutt_heavy_weapon1_s04:weapon1_1	hutt_heavy_weapon2_s04:weapon2_1	hutt_heavy_weapon3_s04:weapon3_1
wpn_incom_shredder			hutt_heavy_weapon1_s05:weapon1_1	hutt_heavy_weapon2_s05:weapon2_1	hutt_heavy_weapon3_s05:weapon3_1
wpn_incom_tt13			hutt_heavy_weapon1_s01:weapon1_1	hutt_heavy_weapon2_s01:weapon2_1	hutt_heavy_weapon3_s01:weapon3_1
wpn_incom_tt8			hutt_heavy_weapon1_s01:weapon1_1	hutt_heavy_weapon2_s01:weapon2_1	hutt_heavy_weapon3_s01:weapon3_1
wpn_kdy_pounder_mk1			hutt_heavy_weapon1_s01:weapon1_1	hutt_heavy_weapon2_s01:weapon2_1	hutt_heavy_weapon3_s01:weapon3_1
wpn_koensayr_deluxe_ion_accelerator			hutt_heavy_weapon1_s01:weapon1_1	hutt_heavy_weapon2_s01:weapon2_1	hutt_heavy_weapon3_s01:weapon3_1
wpn_koensayr_ion_accelerator			hutt_heavy_weapon1_s01:weapon1_1	hutt_heavy_weapon2_s01:weapon2_1	hutt_heavy_weapon3_s01:weapon3_1
wpn_koensayr_ion_accelerator_2			hutt_heavy_weapon1_s01:weapon1_1	hutt_heavy_weapon2_s01:weapon2_1	hutt_heavy_weapon3_s01:weapon3_1
wpn_koensayr_ion_accelerator_3			hutt_heavy_weapon1_s01:weapon1_1	hutt_heavy_weapon2_s01:weapon2_1	hutt_heavy_weapon3_s01:weapon3_1
wpn_koensayr_ion_accelerator_advanced			hutt_heavy_weapon1_s01:weapon1_1	hutt_heavy_weapon2_s01:weapon2_1	hutt_heavy_weapon3_s01:weapon3_1
wpn_koensayr_light_disruptor			hutt_heavy_weapon1_s01:weapon1_1	hutt_heavy_weapon2_s01:weapon2_1	hutt_heavy_weapon3_s01:weapon3_1
wpn_koensayr_tuned_light_disruptor			hutt_heavy_weapon1_s01:weapon1_1	hutt_heavy_weapon2_s01:weapon2_1	hutt_heavy_weapon3_s01:weapon3_1	
wpn_kse_double_blaster			hutt_heavy_weapon1_s01:weapon1_1	hutt_heavy_weapon2_s01:weapon2_1	hutt_heavy_weapon3_s01:weapon3_1	
wpn_kse_light_disruptor			hutt_heavy_weapon1_s01:weapon1_1	hutt_heavy_weapon2_s01:weapon2_1	hutt_heavy_weapon3_s01:weapon3_1	
wpn_launcher_concussion_mk1						hutt_heavy_missile_pod_s01:missilepod1
wpn_launcher_concussion_mk2						hutt_heavy_missile_pod_s01:missilepod1
wpn_launcher_concussion_mk3						hutt_heavy_missile_pod_s01:missilepod1
wpn_launcher_imagerec_mk1						hutt_heavy_missile_pod_s01:missilepod1
wpn_launcher_imagerec_mk2						hutt_heavy_missile_pod_s01:missilepod1
wpn_launcher_proton_mk1						hutt_heavy_missile_pod_s01:missilepod1
wpn_launcher_proton_mk2						hutt_heavy_missile_pod_s01:missilepod1
wpn_launcher_proton_mk3						hutt_heavy_missile_pod_s01:missilepod1
wpn_launcher_proton_mk4						hutt_heavy_missile_pod_s01:missilepod1
wpn_launcher_seismic_mk1						hutt_heavy_missile_pod_s01:missilepod1
wpn_launcher_seismic_mk2						hutt_heavy_missile_pod_s01:missilepod1
wpn_launcher_seismic_mk3						hutt_heavy_missile_pod_s01:missilepod1
wpn_launcher_spacebomb_mk1						hutt_heavy_missile_pod_s01:missilepod1
wpn_launcher_spacebomb_mk2						hutt_heavy_missile_pod_s01:missilepod1
wpn_light_blaster			hutt_heavy_weapon1_s05:weapon1_1	hutt_heavy_weapon2_s05:weapon2_1	hutt_heavy_weapon3_s05:weapon3_1	
wpn_light_blaster_green			hutt_heavy_weapon1_s05:weapon1_1	hutt_heavy_weapon2_s05:weapon2_1	hutt_heavy_weapon3_s05:weapon3_1	
wpn_light_disruptor			hutt_heavy_weapon1_s01:weapon1_1	hutt_heavy_weapon2_s01:weapon2_1	hutt_heavy_weapon3_s01:weapon3_1	
wpn_light_ioncannon			hutt_heavy_weapon1_s06:weapon1_1	hutt_heavy_weapon2_s06:weapon2_1	hutt_heavy_weapon3_s06:weapon3_1	
wpn_mandal_advanced_annihilator			hutt_heavy_weapon1_s01:weapon1_1	hutt_heavy_weapon2_s01:weapon2_1	hutt_heavy_weapon3_s01:weapon3_1	
wpn_mandal_annihilator_mk2			hutt_heavy_weapon1_s01:weapon1_1	hutt_heavy_weapon2_s01:weapon2_1	hutt_heavy_weapon3_s01:weapon3_1	
wpn_mandal_annilhator_mk1			hutt_heavy_weapon1_s01:weapon1_1	hutt_heavy_weapon2_s01:weapon2_1	hutt_heavy_weapon3_s01:weapon3_1	
wpn_mandal_elite_annihilator			hutt_heavy_weapon1_s01:weapon1_1	hutt_heavy_weapon2_s01:weapon2_1	hutt_heavy_weapon3_s01:weapon3_1	
wpn_mandal_enhanced_mangler_mk1			hutt_heavy_weapon1_s01:weapon1_1	hutt_heavy_weapon2_s01:weapon2_1	hutt_heavy_weapon3_s01:weapon3_1	
wpn_mandal_heavy_annihilator			hutt_heavy_weapon1_s01:weapon1_1	hutt_heavy_weapon2_s01:weapon2_1	hutt_heavy_weapon3_s01:weapon3_1	
wpn_mandal_mangler_mk1			hutt_heavy_weapon1_s01:weapon1_1	hutt_heavy_weapon2_s01:weapon2_1	hutt_heavy_weapon3_s01:weapon3_1	
wpn_mandal_qv3_disruptor			hutt_heavy_weapon1_s01:weapon1_1	hutt_heavy_weapon2_s01:weapon2_1	hutt_heavy_weapon3_s01:weapon3_1	
wpn_mandal_qv5_disruptor			hutt_heavy_weapon1_s01:weapon1_1	hutt_heavy_weapon2_s01:weapon2_1	hutt_heavy_weapon3_s01:weapon3_1	
wpn_mandal_super_mangler			hutt_heavy_weapon1_s01:weapon1_1	hutt_heavy_weapon2_s01:weapon2_1	hutt_heavy_weapon3_s01:weapon3_1	
wpn_medium_blaster			hutt_heavy_weapon1_s05:weapon1_1	hutt_heavy_weapon2_s05:weapon2_1	hutt_heavy_weapon3_s05:weapon3_1	
wpn_medium_blaster_green			hutt_heavy_weapon1_s05:weapon1_1	hutt_heavy_weapon2_s05:weapon2_1	hutt_heavy_weapon3_s05:weapon3_1
wpn_medium_disruptor			hutt_heavy_weapon1_s01:weapon1_1	hutt_heavy_weapon2_s01:weapon2_1	hutt_heavy_weapon3_s01:weapon3_1
wpn_medium_ioncannon			hutt_heavy_weapon1_s06:weapon1_1	hutt_heavy_weapon2_s06:weapon2_1	hutt_heavy_weapon3_s06:weapon3_1
wpn_mining_laser_mk1			hutt_heavy_weapon1_s05:weapon1_1	hutt_heavy_weapon2_s05:weapon2_1	hutt_heavy_weapon3_s05:weapon3_1
wpn_mining_laser_mk2			hutt_heavy_weapon1_s05:weapon1_1	hutt_heavy_weapon2_s05:weapon2_1	hutt_heavy_weapon3_s05:weapon3_1
wpn_mining_laser_mk3			hutt_heavy_weapon1_s05:weapon1_1	hutt_heavy_weapon2_s05:weapon2_1	hutt_heavy_weapon3_s05:weapon3_1
wpn_mission_reward_imperial_cygnus_starblaster			hutt_heavy_weapon1_s01:weapon1_1	hutt_heavy_weapon2_s01:weapon2_1	hutt_heavy_weapon3_s01:weapon3_1
wpn_mission_reward_imperial_sds_boltdriver			hutt_heavy_weapon1_s01:weapon1_1	hutt_heavy_weapon2_s01:weapon2_1	hutt_heavy_weapon3_s01:weapon3_1
wpn_mission_reward_neutral_borstel_disruptor			hutt_heavy_weapon1_s01:weapon1_1	hutt_heavy_weapon2_s01:weapon2_1	hutt_heavy_weapon3_s01:weapon3_1
wpn_mission_reward_neutral_hk_military_blaster			hutt_heavy_weapon1_s01:weapon1_1	hutt_heavy_weapon2_s01:weapon2_1	hutt_heavy_weapon3_s01:weapon3_1
wpn_mission_reward_neutral_mandal_light_blaster			hutt_heavy_weapon1_s01:weapon1_1	hutt_heavy_weapon2_s01:weapon2_1	hutt_heavy_weapon3_s01:weapon3_1
wpn_mission_reward_rebel_incom_tricannon			hutt_heavy_weapon1_s01:weapon1_1	hutt_heavy_weapon2_s01:weapon2_1	hutt_heavy_weapon3_s01:weapon3_1
wpn_mission_reward_rebel_taim_ion_driver			hutt_heavy_weapon1_s01:weapon1_1	hutt_heavy_weapon2_s01:weapon2_1	hutt_heavy_weapon3_s01:weapon3_1
wpn_moncal_light_blaster			hutt_heavy_weapon1_s01:weapon1_1	hutt_heavy_weapon2_s01:weapon2_1	hutt_heavy_weapon3_s01:weapon3_1
wpn_prototype_tie			hutt_heavy_weapon1_s01:weapon1_1	hutt_heavy_weapon2_s01:weapon2_1	hutt_heavy_weapon3_s01:weapon3_1
wpn_rendili_advanced			hutt_heavy_weapon1_s01:weapon1_1	hutt_heavy_weapon2_s01:weapon2_1	hutt_heavy_weapon3_s01:weapon3_1
wpn_rendili_fr13_disruptor			hutt_heavy_weapon1_s01:weapon1_1	hutt_heavy_weapon2_s01:weapon2_1	hutt_heavy_weapon3_s01:weapon3_1
wpn_rendili_fr9_disruptor			hutt_heavy_weapon1_s01:weapon1_1	hutt_heavy_weapon2_s01:weapon2_1	hutt_heavy_weapon3_s01:weapon3_1
wpn_rendili_sc3_disruptor			hutt_heavy_weapon1_s01:weapon1_1	hutt_heavy_weapon2_s01:weapon2_1	hutt_heavy_weapon3_s01:weapon3_1
wpn_rendili_sc8_disruptor			hutt_heavy_weapon1_s01:weapon1_1	hutt_heavy_weapon2_s01:weapon2_1	hutt_heavy_weapon3_s01:weapon3_1
wpn_rss_imperial_cannon			hutt_heavy_weapon1_s01:weapon1_1	hutt_heavy_weapon2_s01:weapon2_1	hutt_heavy_weapon3_s01:weapon3_1
wpn_sds_elite			hutt_heavy_weapon1_s01:weapon1_1	hutt_heavy_weapon2_s01:weapon2_1	hutt_heavy_weapon3_s01:weapon3_1
wpn_sds_heavy_imperial_spc_forces_cannon			hutt_heavy_weapon1_s01:weapon1_1	hutt_heavy_weapon2_s01:weapon2_1	hutt_heavy_weapon3_s01:weapon3_1
wpn_sds_imperial_blaster_1			hutt_heavy_weapon1_s01:weapon1_1	hutt_heavy_weapon2_s01:weapon2_1	hutt_heavy_weapon3_s01:weapon3_1
wpn_sds_imperial_blaster_2			hutt_heavy_weapon1_s01:weapon1_1	hutt_heavy_weapon2_s01:weapon2_1	hutt_heavy_weapon3_s01:weapon3_1
wpn_sds_imperial_special_forces_cannon			hutt_heavy_weapon1_s01:weapon1_1	hutt_heavy_weapon2_s01:weapon2_1	hutt_heavy_weapon3_s01:weapon3_1
wpn_sds_modified_elite			hutt_heavy_weapon1_s01:weapon1_1	hutt_heavy_weapon2_s01:weapon2_1	hutt_heavy_weapon3_s01:weapon3_1
wpn_seinar_disruptor			hutt_heavy_weapon1_s01:weapon1_1	hutt_heavy_weapon2_s01:weapon2_1	hutt_heavy_weapon3_s01:weapon3_1
wpn_seinar_ion_cannon			hutt_heavy_weapon1_s01:weapon1_1	hutt_heavy_weapon2_s01:weapon2_1	hutt_heavy_weapon3_s01:weapon3_1
wpn_seinar_linked_cannon			hutt_heavy_weapon1_s01:weapon1_1	hutt_heavy_weapon2_s01:weapon2_1	hutt_heavy_weapon3_s01:weapon3_1
wpn_seinar_ls1			hutt_heavy_weapon1_s01:weapon1_1	hutt_heavy_weapon2_s01:weapon2_1	hutt_heavy_weapon3_s01:weapon3_1
wpn_seinar_ls72			hutt_heavy_weapon1_s01:weapon1_1	hutt_heavy_weapon2_s01:weapon2_1	hutt_heavy_weapon3_s01:weapon3_1
wpn_sfs_elite			hutt_heavy_weapon1_s01:weapon1_1	hutt_heavy_weapon2_s01:weapon2_1	hutt_heavy_weapon3_s01:weapon3_1
wpn_sfs_imperial_blaster_1			hutt_heavy_weapon1_s01:weapon1_1	hutt_heavy_weapon2_s01:weapon2_1	hutt_heavy_weapon3_s01:weapon3_1
wpn_sfs_imperial_blaster_2			hutt_heavy_weapon1_s01:weapon1_1	hutt_heavy_weapon2_s01:weapon2_1	hutt_heavy_weapon3_s01:weapon3_1
wpn_sfs_imperial_blaster_3			hutt_heavy_weapon1_s01:weapon1_1	hutt_heavy_weapon2_s01:weapon2_1	hutt_heavy_weapon3_s01:weapon3_1
wpn_sfs_imperial_blaster_4			hutt_heavy_weapon1_s01:weapon1_1	hutt_heavy_weapon2_s01:weapon2_1	hutt_heavy_weapon3_s01:weapon3_1
wpn_sfs_imperial_special_forces_blaster			hutt_heavy_weapon1_s01:weapon1_1	hutt_heavy_weapon2_s01:weapon2_1	hutt_heavy_weapon3_s01:weapon3_1
wpn_sfs_improved_imperial_blaster_2			hutt_heavy_weapon1_s01:weapon1_1	hutt_heavy_weapon2_s01:weapon2_1	hutt_heavy_weapon3_s01:weapon3_1
wpn_slayn_deluxe_light_ioncannon			hutt_heavy_weapon1_s01:weapon1_1	hutt_heavy_weapon2_s01:weapon2_1	hutt_heavy_weapon3_s01:weapon3_1
wpn_slayn_ioncannon			hutt_heavy_weapon1_s01:weapon1_1	hutt_heavy_weapon2_s02:weapon2_1	hutt_heavy_weapon3_s02:weapon3_1
wpn_slayn_light_ioncannon			hutt_heavy_weapon1_s01:weapon1_1	hutt_heavy_weapon2_s01:weapon2_1	hutt_heavy_weapon3_s01:weapon3_1
wpn_subpro_advanced_cannon			hutt_heavy_weapon1_s01:weapon1_1	hutt_heavy_weapon2_s01:weapon2_1	hutt_heavy_weapon3_s01:weapon3_1
wpn_subpro_improved_light_ioncannon			hutt_heavy_weapon1_s01:weapon1_1	hutt_heavy_weapon2_s01:weapon2_1	hutt_heavy_weapon3_s01:weapon3_1
wpn_subpro_light_ioncannon			hutt_heavy_weapon1_s01:weapon1_1	hutt_heavy_weapon2_s01:weapon2_1	hutt_heavy_weapon3_s01:weapon3_1
wpn_subpro_modified_tricannon			hutt_heavy_weapon1_s01:weapon1_1	hutt_heavy_weapon2_s01:weapon2_1	hutt_heavy_weapon3_s01:weapon3_1
wpn_subpro_tricannon			hutt_heavy_weapon1_s01:weapon1_1	hutt_heavy_weapon2_s01:weapon2_1	hutt_heavy_weapon3_s01:weapon3_1
wpn_subpro_tripleblaster			hutt_heavy_weapon1_s04:weapon1_1	hutt_heavy_weapon2_s04:weapon2_1	hutt_heavy_weapon3_s04:weapon3_1
wpn_subpro_tripleblaster_mark2			hutt_heavy_weapon1_s04:weapon1_1	hutt_heavy_weapon2_s04:weapon2_1	hutt_heavy_weapon3_s04:weapon3_1	
wpn_subpro_tripleblaster_mark3			hutt_heavy_weapon1_s01:weapon1_1	hutt_heavy_weapon2_s01:weapon2_1	hutt_heavy_weapon3_s01:weapon3_1	
wpn_taim_elite			hutt_heavy_weapon1_s01:weapon1_1	hutt_heavy_weapon2_s01:weapon2_1	hutt_heavy_weapon3_s01:weapon3_1	
wpn_taim_heavy_laser			hutt_heavy_weapon1_s03:weapon1_1	hutt_heavy_weapon2_s03:weapon2_1	hutt_heavy_weapon3_s03:weapon3_1	
wpn_taim_ix4			hutt_heavy_weapon1_s03:weapon1_1	hutt_heavy_weapon2_s03:weapon2_1	hutt_heavy_weapon3_s03:weapon3_1	
wpn_taim_ix5			hutt_heavy_weapon1_s01:weapon1_1	hutt_heavy_weapon2_s01:weapon2_1	hutt_heavy_weapon3_s01:weapon3_1	
wpn_taim_kx5			hutt_heavy_weapon1_s03:weapon1_1	hutt_heavy_weapon2_s03:weapon2_1	hutt_heavy_weapon3_s03:weapon3_1	
wpn_taim_kx8			hutt_heavy_weapon1_s01:weapon1_1	hutt_heavy_weapon2_s01:weapon2_1	hutt_heavy_weapon3_s01:weapon3_1	
wpn_taim_kx9			hutt_heavy_weapon1_s03:weapon1_1	hutt_heavy_weapon2_s03:weapon2_1	hutt_heavy_weapon3_s03:weapon3_1	
wpn_tieadvanced_blaster			hutt_heavy_weapon1_s01:weapon1_1	hutt_heavy_weapon2_s01:weapon2_1	hutt_heavy_weapon3_s01:weapon3_1	
wpn_tractor_beam_gun			hutt_heavy_weapon1_s01:weapon1_1	hutt_heavy_weapon2_s01:weapon2_1	hutt_heavy_weapon3_s01:weapon3_1	
wpn_tractor_pulse_gun			hutt_heavy_weapon1_s05:weapon1_1	hutt_heavy_weapon2_s05:weapon2_1	hutt_heavy_weapon3_s05:weapon3_1	
wpn_trandoshan_fg1a			hutt_heavy_weapon1_s06:weapon1_1	hutt_heavy_weapon2_s06:weapon2_1	hutt_heavy_weapon3_s06:weapon3_1	
wpn_vengeance_ion_cannon			hutt_heavy_weapon1_s06:weapon1_1	hutt_heavy_weapon2_s06:weapon2_1	hutt_heavy_weapon3_s06:weapon3_1	
wpn_vulcan_cannon			hutt_heavy_weapon1_s06:weapon1_1	hutt_heavy_weapon2_s06:weapon2_1	hutt_heavy_weapon3_s06:weapon3_1	
wpn_xwing_missile_s01						hutt_heavy_missile_pod_s01:missilepod1
wpn_z95_blaster			hutt_heavy_weapon1_s01:weapon1_1	hutt_heavy_weapon2_s01:weapon2_1	hutt_heavy_weapon3_s01:weapon3_1		
mod_hutt_heavy_modification_s01							hutt_heavy_modification_s01:attach1
wpn_heavy_ionic_pulse_weapon			hutt_heavy_weapon1_s06:weapon1_1	hutt_heavy_weapon2_s06:weapon2_1	hutt_heavy_weapon3_s06:weapon3_1		
wpn_crafted_mining_laser_mk1			hutt_heavy_weapon1_s05:weapon1_1	hutt_heavy_weapon2_s05:weapon2_1	hutt_heavy_weapon3_s05:weapon3_1		
wpn_crafted_mining_laser_mk2			hutt_heavy_weapon1_s05:weapon1_1	hutt_heavy_weapon2_s05:weapon2_1	hutt_heavy_weapon3_s05:weapon3_1		
wpn_crafted_mining_laser_mk3			hutt_heavy_weapon1_s05:weapon1_1	hutt_heavy_weapon2_s05:weapon2_1	hutt_heavy_weapon3_s05:weapon3_1		
wpn_crafted_mining_laser_elite			hutt_heavy_weapon1_s05:weapon1_1	hutt_heavy_weapon2_s05:weapon2_1	hutt_heavy_weapon3_s05:weapon3_1		
wpn_prototype			hutt_heavy_weapon1_s05:weapon1_1	hutt_heavy_weapon2_s05:weapon2_1	hutt_heavy_weapon3_s05:weapon3_1		
wpn_ionic_pulse_weapon			hutt_heavy_weapon1_s06:weapon1_1	hutt_heavy_weapon2_s06:weapon2_1	hutt_heavy_weapon3_s06:weapon3_1		
wpn_reward_seinar_elite			hutt_heavy_weapon1_s05:weapon1_1	hutt_heavy_weapon2_s05:weapon2_1	hutt_heavy_weapon3_s05:weapon3_1		
wpn_kessel_imperial_rendili_prototype_x			hutt_heavy_weapon1_s05:weapon1_1	hutt_heavy_weapon2_s05:weapon2_1	hutt_heavy_weapon3_s05:weapon3_1		
wpn_kessel_imperial_sds_experimental_secret_ops			hutt_heavy_weapon1_s05:weapon1_1	hutt_heavy_weapon2_s05:weapon2_1	hutt_heavy_weapon3_s05:weapon3_1		
wpn_kessel_imperial_sfs_elite_ops			hutt_heavy_weapon1_s05:weapon1_1	hutt_heavy_weapon2_s05:weapon2_1	hutt_heavy_weapon3_s05:weapon3_1		
wpn_kessel_rebel_incom_dualcore_flashcannon			hutt_heavy_weapon1_s05:weapon1_1	hutt_heavy_weapon2_s05:weapon2_1	hutt_heavy_weapon3_s05:weapon3_1		
wpn_kessel_rebel_riiz_combine_slammer_cannon			hutt_heavy_weapon1_s05:weapon1_1	hutt_heavy_weapon2_s05:weapon2_1	hutt_heavy_weapon3_s05:weapon3_1		
wpn_kessel_rebel_unknown_rayslinger			hutt_heavy_weapon1_s05:weapon1_1	hutt_heavy_weapon2_s05:weapon2_1	hutt_heavy_weapon3_s05:weapon3_1		
wpn_reward_incom_elite			hutt_heavy_weapon1_s05:weapon1_1	hutt_heavy_weapon2_s05:weapon2_1	hutt_heavy_weapon3_s05:weapon3_1
wpn_reward_seinar_elite			hutt_heavy_weapon1_s05:weapon1_1	hutt_heavy_weapon2_s05:weapon2_1	hutt_heavy_weapon3_s05:weapon3_1
wpn_reward_slayn_elite			hutt_heavy_weapon1_s05:weapon1_1	hutt_heavy_weapon2_s05:weapon2_1	hutt_heavy_weapon3_s05:weapon3_1
wpn_reward_subpro_elite			hutt_heavy_weapon1_s05:weapon1_1	hutt_heavy_weapon2_s05:weapon2_1	hutt_heavy_weapon3_s05:weapon3_1
wpn_reward_taim_elite			hutt_heavy_weapon1_s05:weapon1_1	hutt_heavy_weapon2_s05:weapon2_1	hutt_heavy_weapon3_s05:weapon3_1
wpn_nova_ioncannon			hutt_heavy_weapon1_s05:weapon1_1	hutt_heavy_weapon2_s05:weapon2_1	hutt_heavy_weapon3_s05:weapon3_1
wpn_orion_disruptor			hutt_heavy_weapon1_s05:weapon1_1	hutt_heavy_weapon2_s05:weapon2_1	hutt_heavy_weapon3_s05:weapon3_1
