spawns	name	room	loc_x	loc_y	loc_z	yaw	script	mood	animation_mood	respawn_time	spawn_objvar	special_room	special_room_script	room_objvar	room_objvar_name	room_objvar_value
s	s	s	f	f	f	f	s	s	s	i	s	s	s	s	s	s
clone_relics_morkov		r10	-23.5	1.6	-2.8	179			npc_sitting_chair	600						
clone_relics_morkov_super_battle_droid		r10	-21.6	1.6	-4.2	-169				600						
clone_relics_morkov_super_battle_droid		r10	-25.3	1.6	-3.6	149				600						
