objid	container	server_template_crc	cell_index	px	py	pz	qw	qx	qy	qz	scripts	objvars
i	i	h	i	f	f	f	f	f	f	f	s	p
1054547	0	object/tangible/collection/shock_trooper_chest.iff	0	23.9227	17.762	1006.4	0.996157	-0.0871524	-0.000760568	-0.00869333		$|
1975380	0	object/static/structure/tatooine/debris_tatt_drum_dented_1.iff	0	157.776	12	1062.2	-0.647576	0	0.762001	0		$|
1975381	0	object/static/structure/tatooine/debris_tatt_crate_metal_1.iff	0	155.892	12	1062.06	0.804506	0	0.593945	0		$|
1975382	0	object/static/structure/tatooine/debris_tatt_crate_1.iff	0	155.073	12	1062.11	0.337226	0	0.941424	0		$|
1975383	0	object/static/structure/tatooine/debris_tatt_crate_1.iff	0	159.133	12	1062.21	0.932816	0	0.360353	0		$|
2745954	0	object/building/military/military_outpost_guard_house_imperial.iff	0	22	11.9986	1052	1	0	0	0		$|
2745955	2745954	object/cell/cell.iff	1	0	0	0	1	0	0	0		$|
2745956	2745954	object/cell/cell.iff	2	0	0	0	1	0	0	0		$|
2745960	0	object/building/military/military_outpost_guard_tower_1.iff	0	29.0785	12.0003	1081.39	0.980067	0	0.198669	0		$|
2745961	0	object/building/military/mun_all_military_tower_impl_guard_s01.iff	0	100	11.8809	1124	1	0	0	0		$|
2745962	2745961	object/cell/cell.iff	1	0	0	0	1	0	0	0		$|
2745970	0	object/building/military/military_outpost_guard_house_imperial.iff	0	22	11.8441	1012	0.707107	0	-0.707106	0		$|
2745971	2745970	object/cell/cell.iff	1	0	0	0	1	0	0	0		$|
2745972	2745970	object/cell/cell.iff	2	0	0	0	1	0	0	0		$|
2745973	0	object/static/structure/military/military_wall_strong_imperial_style_01.iff	0	17	12	1042	0.707107	0	-0.707106	0		$|
2745974	0	object/static/structure/military/military_column_strong_imperial_style_01.iff	0	17	12	1037	1	0	0	0		$|
2745975	0	object/static/structure/military/military_column_strong_imperial_style_01.iff	0	17	12	1027	-3.20E-08	0	1	0		$|
2745976	0	object/static/structure/military/military_wall_strong_imperial_style_01.iff	0	17	12	1022	0.707113	0	-0.7071	0		$|
2745977	0	object/static/structure/military/military_column_strong_imperial_style_01.iff	0	28	12	1066	1	0	0	0		$|
2745978	0	object/static/structure/military/military_wall_strong_imperial_style_01.iff	0	28	12	1062	0.707107	0	-0.707106	0		$|
2745979	0	object/static/structure/military/military_wall_strong_imperial_style_01.iff	0	28	12	1070	0.707107	0	-0.707106	0		$|
2745980	0	object/static/structure/military/military_column_strong_imperial_style_01.iff	0	28	12	1074	1	0	0	0		$|
2745981	0	object/static/structure/military/military_wall_strong_imperial_style_01.iff	0	28	12	1078	0.70711	0	-0.707103	0		$|
2745983	0	object/static/structure/military/military_wall_strong_imperial_style_01.iff	0	31	11.9999	1085	0.92388	0	-0.382681	0		$|
2745984	0	object/static/structure/military/military_column_strong_imperial_style_01.iff	0	34	12.0014	1088	0.92388	0	0.382683	0		$|
2745985	0	object/static/structure/military/military_wall_strong_imperial_style_01.iff	0	37	12	1091	0.923881	0	-0.382681	0		$|
2745986	0	object/static/structure/military/military_column_strong_imperial_style_01.iff	0	40	12.0014	1094	0.92388	0	0.382683	0		$|
2745987	0	object/static/structure/military/military_wall_strong_imperial_style_01.iff	0	43	12	1097	0.923881	0	-0.382681	0		$|
2745988	0	object/static/structure/military/military_column_strong_imperial_style_01.iff	0	46	12.0014	1100	0.92388	0	0.382683	0		$|
2745989	0	object/static/structure/military/military_wall_strong_imperial_style_01.iff	0	49	12	1103	0.923881	0	-0.382681	0		$|
2745990	0	object/static/structure/military/military_column_strong_imperial_style_01.iff	0	52	12.0015	1106	0.92388	0	0.382683	0		$|
2745991	0	object/static/structure/military/military_wall_strong_imperial_style_01.iff	0	55	12.0001	1109	0.923881	0	-0.382681	0		$|
2745992	0	object/static/structure/military/military_column_strong_imperial_style_01.iff	0	58	12.0014	1112	0.92388	0	0.382683	0		$|
2745993	0	object/static/structure/military/military_wall_strong_imperial_style_01.iff	0	61	12	1115	0.923881	0	-0.382681	0		$|
2745994	0	object/static/structure/military/military_column_strong_imperial_style_01.iff	0	64	12.0014	1118	0.92388	0	0.382683	0		$|
2745995	0	object/static/structure/military/military_wall_strong_imperial_style_01.iff	0	67	12	1121	0.923881	0	-0.382681	0		$|
2745996	0	object/static/structure/military/military_column_strong_imperial_style_01.iff	0	82	11.9972	1125	0.707108	0	0.707106	0		$|
2745997	0	object/static/structure/military/military_wall_strong_imperial_style_01.iff	0	86	11.999	1125	1	0	0	0		$|
2745998	0	object/static/structure/military/military_wall_strong_imperial_style_01.iff	0	78	12.0158	1125	1	0	0	0		$|
2745999	0	object/building/military/military_outpost_guard_tower_1.iff	0	72	11.9625	1124	0.829436	0	0.558602	0		$|
2746000	0	object/static/structure/military/military_wall_strong_imperial_style_01.iff	0	123	12	1125	1	0	0	0		$|
2746001	0	object/building/military/mun_all_military_tower_impl_guard_s01.iff	0	117	12.0479	1124	1	0	0	0		$|
2746002	2746001	object/cell/cell.iff	1	0	0	0	1	0	0	0		$|
2746003	0	object/static/structure/military/military_column_strong_imperial_style_01.iff	0	127	12	1125	0.707107	0	0.707107	0		$|
2746004	0	object/static/structure/military/military_wall_strong_imperial_style_01.iff	0	131	12.0018	1125	1	0	0	0		$|
2746005	0	object/static/structure/military/military_column_strong_imperial_style_01.iff	0	90	12	1125	0.707107	0	0.707107	0		$|
2746006	0	object/static/structure/military/military_wall_strong_imperial_style_01.iff	0	94	12.0018	1125	1	0	0	0		$|
2746007	0	object/static/structure/military/military_column_strong_imperial_style_01.iff	0	143	12	1125	0.707107	0	0.707107	0		$|
2746008	0	object/static/structure/military/military_wall_strong_imperial_style_01.iff	0	147	12.0018	1125	1	0	0	0		$|
2746009	0	object/static/structure/military/military_column_strong_imperial_style_01.iff	0	135	12	1125	0.707107	0	0.707107	0		$|
2746010	0	object/static/structure/military/military_wall_strong_imperial_style_01.iff	0	139	12.0018	1125	1	0	0	0		$|
2746011	0	object/static/structure/military/military_column_strong_imperial_style_01.iff	0	151	12	1125	0.707107	0	0.707107	0		$|
2746012	0	object/static/structure/military/military_wall_strong_imperial_style_01.iff	0	155	12.0018	1125	1	0	0	0		$|
2746013	0	object/static/structure/military/military_column_strong_imperial_style_01.iff	0	159	12	1125	0.707107	0	0.707107	0		$|
2746014	0	object/static/structure/military/military_wall_strong_imperial_style_01.iff	0	162	12.0018	1125	1	0	0	0		$|
2746015	0	object/building/military/military_outpost_guard_tower_1.iff	0	167	12.1439	1124	0.554448	0	0.832219	0		$|
2746016	0	object/static/structure/military/military_wall_strong_imperial_style_01.iff	0	172	12	1121	0.92388	0	0.382683	0		$|
2746017	0	object/static/structure/military/military_column_strong_imperial_style_01.iff	0	175	12	1118	0.382683	0	0.92388	0		$|
2746018	0	object/static/structure/military/military_wall_strong_imperial_style_01.iff	0	178	12.0018	1115	0.923878	0	0.382686	0		$|
2746019	0	object/static/structure/military/military_column_strong_imperial_style_01.iff	0	187	12	1106	0.382683	0	0.92388	0		$|
2746020	0	object/static/structure/military/military_wall_strong_imperial_style_01.iff	0	189	12.0018	1104	0.923878	0	0.382686	0		$|
2746021	0	object/static/structure/military/military_column_strong_imperial_style_01.iff	0	181	12	1112	0.382683	0	0.92388	0		$|
2746022	0	object/static/structure/military/military_wall_strong_imperial_style_01.iff	0	184	12.0018	1109	0.923878	0	0.382686	0		$|
2746023	0	object/static/structure/military/military_column_strong_imperial_style_01.iff	0	192	12	1101	0.382683	0	0.92388	0		$|
2746024	0	object/static/structure/military/military_wall_strong_imperial_style_01.iff	0	195	12.0018	1098	0.923878	0	0.382686	0		$|
2746025	0	object/static/structure/military/military_wall_strong_imperial_style_01.iff	0	200	12	1093	0.92388	0	0.382683	0		$|
2746026	0	object/static/structure/military/military_column_strong_imperial_style_01.iff	0	203	12	1090	0.382683	0	0.92388	0		$|
2746027	0	object/static/structure/military/military_wall_strong_imperial_style_01.iff	0	206	12.0018	1087	0.923878	0	0.382686	0		$|
2746028	0	object/static/structure/military/military_column_strong_imperial_style_01.iff	0	215	12	1078	0.382683	0	0.92388	0		$|
2746029	0	object/static/structure/military/military_wall_strong_imperial_style_01.iff	0	217	12.0018	1076	0.923878	0	0.382686	0		$|
2746030	0	object/static/structure/military/military_column_strong_imperial_style_01.iff	0	209	12	1084	0.382683	0	0.92388	0		$|
2746031	0	object/static/structure/military/military_wall_strong_imperial_style_01.iff	0	212	12.0018	1081	0.923878	0	0.382686	0		$|
2746032	0	object/static/structure/military/military_column_strong_imperial_style_01.iff	0	220	12	1073	0.382683	0	0.92388	0		$|
2746033	0	object/static/structure/military/military_wall_strong_imperial_style_01.iff	0	223	12.0018	1070	0.923878	0	0.382686	0		$|
2746034	0	object/static/structure/military/military_column_strong_imperial_style_01.iff	0	198	12	1095	0.92388	0	0.382683	0		$|
2746035	0	object/building/military/military_outpost_guard_house_imperial.iff	0	238	12.0671	989	-3.20E-08	0	1	0		$|
2746036	2746035	object/cell/cell.iff	1	0	0	0	1	0	0	0		$|
2746037	2746035	object/cell/cell.iff	2	0	0	0	1	0	0	0		$|
2746038	0	object/building/military/military_outpost_guard_house_imperial.iff	0	238	11.9502	1029	0.707105	0	0.707108	0		$|
2746039	2746038	object/cell/cell.iff	1	0	0	0	1	0	0	0		$|
2746040	2746038	object/cell/cell.iff	2	0	0	0	1	0	0	0		$|
2746041	0	object/static/structure/military/military_wall_strong_imperial_style_01.iff	0	243	12.1559	999	0.707105	0	0.707108	0		$|
2746042	0	object/static/structure/military/military_column_strong_imperial_style_01.iff	0	243	12.1559	1004	-3.20E-08	0	1	0		$|
2746043	0	object/static/structure/military/military_column_strong_imperial_style_01.iff	0	243	12.1559	1014	1	0	0	0		$|
2746044	0	object/static/structure/military/military_wall_strong_imperial_style_01.iff	0	243	12.1559	1019	0.707099	0	0.707114	0		$|
2746045	0	object/static/structure/military/military_wall_strong_imperial_style_01.iff	0	233	12.0018	1047	0.707105	0	0.707109	0		$|
2746046	0	object/static/structure/military/military_column_strong_imperial_style_01.iff	0	233	12	1043	-7.48E-07	0	1	0		$|
2746047	0	object/static/structure/military/military_wall_strong_imperial_style_01.iff	0	233	12.0018	1039	0.707105	0	0.707109	0		$|
2746048	0	object/static/structure/military/military_wall_strong_imperial_style_01.iff	0	233	12.0018	1055	0.707105	0	0.707109	0		$|
2746049	0	object/static/structure/military/military_column_strong_imperial_style_01.iff	0	233	12	1051	-1.00E-06	0	1	0		$|
2746050	0	object/static/structure/military/military_column_strong_imperial_style_01.iff	0	226	12	1067	0.382683	0	0.92388	0		$|
2746051	0	object/static/structure/military/military_wall_strong_imperial_style_01.iff	0	229	12.0018	1064	0.923879	0	0.382686	0		$|
2746052	0	object/building/military/military_outpost_guard_tower_1.iff	0	232	12.1998	1060	0.193766	0	0.981048	0		$|
2746053	0	object/building/military/mun_all_military_tower_impl_guard_s01.iff	0	141	12.0544	905	-3.20E-08	0	1	0		$|
2746054	2746053	object/cell/cell.iff	1	0	0	0	1	0	0	0		$|
2746055	0	object/building/military/military_outpost_guard_tower_1.iff	0	177	11.883	906	-0.558602	0	0.829436	0		$|
2746056	0	object/building/military/mun_all_military_tower_impl_guard_s01.iff	0	125	11.96	905	-3.20E-08	0	1	0		$|
2746057	2746056	object/cell/cell.iff	1	0	0	0	1	0	0	0		$|
2746058	0	object/building/military/military_outpost_guard_tower_1.iff	0	75	12.1291	905	0.832218	0	-0.554449	0		$|
2746059	0	object/static/structure/military/military_wall_strong_imperial_style_01.iff	0	163	12.135	904	-3.20E-08	0	1	0		$|
2746060	0	object/static/structure/military/military_column_strong_imperial_style_01.iff	0	191	12.1205	917	-0.382683	0	0.92388	0		$|
2746061	0	object/static/structure/military/military_wall_strong_imperial_style_01.iff	0	188	12.1192	914	0.382681	0	0.92388	0		$|
2746062	0	object/static/structure/military/military_column_strong_imperial_style_01.iff	0	159	12.1163	904	-0.707107	0	0.707107	0		$|
2746063	0	object/static/structure/military/military_wall_strong_imperial_style_01.iff	0	155	12.1181	904	-3.05E-06	0	1	0		$|
2746064	0	object/static/structure/military/military_wall_strong_imperial_style_01.iff	0	119	12.1191	904	-3.20E-08	0	1	0		$|
2746065	0	object/static/structure/military/military_column_strong_imperial_style_01.iff	0	115	12.1191	904	-0.707107	0	0.707107	0		$|
2746066	0	object/static/structure/military/military_wall_strong_imperial_style_01.iff	0	111	12.1209	904	-3.05E-06	0	1	0		$|
2746067	0	object/static/structure/military/military_column_strong_imperial_style_01.iff	0	151	12.1191	904	-0.707107	0	0.707107	0		$|
2746068	0	object/static/structure/military/military_wall_strong_imperial_style_01.iff	0	147	12.1209	904	-3.05E-06	0	1	0		$|
2746069	0	object/static/structure/military/military_column_strong_imperial_style_01.iff	0	99	12.1191	904	-0.707107	0	0.707107	0		$|
2746070	0	object/static/structure/military/military_wall_strong_imperial_style_01.iff	0	95	12.1209	904	-3.05E-06	0	1	0		$|
2746071	0	object/static/structure/military/military_column_strong_imperial_style_01.iff	0	107	12.1191	904	-0.707107	0	0.707107	0		$|
2746072	0	object/static/structure/military/military_wall_strong_imperial_style_01.iff	0	103	12.1209	904	-3.05E-06	0	1	0		$|
2746073	0	object/static/structure/military/military_column_strong_imperial_style_01.iff	0	91	12.1191	904	-0.707107	0	0.707107	0		$|
2746074	0	object/static/structure/military/military_wall_strong_imperial_style_01.iff	0	87	12.1209	904	-3.05E-06	0	1	0		$|
2746075	0	object/static/structure/military/military_column_strong_imperial_style_01.iff	0	83	12.1191	904	-0.707107	0	0.707107	0		$|
2746076	0	object/static/structure/military/military_wall_strong_imperial_style_01.iff	0	80	12.1209	904	-3.05E-06	0	1	0		$|
2746082	0	object/building/military/military_outpost_guard_tower_1.iff	0	232	11.9914	960	-0.198669	0	0.980067	0		$|
2746084	0	object/static/structure/military/military_column_strong_imperial_style_01.iff	0	233	12.0375	975	-3.20E-08	0	1	0		$|
2746085	0	object/static/structure/military/military_wall_strong_imperial_style_01.iff	0	233	12.0375	979	0.707107	0	0.707107	0		$|
2746086	0	object/static/structure/military/military_wall_strong_imperial_style_01.iff	0	233	12.0375	971	0.707105	0	0.707108	0		$|
2746087	0	object/static/structure/military/military_column_strong_imperial_style_01.iff	0	233	12.0375	967	-3.20E-08	0	1	0		$|
2746088	0	object/static/structure/military/military_wall_strong_imperial_style_01.iff	0	233	12.0375	963	0.707103	0	0.70711	0		$|
2746089	0	object/static/structure/military/military_wall_strong_imperial_style_01.iff	0	230	12.0373	956	0.382681	0	0.923881	0		$|
2746090	0	object/static/structure/military/military_column_strong_imperial_style_01.iff	0	227	12.0389	953	-0.382683	0	0.92388	0		$|
2746091	0	object/static/structure/military/military_wall_strong_imperial_style_01.iff	0	224	12.0375	950	0.382681	0	0.92388	0		$|
2746092	0	object/static/structure/military/military_column_strong_imperial_style_01.iff	0	221	12.0389	947	-0.382683	0	0.92388	0		$|
2746093	0	object/static/structure/military/military_wall_strong_imperial_style_01.iff	0	218	12.0375	944	0.382681	0	0.92388	0		$|
2746094	0	object/static/structure/military/military_column_strong_imperial_style_01.iff	0	215	12.0389	941	-0.382683	0	0.92388	0		$|
2746095	0	object/static/structure/military/military_wall_strong_imperial_style_01.iff	0	212	12.0375	938	0.382681	0	0.92388	0		$|
2746096	0	object/static/structure/military/military_column_strong_imperial_style_01.iff	0	209	12.039	935	-0.382683	0	0.92388	0		$|
2746097	0	object/static/structure/military/military_wall_strong_imperial_style_01.iff	0	206	12.0376	932	0.382681	0	0.92388	0		$|
2746098	0	object/static/structure/military/military_column_strong_imperial_style_01.iff	0	203	12.0389	929	-0.382683	0	0.92388	0		$|
2746099	0	object/static/structure/military/military_wall_strong_imperial_style_01.iff	0	200	12.0375	926	0.382681	0	0.92388	0		$|
2746100	0	object/static/structure/military/military_column_strong_imperial_style_01.iff	0	197	12.0389	923	-0.382683	0	0.92388	0		$|
2746101	0	object/static/structure/military/military_wall_strong_imperial_style_01.iff	0	194	12.0375	920	0.382681	0	0.92388	0		$|
2746102	0	object/static/structure/military/military_wall_strong_imperial_style_01.iff	0	172	12.0165	904	0	0	1	0		$|
2746103	0	object/static/structure/military/military_column_strong_imperial_style_01.iff	0	168	11.9978	904	-0.707107	0	0.707107	0		$|
2746104	0	object/static/structure/military/military_column_strong_imperial_style_01.iff	0	185	12.0144	911	-0.382683	0	0.92388	0		$|
2746105	0	object/static/structure/military/military_wall_strong_imperial_style_01.iff	0	182	12.013	908	0.382681	0	0.92388	0		$|
2746106	0	object/building/military/military_outpost_guard_tower_1.iff	0	28.6041	12.1303	951.256	0.981048	0	-0.193766	0		$|
2746111	0	object/static/structure/military/military_wall_strong_imperial_style_01.iff	0	70	12.0018	909	-0.382686	0	0.923879	0		$|
2746114	0	object/static/structure/military/military_column_strong_imperial_style_01.iff	0	67	12	912	0.92388	0	-0.382683	0		$|
2746115	0	object/static/structure/military/military_wall_strong_imperial_style_01.iff	0	64	12.0018	915	-0.382686	0	0.923879	0		$|
2746116	0	object/static/structure/military/military_wall_strong_imperial_style_01.iff	0	59	12	920	-0.382683	0	0.92388	0		$|
2746117	0	object/static/structure/military/military_column_strong_imperial_style_01.iff	0	56	12	923	0.92388	0	-0.382683	0		$|
2746118	0	object/static/structure/military/military_wall_strong_imperial_style_01.iff	0	53	12.0018	926	-0.382686	0	0.923879	0		$|
2746119	0	object/static/structure/military/military_column_strong_imperial_style_01.iff	0	44	12	935	0.92388	0	-0.382683	0		$|
2746120	0	object/static/structure/military/military_wall_strong_imperial_style_01.iff	0	42	12.0018	937	-0.382686	0	0.923879	0		$|
2746121	0	object/static/structure/military/military_column_strong_imperial_style_01.iff	0	50	12	929	0.92388	0	-0.382683	0		$|
2746122	0	object/static/structure/military/military_wall_strong_imperial_style_01.iff	0	47	12.0018	932	-0.382686	0	0.923879	0		$|
2746123	0	object/static/structure/military/military_column_strong_imperial_style_01.iff	0	39	12	940	0.92388	0	-0.382683	0		$|
2746124	0	object/static/structure/military/military_wall_strong_imperial_style_01.iff	0	36	12.0018	943	-0.382686	0	0.923879	0		$|
2746125	0	object/static/structure/military/military_column_strong_imperial_style_01.iff	0	61	12	918	-0.382683	0	0.92388	0		$|
2746126	0	object/static/structure/military/military_wall_strong_imperial_style_01.iff	0	28	12.0018	962	-0.707107	0	0.707107	0		$|
2746127	0	object/static/structure/military/military_column_strong_imperial_style_01.iff	0	28	12	966	1	0	0	0		$|
2746128	0	object/static/structure/military/military_wall_strong_imperial_style_01.iff	0	28	12.0018	970	-0.707107	0	0.707107	0		$|
2746129	0	object/static/structure/military/military_wall_strong_imperial_style_01.iff	0	28	12.0018	954	-0.707107	0	0.707107	0		$|
2746130	0	object/static/structure/military/military_column_strong_imperial_style_01.iff	0	28	12	958	1	0	0	0		$|
2746131	0	object/static/structure/military/military_column_strong_imperial_style_01.iff	0	33	12	946	0.92388	0	-0.382683	0		$|
2746132	0	object/static/structure/military/military_wall_strong_imperial_style_01.iff	0	30	12.0018	949	-0.382686	0	0.923878	0		$|
2746133	0	object/static/structure/military/military_column_strong_imperial_style_01.iff	0	28	12	974	1	0	0	0		$|
2746134	0	object/static/structure/military/military_column_strong_imperial_style_01.iff	0	28	12	982	1	0	0	0		$|
2746135	0	object/static/structure/military/military_wall_strong_imperial_style_01.iff	0	28	12.0018	986	-0.707107	0	0.707107	0		$|
2746136	0	object/static/structure/military/military_wall_strong_imperial_style_01.iff	0	28	12.0018	978	-0.707107	0	0.707107	0		$|
2746137	0	object/static/structure/military/military_column_strong_imperial_style_01.iff	0	28	12	990	1	0	0	0		$|
2746138	0	object/static/structure/military/military_wall_strong_imperial_style_01.iff	0	28	12.0018	994	-0.707107	0	0.707107	0		$|
2746139	0	object/static/structure/military/military_column_strong_imperial_style_01.iff	0	28	12	998	1	0	0	0		$|
2746140	0	object/static/structure/military/military_wall_strong_imperial_style_01.iff	0	28	12.0018	1002	-0.707107	0	0.707107	0		$|
2746148	0	object/static/structure/military/military_wall_strong_imperial_style_01.iff	0	27	12	1042	0.70711	0	-0.707103	0		$|
2746149	0	object/static/structure/military/military_column_strong_imperial_style_01.iff	0	27	12	1037	1	0	0	0		$|
2746150	0	object/static/structure/military/military_column_strong_imperial_style_01.iff	0	27	12	1027	0	0	1	0		$|
2746151	0	object/static/structure/military/military_wall_strong_imperial_style_01.iff	0	27	12	1022	0.707116	0	-0.707097	0		$|
2746152	0	object/static/structure/general/banner_imperial_style_01.iff	0	15	12.0006	1037	0.707107	0	0.707106	0		$|
2746153	0	object/static/structure/general/banner_imperial_style_01.iff	0	15	11.8889	1027	0.707107	0	0.707107	0		$|
2746154	0	object/static/structure/military/military_wall_strong_imperial_style_01.iff	0	233	12	999	0.707105	0	0.707108	0		$|
2746155	0	object/static/structure/military/military_column_strong_imperial_style_01.iff	0	233	12	1004	0	0	1	0		$|
2746156	0	object/static/structure/military/military_column_strong_imperial_style_01.iff	0	233	12	1014	1	0	0	0		$|
2746157	0	object/static/structure/military/military_wall_strong_imperial_style_01.iff	0	233	12	1019	0.707099	0	0.707114	0		$|
2746158	0	object/static/structure/general/banner_imperial_style_01.iff	0	245	12.1402	1004	0.707107	0	0.707106	0		$|
2746159	0	object/static/structure/general/banner_imperial_style_01.iff	0	245	11.9772	1014	0.707107	0	0.707106	0		$|
2746160	0	object/static/installation/mockup_factory_machine_style_1.iff	0	106.324	12	923.256	0.707108	0	0.707106	0		$|
2746161	0	object/static/installation/mockup_factory_machine_style_1.iff	0	54.7046	12	1083.52	-0.382684	0	0.923879	0		$|
2746163	0	object/static/installation/mockup_power_generator_solar_style_1.iff	0	45	12	984	1	0	0	0		$|
2746164	0	object/static/installation/mockup_power_generator_solar_style_1.iff	0	46	12	970	0.707107	0	0.707106	0		$|
2746165	0	object/static/structure/military/military_column_weak_imperial_style_01.iff	0	37	12	993	1	0	0	0		$|
2746166	0	object/static/structure/military/military_wall_weak_imperial_style_01.iff	0	41	12	993	1	0	0	0		$|
2746167	0	object/static/structure/military/military_wall_weak_imperial_style_01.iff	0	49	12	993	1	0	0	0		$|
2746168	0	object/static/structure/military/military_column_weak_imperial_style_01.iff	0	53	12	993	1	0	0	0		$|
2746169	0	object/static/structure/military/military_column_weak_imperial_style_01.iff	0	45	12	993	1	0	0	0		$|
2746170	0	object/static/structure/military/military_column_weak_imperial_style_01.iff	0	37	12	961	1	0	0	0		$|
2746171	0	object/static/structure/military/military_wall_weak_imperial_style_01.iff	0	41	12	961	1	0	0	0		$|
2746172	0	object/static/structure/military/military_wall_weak_imperial_style_01.iff	0	49	12	961	1	0	0	0		$|
2746173	0	object/static/structure/military/military_column_weak_imperial_style_01.iff	0	53	12	961	1	0	0	0		$|
2746174	0	object/static/structure/military/military_column_weak_imperial_style_01.iff	0	45	12	961	1	0	0	0		$|
2746175	0	object/static/structure/military/military_wall_weak_imperial_style_01.iff	0	37	12	973	0.707107	0	0.707106	0		$|
2746176	0	object/static/structure/military/military_wall_weak_imperial_style_01.iff	0	37	12	965	0.707107	0	0.707106	0		$|
2746177	0	object/static/structure/military/military_column_weak_imperial_style_01.iff	0	37	12	969	0.707107	0	0.707106	0		$|
2746178	0	object/static/structure/military/military_wall_weak_imperial_style_01.iff	0	37	12	989	0.707107	0	0.707107	0		$|
2746179	0	object/static/structure/military/military_wall_weak_imperial_style_01.iff	0	37	12	981	0.707107	0	0.707107	0		$|
2746180	0	object/static/structure/military/military_column_weak_imperial_style_01.iff	0	37	12	985	0.707107	0	0.707107	0		$|
2746181	0	object/static/structure/military/military_column_weak_imperial_style_01.iff	0	37	12	977	1	0	0	0		$|
2746182	0	object/static/structure/military/military_wall_weak_imperial_style_01.iff	0	53	12	973	0.70711	0	0.707103	0		$|
2746183	0	object/static/structure/military/military_wall_weak_imperial_style_01.iff	0	53	12	965	0.70711	0	0.707103	0		$|
2746184	0	object/static/structure/military/military_column_weak_imperial_style_01.iff	0	53	12	969	0.70711	0	0.707103	0		$|
2746185	0	object/static/structure/military/military_wall_weak_imperial_style_01.iff	0	53	12	989	0.707107	0	0.707107	0		$|
2746187	0	object/static/structure/military/military_column_weak_imperial_style_01.iff	0	53	12	985	0.707107	0	0.707107	0		$|
2746188	0	object/static/structure/military/military_column_weak_imperial_style_01.iff	0	53	12	977	1	0	0	0		$|
2746191	0	object/building/corellia/filler_building_corellia_style_02.iff	0	75.275	12	1020.03	0.707108	0	0.707106	0		$|
2746200	0	object/building/corellia/filler_slum_16x32_s01.iff	0	118	12	1037	0.707108	0	-0.707105	0		$|
2746206	0	object/building/corellia/filler_slum_16x32_s01.iff	0	118	12	1065	0.707122	0	-0.707091	0		$|
2746208	0	object/static/installation/mockup_mining_liquid_harvester_style_1.iff	0	141.425	12	1089.84	-0.707106	0	0.707107	0		$|
2746209	0	object/static/installation/mockup_mining_ore_harvester_style_2.iff	0	69.8091	12	1107.63	0.382684	0	0.923879	0		$|
2746210	0	object/static/installation/mockup_mining_ore_harvester_style_1.iff	0	78.8358	12	924.548	0.707107	0	0.707106	0		$|
2746227	0	object/building/corellia/filler_building_corellia_style_02.iff	0	176.012	12	958.746	1.84E-06	0	1	0		$|
2746234	0	object/static/structure/military/military_wall_weak_imperial_style_01.iff	0	204.022	12	1018.33	1	0	0	0		$|
2746235	0	object/static/structure/military/military_wall_weak_imperial_style_01.iff	0	204.022	12	1004.33	1	0	0	0		$|
2746236	0	object/static/structure/military/military_column_med_imperial_style_01.iff	0	208.022	12	1004.33	1	0	0	0		$|
2746237	0	object/static/structure/military/military_column_med_imperial_style_01.iff	0	208	12	1018	1	0	0	0		$|
2746238	0	object/static/structure/general/banner_imperial_style_01.iff	0	206.022	11.7798	1006.33	0.707107	0	0.707106	0		$|
2746239	0	object/static/structure/general/banner_imperial_style_01.iff	0	206.022	12.023	1016.33	0.707107	0	0.707106	0		$|
2746240	0	object/building/corellia/filler_slum_16x32_s01.iff	0	118	12	1010	0.707097	0	0.707116	0		$|
2746242	0	object/building/corellia/filler_slum_16x32_s01.iff	0	118	12	980	0.707097	0	0.707116	0		$|
2746245	0	object/static/installation/mockup_mining_liquid_harvester_style_1.iff	0	77.2467	12	981.26	1	0	0	0		$|
2746246	0	object/static/structure/military/military_column_weak_imperial_style_01.iff	0	125.73	12	1083.88	-3.48E-07	0	1	0		$|
2746247	0	object/static/installation/mockup_power_generator_solar_style_1.iff	0	124.73	12	1091.88	0.707107	0	0.707106	0		$|
2746248	0	object/static/installation/mockup_power_generator_solar_style_1.iff	0	110.73	12	1090.88	1.84E-06	0	1	0		$|
2746249	0	object/static/structure/military/military_column_weak_imperial_style_01.iff	0	133.73	12	1099.88	0.707107	0	0.707106	0		$|
2746250	0	object/static/structure/military/military_wall_weak_imperial_style_01.iff	0	133.73	12	1095.88	0.707107	0	0.707106	0		$|
2746251	0	object/static/structure/military/military_wall_weak_imperial_style_01.iff	0	133.73	12	1087.88	0.707107	0	0.707106	0		$|
2746252	0	object/static/structure/military/military_column_weak_imperial_style_01.iff	0	133.73	12	1083.88	0.707107	0	0.707106	0		$|
2746253	0	object/static/structure/military/military_column_weak_imperial_style_01.iff	0	133.73	12	1091.88	0.707107	0	0.707106	0		$|
2746254	0	object/static/structure/military/military_column_weak_imperial_style_01.iff	0	101.73	12	1099.88	0.707107	0	0.707106	0		$|
2746255	0	object/static/structure/military/military_wall_weak_imperial_style_01.iff	0	101.73	12	1095.88	0.707107	0	0.707106	0		$|
2746256	0	object/static/structure/military/military_wall_weak_imperial_style_01.iff	0	101.73	12	1087.88	0.707107	0	0.707106	0		$|
2746257	0	object/static/structure/military/military_column_weak_imperial_style_01.iff	0	101.73	12	1083.88	0.707107	0	0.707106	0		$|
2746258	0	object/static/structure/military/military_column_weak_imperial_style_01.iff	0	101.73	12	1091.88	0.707107	0	0.707106	0		$|
2746259	0	object/static/structure/military/military_wall_weak_imperial_style_01.iff	0	113.73	12	1099.88	1.84E-06	0	1	0		$|
2746260	0	object/static/structure/military/military_wall_weak_imperial_style_01.iff	0	105.73	12	1099.88	1.84E-06	0	1	0		$|
2746261	0	object/static/structure/military/military_column_weak_imperial_style_01.iff	0	109.73	12	1099.88	1.84E-06	0	1	0		$|
2746262	0	object/static/structure/military/military_wall_weak_imperial_style_01.iff	0	129.73	12	1099.88	-3.48E-07	0	1	0		$|
2746263	0	object/static/structure/military/military_wall_weak_imperial_style_01.iff	0	121.73	12	1099.88	-3.48E-07	0	1	0		$|
2746264	0	object/static/structure/military/military_column_weak_imperial_style_01.iff	0	125.73	12	1099.88	-3.48E-07	0	1	0		$|
2746265	0	object/static/structure/military/military_column_weak_imperial_style_01.iff	0	117.73	12	1099.88	0.707107	0	0.707106	0		$|
2746266	0	object/static/structure/military/military_wall_weak_imperial_style_01.iff	0	113.73	12	1083.88	4.71E-06	0	1	0		$|
2746267	0	object/static/structure/military/military_wall_weak_imperial_style_01.iff	0	105.73	12	1083.88	4.71E-06	0	1	0		$|
2746268	0	object/static/structure/military/military_column_weak_imperial_style_01.iff	0	109.73	12	1083.88	4.71E-06	0	1	0		$|
2746269	0	object/static/structure/military/military_wall_weak_imperial_style_01.iff	0	129.73	12	1083.88	-3.48E-07	0	1	0		$|
2746270	0	object/static/structure/military/military_column_weak_imperial_style_01.iff	0	117.73	12	1083.88	0.707107	0	0.707106	0		$|
2746271	0	object/static/installation/mockup_mining_ore_harvester_style_2.iff	0	86.498	12	1110.45	0.382684	0	0.923879	0		$|
2746272	0	object/static/structure/tatooine/antenna_tatt_style_2.iff	0	207	12	1020	1	0	0	0		$|
2746274	0	object/static/structure/tatooine/antenna_tatt_style_2.iff	0	206.983	12	1002.67	1	0	0	0		$|
2746275	0	object/static/installation/mockup_mining_ore_harvester_style_1.iff	0	61.451	12	935.972	0.707107	0	0.707107	0		$|
2746276	0	object/static/structure/tatooine/debris_tatt_pipe_narrow_2.iff	0	131.899	12	1085.64	0.99875	0	-0.0499792	0		$|
2746277	0	object/static/structure/tatooine/debris_tatt_pipe_narrow_1.iff	0	139.559	12	1088.81	1	0	0	0		$|
2746278	0	object/static/structure/tatooine/debris_tatt_pipe_dual_unconnected.iff	0	130.924	12	1085.52	1	0	0	0		$|
2746279	0	object/static/structure/tatooine/debris_tatt_crate_metal_1.iff	0	132.621	12.6957	1097.18	-0.551535	0	0.834152	0		$|
2746280	0	object/static/structure/tatooine/debris_tatt_drum_storage_1.iff	0	132.504	12	1098.13	0.997784	0	-0.066543	0		$|
2746281	0	object/static/structure/tatooine/debris_tatt_crate_metal_1.iff	0	132.697	12.3162	1096.52	-0.645632	0.378538	0.57772	-0.325742		$|
2746282	0	object/static/structure/tatooine/debris_tatt_crate_1.iff	0	132.609	12	1097.02	-0.019203	0	0.999816	0		$|
2746283	0	object/static/structure/tatooine/debris_tatt_drum_dented_1.iff	0	103.633	12	1085.62	1	0	0	0		$|
2746284	0	object/static/structure/tatooine/debris_tatt_drum_storage_1.iff	0	104.679	12	1085.53	1	0	0	0		$|
2746285	0	object/static/structure/general/tankfarm_s01.iff	0	128.242	12.0844	1072.87	1	0	0	0		$|
2746288	0	object/static/structure/general/prp_junk_s3.iff	0	52.0089	12	950.643	1	0	0	0		$|
2746289	0	object/static/structure/general/prp_junk_s4.iff	0	39.6759	12	963.466	1	0	0	0		$|
2746290	0	object/static/structure/general/prp_junk_s5.iff	0	66.4619	12	994.068	1	0	0	0		$|
2746291	0	object/static/structure/general/prp_junk_s6.iff	0	42.6497	12.9229	962.785	1	0	0	0		$|
2746293	0	object/static/structure/general/prp_junk_s8.iff	0	66.4457	12	994.069	1	0	0	0		$|
2746294	0	object/static/structure/general/prp_junk_s7.iff	0	45.0651	12	946.649	0.921061	0	-0.389418	0		$|
2746296	0	object/static/installation/mockup_power_generator_photo_bio_style_1.iff	0	189.343	12	1039.05	1	0	0	0		$|
2746297	0	object/static/installation/mockup_factory_item_style_1.iff	0	90	12	1066	1	0	0	0		$|
2746298	0	object/static/installation/mockup_factory_item_style_1.iff	0	82	12	1075	0.707107	0	-0.707106	0		$|
2746299	0	object/static/installation/mockup_factory_clothing_style_1.iff	0	69	12	963	1	0	0	0		$|
2746301	0	object/static/installation/mockup_factory_clothing_style_1.iff	0	84	12	963	1	0	0	0		$|
2746309	0	object/building/military/military_base_shed_imperial_style_01.iff	0	145.629	12	922.653	0.707107	0	-0.707106	0		$|
2746310	2746309	object/cell/cell.iff	1	0	0	0	1	0	0	0		$|
2746311	2746309	object/cell/cell.iff	2	0	0	0	1	0	0	0		$|
2746312	2746309	object/cell/cell.iff	3	0	0	0	1	0	0	0		$|
2746313	2746309	object/cell/cell.iff	4	0	0	0	1	0	0	0		$|
2746314	2746309	object/cell/cell.iff	5	0	0	0	1	0	0	0		$|
2746315	2746309	object/cell/cell.iff	6	0	0	0	1	0	0	0		$|
2746338	0	object/building/corellia/filler_slum_16x16_s01.iff	0	165.736	11.9659	1044.87	0.707107	0	0.707106	0		$|
2746340	0	object/static/structure/corellia/corl_imprv_wall_4x16_s03.iff	0	160	12	1093	1.25E-06	0	1	0		$|
2746341	0	object/static/structure/corellia/corl_imprv_wall_4x16_s03.iff	0	160	12	1061	1	0	0	0		$|
2746342	0	object/static/structure/corellia/corl_imprv_gate_sm_s03.iff	0	172	12	1061	1	0	0	0		$|
2746343	0	object/static/structure/corellia/corl_imprv_column_s03.iff	0	152	12	1061	1	0	0	0		$|
2746345	0	object/static/structure/corellia/corl_imprv_wall_4x16_s03.iff	0	184	12	1061	1	0	0	0		$|
2746346	0	object/static/structure/corellia/corl_imprv_column_s03.iff	0	192	12	1061	1	0	0	0		$|
2746348	0	object/static/structure/corellia/corl_imprv_wall_4x32_s03.iff	0	192	12	1077	0.707107	0	0.707106	0		$|
2746350	0	object/static/structure/corellia/corl_imprv_column_s03.iff	0	192	12	1093	1	0	0	0		$|
2746351	0	object/static/structure/corellia/corl_imprv_wall_4x32_s03.iff	0	152	12	1077	0.707107	0	0.707106	0		$|
2746352	0	object/static/structure/corellia/corl_imprv_column_s03.iff	0	152	11.8982	1093	1	0	0	0		$|
2746353	0	object/static/structure/corellia/corl_imprv_wall_4x16_s03.iff	0	184	12	1093	1	0	0	0		$|
2746354	0	object/static/structure/corellia/corl_imprv_wall_4x16_s03.iff	0	176	12	1085	0.707107	0	0.707106	0		$|
2746355	0	object/static/structure/corellia/corl_imprv_wall_4x16_s03.iff	0	168	12	1085	0.707107	0	0.707106	0		$|
2746356	0	object/static/structure/corellia/corl_imprv_wall_4x16_s03.iff	0	184	12	1085	0.707107	0	0.707106	0		$|
2746357	0	object/static/structure/corellia/corl_imprv_wall_4x16_s03.iff	0	160	12	1085	0.707107	0	0.707106	0		$|
2746360	0	object/static/structure/corellia/corl_imprv_column_s03.iff	0	184	12	1093	1	0	0	0		$|
2746361	0	object/static/structure/corellia/corl_imprv_column_s03.iff	0	160	12	1093	1	0	0	0		$|
2746362	0	object/static/structure/corellia/corl_imprv_gate_sm_s03.iff	0	188	12	1077	-3.20E-08	0	1	0		$|
2746363	0	object/static/structure/corellia/corl_imprv_gate_sm_s03.iff	0	180	12	1077	-3.20E-08	0	1	0		$|
2746364	0	object/static/structure/corellia/corl_imprv_gate_sm_s03.iff	0	156	12	1077	-3.20E-08	0	1	0		$|
2746365	0	object/static/structure/corellia/corl_imprv_gate_sm_s03.iff	0	164	12	1077	-3.20E-08	0	1	0		$|
2746366	0	object/static/structure/corellia/corl_imprv_column_s03.iff	0	168	12	1077	0.707107	0	0.707106	0		$|
2746367	0	object/static/structure/corellia/corl_imprv_column_s03.iff	0	176	12	1077	0.707107	0	0.707106	0		$|
2746368	0	object/static/structure/corellia/corl_imprv_gate_sm_s03.iff	0	172	12	1093	-3.20E-08	0	1	0		$|
4105691	0	object/tangible/terminal/terminal_mission_imperial.iff	0	120.757	12	1115.27	0.707107	0	-0.707106	0		$|
4105693	0	object/tangible/terminal/terminal_mission_imperial.iff	0	35.2549	12	1043.77	3.20E-08	0	1	0		$|
4105695	0	object/tangible/terminal/terminal_mission_imperial.iff	0	138.363	12	919.325	0.707107	0	-0.707106	0		$|
4105791	0	object/tangible/dungeon/corellian_corvette/corvette_search_rebel_destroy_01.iff	0	156.721	12	1062.21	1	0	0	0		$|
6045354	0	object/static/structure/general/streetlamp_medium_style_01.iff	0	244.997	12	1016.35	0.707107	0	-0.707106	0		$|
6045355	0	object/static/structure/general/streetlamp_medium_style_01.iff	0	245.009	12	1001.75	0.707107	0	-0.707106	0		$|
6045356	0	object/static/structure/general/streetlamp_medium_style_01.iff	0	190.558	12	1062.51	1	0	0	0		$|
6045357	0	object/static/structure/general/streetlamp_medium_style_01.iff	0	153.682	12	1062.44	1	0	0	0		$|
6045358	0	object/static/structure/general/streetlamp_medium_style_01.iff	0	99.8645	12	1127.59	1	0	0	0		$|
6045359	0	object/static/structure/general/streetlamp_medium_style_01.iff	0	117.025	12	1127.6	1	0	0	0		$|
6045360	0	object/static/structure/general/streetlamp_medium_style_01.iff	0	14.91	12	1024.83	0.707107	0	-0.707106	0		$|
6045361	0	object/static/structure/general/streetlamp_medium_style_01.iff	0	14.9734	12	1039.13	0.707107	0	-0.707106	0		$|
6045364	0	object/static/structure/general/streetlamp_medium_style_01.iff	0	124.916	12	901.567	1	0	0	0		$|
6045365	0	object/static/structure/general/streetlamp_medium_style_01.iff	0	140.883	12	901.671	1	0	0	0		$|
6045369	0	object/static/structure/general/streetlamp_small_style_01.iff	0	188.963	16.9424	973.894	1	0	0	0		$|
6045370	0	object/static/structure/general/streetlamp_small_style_01.iff	0	163.062	16.933	973.925	1	0	0	0		$|
6045371	0	object/static/structure/general/streetlamp_small_style_01.iff	0	90.4967	16.957	1007	1	0	0	0		$|
6045372	0	object/static/structure/general/streetlamp_small_style_01.iff	0	90.4739	16.9345	1033.18	1	0	0	0		$|
6045373	0	object/static/structure/general/streetlamp_small_green_style_01.iff	0	189.441	11.9051	1041.07	1	0	0	0		$|
6045374	0	object/static/structure/general/streetlamp_small_style_01.iff	0	172.013	18.6408	1093.9	0.703845	0.710353	0	0		$|
6045376	0	object/static/structure/general/streetlamp_small_red_style_01.iff	0	58.5155	17.1861	1071.94	0.272395	0.27336	0.659626	-0.644956		$|
6045377	0	object/static/structure/general/streetlamp_small_red_style_01.iff	0	66.2559	17.1861	1079.69	-0.255633	-0.27494	-0.645289	0.665329		$|
6045378	0	object/static/structure/general/streetlamp_small_style_01.iff	0	59.962	16.9143	1032.97	1	0	0	0		$|
6045379	0	object/static/structure/general/streetlamp_small_style_01.iff	0	59.9098	16.9022	1007.01	1	0	0	0		$|
6045380	0	object/static/structure/general/streetlamp_small_blue_style_01.iff	0	44.9272	11.9051	976.628	1	0	0	0		$|
6045381	0	object/static/structure/general/streetlamp_small_red_style_01.iff	0	111.791	17.2178	934.131	0.699921	0.713921	-0.0121922	0.0166785		$|
6045382	0	object/static/structure/general/streetlamp_small_red_style_01.iff	0	100.793	17.2178	934.146	0.700053	0.714007	-0.00505237	0.00967862		$|
6045383	0	object/static/structure/general/streetlamp_small_style_01.iff	0	146.99	16.1426	1011.41	0.00579633	0	0	0.999983		$|
6045384	0	object/static/structure/general/streetlamp_small_style_01.iff	0	162.998	16.9376	943.513	1	0	0	0		$|
6045385	0	object/static/structure/general/streetlamp_small_style_01.iff	0	189.009	16.9259	943.409	1	0	0	0		$|
6045440	0	object/static/structure/general/streetlamp_small_blue_style_02.iff	0	30.2255	12	1073.79	1	0	0	0		$|
6045441	0	object/static/structure/general/streetlamp_small_red_style_01.iff	0	128.19	13.4863	1070.95	0.714421	0.699716	0	0		$|
7806049	0	object/static/structure/general/banner_imperial_style_01.iff	0	202.871	12	1023.4	0.707107	0	0.707106	0		$|
7806050	0	object/tangible/terminal/terminal_mission_imperial.iff	0	201.1	12	994.516	0.707107	0	0.707106	0		$|
7806052	0	object/tangible/terminal/terminal_mission_imperial.iff	0	201.103	12	997.639	0.707107	0	0.707106	0		$|
7806054	0	object/static/structure/general/banner_imperial_style_01.iff	0	201.018	12	996.196	0.707107	0	0.707106	0		$|
7806119	0	object/static/structure/naboo/obelisk_naboo_theed_style_3.iff	0	1731.51	2.47695	870.42	1	0	0	0		$|
7806121	0	object/static/structure/tatooine/pillar_pristine_small_style_01.iff	0	1724	11.9941	873	1	0	0	0		$|
7806122	0	object/static/structure/tatooine/pillar_pristine_small_style_01.iff	0	1729	11.8481	873	1	0	0	0		$|
7806123	0	object/static/structure/tatooine/pillar_pristine_small_style_01.iff	0	1734	12.0016	873	1	0	0	0		$|
7806124	0	object/static/structure/tatooine/pillar_pristine_small_style_01.iff	0	1740	11.9711	873	1	0	0	0		$|
8615418	0	object/building/military/military_base_police_station_imperial_lok_otto.iff	0	176.98	12	1011.47	0.707107	0	0.707106	0	theme_park.lok.imperial_base	$|
8615419	8615418	object/cell/cell.iff	1	0	0	0	1	0	0	0		$|
8615420	8615418	object/cell/cell.iff	2	0	0	0	1	0	0	0		$|
8615421	8615418	object/cell/cell.iff	3	0	0	0	1	0	0	0		$|
8615422	8615418	object/cell/cell.iff	4	0	0	0	1	0	0	0		$|
8615423	8615418	object/cell/cell.iff	5	0	0	0	1	0	0	0		$|
8615424	8615418	object/cell/cell.iff	6	0	0	0	1	0	0	0		$|
8615425	8615418	object/cell/cell.iff	7	0	0	0	1	0	0	0		$|
8615426	8615418	object/cell/cell.iff	8	0	0	0	1	0	0	0		$|
8615427	8615418	object/cell/cell.iff	9	0	0	0	1	0	0	0		$|
8615428	8615418	object/cell/cell.iff	10	0	0	0	1	0	0	0		$|
8615429	8615418	object/cell/cell.iff	11	0	0	0	1	0	0	0		$|
8615430	8615418	object/cell/cell.iff	12	0	0	0	1	0	0	0		$|
8615431	0	object/building/military/military_base_shed_imperial_barracks_s01.iff	0	221.45	12	988.83	1	0	0	0		$|
8615432	8615431	object/cell/cell.iff	1	0	0	0	1	0	0	0		$|
8615433	8615431	object/cell/cell.iff	2	0	0	0	1	0	0	0		$|
8615434	8615431	object/cell/cell.iff	3	0	0	0	1	0	0	0		$|
8615435	8615431	object/cell/cell.iff	4	0	0	0	1	0	0	0		$|
8615436	8615431	object/cell/cell.iff	5	0	0	0	1	0	0	0		$|
8615437	8615431	object/cell/cell.iff	6	0	0	0	1	0	0	0		$|
8615438	0	object/building/military/small_imperial_cloning_facility.iff	0	204	12	1068	-3.20E-08	0	1	0	structure.municipal.cloning_facility:structure.municipal.cloning_base	healing.canhealshock|0|1|$|
8615439	8615438	object/cell/cell.iff	1	0	0	0	1	0	0	0		$|
8615440	8615438	object/cell/cell.iff	2	0	0	0	1	0	0	0		$|
8615441	8615438	object/cell/cell.iff	3	0	0	0	1	0	0	0		$|
8615442	8615438	object/cell/cell.iff	4	0	0	0	1	0	0	0		$|
8615443	8615438	object/cell/cell.iff	5	0	0	0	1	0	0	0		$|
8615444	8615438	object/cell/cell.iff	6	0	0	0	1	0	0	0		$|
8615445	0	object/building/military/military_base_shed_imperial_style_officer_s01.iff	0	128.05	12	1111.8	-0.707107	0	0.707107	0		$|
8615446	8615445	object/cell/cell.iff	1	0	0	0	1	0	0	0		$|
8615447	8615445	object/cell/cell.iff	2	0	0	0	1	0	0	0		$|
8615448	8615445	object/cell/cell.iff	3	0	0	0	1	0	0	0		$|
8615449	8615445	object/cell/cell.iff	4	0	0	0	1	0	0	0		$|
8615450	8615445	object/cell/cell.iff	5	0	0	0	1	0	0	0		$|
8615451	8615445	object/cell/cell.iff	6	0	0	0	1	0	0	0		$|
8615452	0	object/building/military/military_base_shed_imperial_barracks_s01.iff	0	38.74	12	1051.04	-3.20E-08	0	1	0		$|
8615453	8615452	object/cell/cell.iff	1	0	0	0	1	0	0	0		$|
8615454	8615452	object/cell/cell.iff	2	0	0	0	1	0	0	0		$|
8615455	8615452	object/cell/cell.iff	3	0	0	0	1	0	0	0		$|
8615456	8615452	object/cell/cell.iff	4	0	0	0	1	0	0	0		$|
8615457	8615452	object/cell/cell.iff	5	0	0	0	1	0	0	0		$|
8615458	8615452	object/cell/cell.iff	6	0	0	0	1	0	0	0		$|
8925509	0	object/static/vehicle/e3/landspeeder.iff	0	237.135	12	1017.19	0.989506	0	-0.144492	0		$|
9685847	0	object/static/structure/tatooine/wall_ruined_tatooine_large_style_02.iff	0	1384.92	19.6103	1968.67	0	0	1	0		$|
9685848	0	object/static/structure/tatooine/pillar_damaged_large_style_01.iff	0	1366.86	18.9779	1940.27	1	0	0	0		$|
9685849	0	object/static/structure/tatooine/pillar_ruined_large_style_01.iff	0	1372.94	18.9761	1940.22	1	0	0	0		$|
9685850	0	object/static/structure/tatooine/wall_ruined_tatooine_large_style_02.iff	0	1372.64	18.492	1944.99	-0.707107	0	0.707107	0		$|
9685851	0	object/static/structure/tatooine/wall_ruined_tatooine_large_style_01.iff	0	1366.66	18.3534	1948.48	1	0	0	0		$|
9685852	0	object/static/structure/tatooine/wall_pristine_tatooine_large_style_02.iff	0	1381	17.5452	1954.13	-0.707107	0	0.707107	0		$|
9685853	0	object/static/structure/tatooine/wall_ruined_tatooine_small_style_01.iff	0	1372.96	17.8762	1951.3	1	0	0	0		$|
9685855	0	object/static/structure/tatooine/wall_pristine_tatooine_large_style_02.iff	0	1358.63	17.1688	1954.42	-0.707107	0	0.707107	0		$|
9685856	0	object/static/structure/tatooine/wall_ruined_tatooine_large_style_01.iff	0	1389.3	17.4084	1961.73	0.92388	0	0	-0.382683		$|
9685857	0	object/static/structure/tatooine/pillar_pristine_tall_style_01.iff	0	1375.12	19.3712	1963.84	0.653282	0.653281	0.270598	-0.270598		$|
9685858	0	object/static/structure/tatooine/pillar_pristine_tall_style_01.iff	0	1373.18	19.0914	1962.77	0.707111	-0.707102	0	0		$|
9685859	0	object/static/structure/tatooine/pillar_pristine_tall_style_01.iff	0	1376.43	21.4336	1967.28	-0.653282	0.65328	-0.270598	-0.270598		$|
9685860	0	object/static/structure/tatooine/pillar_pristine_small_style_01.iff	0	1374.69	21.0644	1964.84	0.92388	0	-0.382683	0		$|
9685861	0	object/static/structure/tatooine/pillar_pristine_small_style_01.iff	0	1376.13	21.7904	1968.41	0.92388	0	-0.382683	0		$|
-1	0	object/tangible/poi/tatooine/explore_lok_imp_outpost.iff	0	234	12	1010	1	0	0	0		$|
