objid	container	server_template_crc	cell_index	px	py	pz	qw	qx	qy	qz	scripts	objvars
i	i	h	i	f	f	f	f	f	f	f	s	p
1033332	0	object/static/structure/general/streetlamp_large_green_style_02.iff	0	1019.4	75	1617.32	0.906703	0	-0.421771	0		$|
1033344	0	object/soundobject/soundobject_cantina_small.iff	0	1023.65	75	1623.46	1	0	0	0		$|
1033346	0	object/static/structure/general/streetlamp_large_style_02.iff	0	987.057	75	1651.94	1	0	0	0		$|
1033348	0	object/static/structure/general/streetlamp_large_style_02.iff	0	964.103	75	1683.83	0.999687	0	-0.0249974	0		$|
1033349	0	object/static/structure/general/streetlamp_large_style_02.iff	0	924.825	75	1730.72	0.707107	0	-0.707106	0		$|
1033351	0	object/static/structure/general/streetlamp_large_style_02.iff	0	859.564	75	1600.53	0.536088	0	0.844162	0		$|
1033352	0	object/static/structure/general/streetlamp_large_style_02.iff	0	856.09	75	1656.17	0.707107	0	-0.707106	0		$|
1033355	0	object/static/structure/general/streetlamp_medium_style_01.iff	0	1020.99	75	1710.81	0.962425	0	-0.271547	0		$|
1033357	0	object/static/structure/general/streetlamp_large_style_02.iff	0	941.384	75	1587.97	0.0245997	0	0.999698	0		$|
1033358	0	object/static/structure/general/streetlamp_large_style_02.iff	0	899.084	75	1634.31	-0.208849	0	0.977948	0		$|
1033359	0	object/static/structure/general/streetlamp_large_style_02.iff	0	888.387	75	1698.5	0.944279	0	-0.329146	0		$|
1033364	0	object/static/structure/general/campfire_fresh.iff	0	1091.53	75	1563.73	1	0	0	0		$|
1033367	0	object/static/structure/general/streetlamp_medium_style_01.iff	0	1085.34	75	1596.78	-0.609791	0	0.792563	0		$|
1033381	0	object/static/structure/general/streetlamp_large_style_02.iff	0	1019.6	75	1655.89	0.9992	0	-0.0399893	0		$|
1033382	0	object/soundobject/soundobject_city_crowd_small.iff	0	1025.9	75	1597.27	1	0	0	0		$|
1106881	0	object/static/structure/general/skeleton_human_headandbody.iff	0	764.093	38.8387	2030.79	-0.4573	-0.0609721	0.886339	0.0395267		$|
1106882	0	object/static/item/wp_mle_baton_gaderiffi.iff	0	763.802	39.1063	2030.15	0.478715	0.867593	-0.0603534	-0.1203		$|
1106883	0	object/static/structure/general/skeleton_human_headandbody.iff	0	757.103	38.7442	2028.62	-0.336749	-0.0473743	0.938665	0.0571283		$|
1106884	0	object/static/item/wp_mle_baton_gaderiffi.iff	0	756.449	38.7295	2028.74	0.721382	0	0	-0.692537		$|
1134492	0	object/building/tatooine/housing_tatt_style01_small.iff	0	1054.06	75	1563.56	0.999646	0	-0.0265894	0		$|
1134493	1134492	object/cell/cell.iff	1	0	0	0	1	0	0	0		$|
1134494	1134492	object/cell/cell.iff	2	0	0	0	1	0	0	0		$|
1134495	1134492	object/cell/cell.iff	3	0	0	0	1	0	0	0		$|
1134496	1134492	object/cell/cell.iff	4	0	0	0	1	0	0	0		$|
1134497	1134492	object/cell/cell.iff	5	0	0	0	1	0	0	0		$|
1134498	1134492	object/cell/cell.iff	6	0	0	0	1	0	0	0		$|
1134499	1134492	object/cell/cell.iff	7	0	0	0	1	0	0	0		$|
1134500	1134492	object/cell/cell.iff	8	0	0	0	1	0	0	0		$|
1134501	1134492	object/cell/cell.iff	9	0	0	0	1	0	0	0		$|
1134502	1134492	object/cell/cell.iff	10	0	0	0	1	0	0	0		$|
1134516	0	object/building/tatooine/filler_building_tatt_style01_03.iff	0	977.466	75	1717.77	0.00738939	0	0.999973	0		$|
1134518	0	object/building/tatooine/housing_tatt_style01_small.iff	0	1049.03	74.8292	1700.32	-0.695564	0	0.718464	0		$|
1134519	1134518	object/cell/cell.iff	1	0	0	0	1	0	0	0		$|
1134520	1134518	object/cell/cell.iff	2	0	0	0	1	0	0	0		$|
1134521	1134518	object/cell/cell.iff	3	0	0	0	1	0	0	0		$|
1134522	1134518	object/cell/cell.iff	4	0	0	0	1	0	0	0		$|
1134523	1134518	object/cell/cell.iff	5	0	0	0	1	0	0	0		$|
1134524	1134518	object/cell/cell.iff	6	0	0	0	1	0	0	0		$|
1134525	1134518	object/cell/cell.iff	7	0	0	0	1	0	0	0		$|
1134526	1134518	object/cell/cell.iff	8	0	0	0	1	0	0	0		$|
1134527	1134518	object/cell/cell.iff	9	0	0	0	1	0	0	0		$|
1134528	1134518	object/cell/cell.iff	10	0	0	0	1	0	0	0		$|
1134529	0	object/building/tatooine/filler_building_tatt_style01_03.iff	0	1044.02	75	1640.21	-0.681057	0	0.732231	0		$|
1134531	0	object/building/tatooine/housing_tatt_style01_large.iff	0	1018.4	74.8911	1672.78	0.0307915	0	0.999526	0		$|
1134532	1134531	object/cell/cell.iff	1	0	0	0	1	0	0	0		$|
1134533	1134531	object/cell/cell.iff	2	0	0	0	1	0	0	0		$|
4891019	1134533	object/tangible/collection/rare_pistol_dragoneye.iff	2	-2.42009	2.02885	7.09616	0.696707	0	0	0.717356		$|
1134534	1134531	object/cell/cell.iff	3	0	0	0	1	0	0	0		$|
1134535	1134531	object/cell/cell.iff	4	0	0	0	1	0	0	0		$|
1134536	1134531	object/cell/cell.iff	5	0	0	0	1	0	0	0		$|
1134537	1134531	object/cell/cell.iff	6	0	0	0	1	0	0	0		$|
1134538	1134531	object/cell/cell.iff	7	0	0	0	1	0	0	0		$|
1134539	1134531	object/cell/cell.iff	8	0	0	0	1	0	0	0		$|
1134540	1134531	object/cell/cell.iff	9	0	0	0	1	0	0	0		$|
1134541	1134531	object/cell/cell.iff	10	0	0	0	1	0	0	0		$|
1134542	1134531	object/cell/cell.iff	11	0	0	0	1	0	0	0		$|
1134543	1134531	object/cell/cell.iff	12	0	0	0	1	0	0	0		$|
1134544	1134531	object/cell/cell.iff	13	0	0	0	1	0	0	0		$|
1134545	1134531	object/cell/cell.iff	14	0	0	0	1	0	0	0		$|
1134546	1134531	object/cell/cell.iff	15	0	0	0	1	0	0	0		$|
1134547	1134531	object/cell/cell.iff	16	0	0	0	1	0	0	0		$|
1134548	1134531	object/cell/cell.iff	17	0	0	0	1	0	0	0		$|
1134549	1134531	object/cell/cell.iff	18	0	0	0	1	0	0	0		$|
1134550	1134531	object/cell/cell.iff	19	0	0	0	1	0	0	0		$|
1134551	1134531	object/cell/cell.iff	20	0	0	0	1	0	0	0		$|
1134552	1134531	object/cell/cell.iff	21	0	0	0	1	0	0	0		$|
1134555	0	object/building/tatooine/filler_building_tatt_style01_09.iff	0	988.638	74.8955	1567.52	0.999501	0	-0.0315872	0		$|
1134557	0	object/building/tatooine/cantina_tatooine.iff	0	971.874	75	1620.29	0.999135	0	-0.0415806	0	structure.municipal.cantina:theme_park.dungeon.generic_spawner	spawn_table|4|datatables/spawning/clone_relic/ep3_wayfar_cantina.iff|$|
1134558	1134557	object/cell/cell.iff	1	0	0	0	1	0	0	0		$|
1134559	1134557	object/cell/cell.iff	2	0	0	0	1	0	0	0		$|
1134560	1134557	object/cell/cell.iff	3	0	0	0	1	0	0	0		$|
1134561	1134557	object/cell/cell.iff	4	0	0	0	1	0	0	0		$|
1134562	1134557	object/cell/cell.iff	5	0	0	0	1	0	0	0		$|
1134563	1134557	object/cell/cell.iff	6	0	0	0	1	0	0	0		$|
1134564	1134557	object/cell/cell.iff	7	0	0	0	1	0	0	0		$|
1134565	1134557	object/cell/cell.iff	8	0	0	0	1	0	0	0		$|
1134566	1134557	object/cell/cell.iff	9	0	0	0	1	0	0	0		$|
609457649	1134566	object/tangible/collection/col_ent_fan_05.iff	9	-10.0324	-0.127262	22.5243	0.707389	0	0	0.706824		$|
1134567	1134557	object/cell/cell.iff	10	0	0	0	1	0	0	0		$|
1134568	1134557	object/cell/cell.iff	11	0	0	0	1	0	0	0		$|
1134569	1134557	object/cell/cell.iff	12	0	0	0	1	0	0	0		$|
1134570	1134557	object/cell/cell.iff	13	0	0	0	1	0	0	0		$|
1106531	1134570	object/tangible/gambling/wheel/roulette.iff	13	-31.9715	-0.519991	6.07928	1	0	0	0		$|
1106532	1134570	object/tangible/gambling/wheel/roulette.iff	13	-31.9352	-0.519991	13.9577	1	0	0	0		$|
1106533	1134570	object/tangible/gambling/wheel/roulette.iff	13	-23.9556	-0.519991	6.13396	1	0	0	0		$|
1106545	1134570	object/tangible/gambling/slot/standard.iff	13	-26.5608	-0.519991	5.35536	1	0	0	0		$|
1106546	1134570	object/tangible/gambling/slot/standard.iff	13	-28.9129	-0.519991	5.32529	1	0	0	0		$|
1106547	1134570	object/tangible/gambling/slot/standard.iff	13	-32.7576	-0.519991	9.18493	0.707107	0	0.707106	0		$|
1106548	1134570	object/tangible/gambling/slot/standard.iff	13	-32.6856	-0.519991	11.4782	0.707107	0	0.707106	0		$|
1134571	1134557	object/cell/cell.iff	14	0	0	0	1	0	0	0		$|
1134572	1134557	object/cell/cell.iff	15	0	0	0	1	0	0	0		$|
1134573	0	object/building/tatooine/housing_tatt_style01_small.iff	0	917.909	75	1720.12	0.0123911	0	0.999923	0		$|
1134574	1134573	object/cell/cell.iff	1	0	0	0	1	0	0	0		$|
1134575	1134573	object/cell/cell.iff	2	0	0	0	1	0	0	0		$|
1134576	1134573	object/cell/cell.iff	3	0	0	0	1	0	0	0		$|
1134577	1134573	object/cell/cell.iff	4	0	0	0	1	0	0	0		$|
1134578	1134573	object/cell/cell.iff	5	0	0	0	1	0	0	0		$|
1134579	1134573	object/cell/cell.iff	6	0	0	0	1	0	0	0		$|
1134580	1134573	object/cell/cell.iff	7	0	0	0	1	0	0	0		$|
1134581	1134573	object/cell/cell.iff	8	0	0	0	1	0	0	0		$|
1134582	1134573	object/cell/cell.iff	9	0	0	0	1	0	0	0		$|
1134583	1134573	object/cell/cell.iff	10	0	0	0	1	0	0	0		$|
1134585	0	object/building/tatooine/filler_building_tatt_style01_03.iff	0	949.514	75	1723.17	-0.701579	0	0.712592	0		$|
1134589	0	object/building/tatooine/filler_building_tatt_style01_10.iff	0	879.888	75	1657.66	0.541642	0	0.840609	0		$|
1134591	0	object/building/tatooine/filler_building_tatt_style01_01.iff	0	891.412	75	1624.66	0.838325	0	-0.545171	0		$|
1134593	0	object/static/structure/tatooine/debris_tatt_drum_storage_2.iff	0	943.476	75	1689.77	0.749555	0	0.661942	0		$|
1134594	0	object/static/structure/tatooine/debris_tatt_drum_storage_1.iff	0	942.469	75	1690.41	0.749555	0	0.661942	0		$|
1134595	0	object/static/structure/tatooine/debris_tatt_drum_dented_1.iff	0	941.166	75	1688.25	0.749555	0	0.661942	0		$|
1134596	0	object/static/structure/tatooine/debris_tatt_drum_dented_1.iff	0	942.656	75	1688.48	0.749555	0	0.661942	0		$|
1134597	0	object/static/structure/tatooine/debris_tatt_crate_1.iff	0	944.046	75	1688.43	0.749555	0	0.661942	0		$|
1134598	0	object/static/structure/tatooine/debris_tatt_drum_storage_2.iff	0	901.279	75	1704.98	0.794017	0	0.607895	0		$|
1134599	0	object/static/structure/tatooine/debris_tatt_drum_dented_1.iff	0	904.933	75	1703.29	0.794017	0	0.607895	0		$|
1134600	0	object/static/structure/tatooine/debris_tatt_drum_storage_1.iff	0	900.911	75	1701.36	0.794017	0	0.607895	0		$|
1134601	0	object/static/structure/tatooine/debris_tatt_drum_dented_1.iff	0	901.22	75	1699.28	0.794017	0	0.607895	0		$|
1134602	0	object/static/structure/tatooine/jawa/tent_jawa_01_small.iff	0	942.208	75	1689.74	0.83459	0	0.550871	0		$|
1134603	0	object/static/structure/tatooine/jawa/tent_jawa_01_large.iff	0	902.332	75	1701.73	0.894535	0	0.446999	0		$|
1134604	0	object/static/structure/tatooine/antenna_tatt_style_1.iff	0	921.717	74.9503	1611.08	0.797047	0	0.603918	0		$|
1134605	0	object/static/structure/tatooine/debris_tatt_pipe_widemouth.iff	0	880.975	75	1669.73	0.797047	0	0.603918	0		$|
1134606	0	object/static/structure/tatooine/antenna_tatt_style_2.iff	0	1074.32	75	1608.35	0.981355	0	0.192204	0		$|
1134607	0	object/static/structure/tatooine/debris_tatt_pipe_dual_unconnected.iff	0	886.579	75	1633.61	0.981355	0	0.192204	0		$|
1134608	0	object/static/structure/tatooine/debris_tatt_pipe_widemouth.iff	0	883.899	75	1645.91	0.981355	0	0.192204	0		$|
1134609	0	object/static/structure/tatooine/debris_tatt_pipe_narrow_2.iff	0	866.801	75	1677.09	0.797047	0	0.603918	0		$|
1134610	0	object/static/structure/tatooine/debris_tatt_pipe_narrow_2.iff	0	940.208	75	1658.66	0.910381	0	-0.413771	0		$|
1134611	0	object/static/structure/tatooine/debris_tatt_pipe_dual_unconnected.iff	0	908.23	75	1652.78	0.998104	0	-0.0615538	0		$|
1134619	0	object/static/structure/tatooine/debris_tatt_drum_storage_1.iff	0	1059.64	75	1626.68	0.992617	0	-0.121294	0		$|
1134620	0	object/static/structure/tatooine/debris_tatt_crate_1.iff	0	1057.18	75	1625.83	0.992617	0	-0.121294	0		$|
1134621	0	object/static/structure/tatooine/debris_tatt_drum_storage_1.iff	0	1055.64	75	1625.75	0.996524	0	0.0833098	0		$|
1134622	0	object/static/structure/tatooine/debris_tatt_drum_dented_1.iff	0	1056.92	75	1624.75	0.996524	0	0.0833098	0		$|
1134623	0	object/static/structure/tatooine/debris_tatt_crate_metal_1.iff	0	1056.58	75	1626.82	0.996524	0	0.0833098	0		$|
1134624	0	object/static/structure/tatooine/debris_tatt_drum_dented_1.iff	0	1061.58	75	1623.83	0.941613	0	0.336697	0		$|
1134625	0	object/static/structure/tatooine/debris_tatt_drum_dented_1.iff	0	1062.66	75	1625.2	0.853356	0	0.521328	0		$|
1134627	0	object/static/structure/tatooine/jawa/tent_jawa_01_large.iff	0	1061.51	75	1627.75	0.99413	0	0.108195	0		$|
1134628	0	object/static/structure/tatooine/shed_junkshop_watto.iff	0	1059.34	75	1642.91	0.939918	0	0.341401	0		$|
1134629	0	object/static/structure/tatooine/wall_junkshop_watto.iff	0	1067.62	75	1634.24	0.850739	0	0.525589	0		$|
1134649	0	object/static/structure/tatooine/debris_tatt_drum_storage_1.iff	0	1024.74	75	1580.81	0.992617	0	-0.121294	0		$|
1134650	0	object/static/structure/tatooine/debris_tatt_drum_dented_1.iff	0	1026.32	75	1580.4	0.992617	0	-0.121294	0		$|
1134666	0	object/static/structure/tatooine/wall_junkshop_watto.iff	0	1080.8	75.0529	1564.15	0.759399	0	0.650625	0		$|
1134667	0	object/static/structure/tatooine/wall_junkshop_watto.iff	0	1030.89	75	1552.22	0.955807	0	0.293996	0		$|
1134672	0	object/static/structure/tatooine/debris_tatt_crate_metal_1.iff	0	987.072	75	1678.23	0.989992	0	-0.14112	0		$|
1134673	0	object/static/structure/tatooine/debris_tatt_drum_dented_1.iff	0	989.292	75	1677.41	0.99799	0	0.063364	0		$|
1134674	0	object/static/structure/tatooine/debris_tatt_drum_storage_1.iff	0	985.948	75	1677.35	0.984128	0	0.177462	0		$|
1134675	0	object/static/structure/tatooine/debris_tatt_drum_dented_1.iff	0	987.02	75	1676.13	0.989992	0	-0.14112	0		$|
1134676	0	object/static/structure/tatooine/debris_tatt_crate_metal_1.iff	0	988.407	75	1675.51	0.927396	0	0.374082	0		$|
1134677	0	object/static/structure/tatooine/debris_tatt_crate_metal_1.iff	0	988.298	75	1682.24	0.984128	0	0.177462	0		$|
1134678	0	object/static/structure/tatooine/debris_tatt_drum_storage_1.iff	0	987.179	75	1681.36	0.984128	0	0.177462	0		$|
1134679	0	object/static/structure/tatooine/debris_tatt_drum_dented_1.iff	0	988.244	75	1680.14	0.974437	0	-0.22466	0		$|
1134685	0	object/static/structure/tatooine/debris_tatt_drum_dented_1.iff	0	969.41	75	1691.8	0.82056	0	0.571561	0		$|
1134686	0	object/static/structure/tatooine/debris_tatt_drum_dented_1.iff	0	969.56	75	1690.22	0.919729	0	0.392554	0		$|
1134687	0	object/static/structure/tatooine/debris_tatt_crate_1.iff	0	970.923	75	1690.93	0.919729	0	0.392554	0		$|
1134688	0	object/static/structure/tatooine/debris_tatt_drum_dented_1.iff	0	965.78	75	1691.08	0.901139	0	0.43353	0		$|
1134690	0	object/static/structure/tatooine/jawa/tent_jawa_01_med.iff	0	987.676	75	1677.99	0.999978	0	-0.00659269	0		$|
1134691	0	object/static/structure/tatooine/jawa/tent_jawa_01_large.iff	0	969.842	75	1690.2	0.45946	0	0.888199	0		$|
1134692	0	object/static/structure/tatooine/jawa/tent_jawa_01_large.iff	0	1009.49	75	1603.39	0.840057	0	0.542498	0		$|
1134693	0	object/static/structure/tatooine/antenna_tatt_style_1.iff	0	1017.25	75	1612.24	0.981355	0	0.192204	0		$|
1134694	0	object/static/structure/tatooine/debris_tatt_drum_storage_1.iff	0	932.362	75	1618.89	0.966798	0	0.255541	0		$|
1134695	0	object/static/structure/tatooine/debris_tatt_drum_storage_1.iff	0	936.468	75	1618.49	0.998574	0	0.0533819	0		$|
1134696	0	object/static/structure/tatooine/debris_tatt_drum_storage_1.iff	0	930.401	75	1610.59	0.835588	0	-0.549356	0		$|
1134697	0	object/static/structure/tatooine/debris_tatt_drum_storage_1.iff	0	930.44	75	1614.7	-0.706262	0	0.707951	0		$|
1134698	0	object/static/structure/tatooine/debris_tatt_crate_1.iff	0	930.688	75	1612.1	-0.706262	0	0.707951	0		$|
1134699	0	object/static/structure/tatooine/debris_tatt_drum_dented_1.iff	0	951.873	74.9894	1571.74	-0.0276066	0	0.999619	0		$|
1134700	0	object/static/structure/tatooine/debris_tatt_drum_storage_1.iff	0	952.602	74.9922	1570.29	-0.0276066	0	0.999619	0		$|
1134701	0	object/static/structure/tatooine/debris_tatt_drum_storage_1.iff	0	948.587	74.8831	1571.14	0.17646	0	0.984308	0		$|
1134702	0	object/static/structure/tatooine/debris_tatt_drum_dented_1.iff	0	949.829	74.9213	1570.1	0.17646	0	0.984308	0		$|
1134703	0	object/static/structure/tatooine/debris_tatt_crate_metal_1.iff	0	951.296	74.9678	1569.72	-0.0276066	0	0.999619	0		$|
1134707	0	object/static/structure/tatooine/wall_junkshop_watto.iff	0	1006.98	75	1563.06	0.999767	0	-0.0215905	0		$|
1134709	0	object/static/structure/tatooine/wall_junkshop_watto.iff	0	969.881	74.9993	1564.99	0.999135	0	-0.0415805	0		$|
1134712	0	object/static/structure/tatooine/shed_junkshop_watto.iff	0	1072.29	75	1621.36	0.915757	0	0.401732	0		$|
1134713	0	object/static/structure/tatooine/debris_tatt_crate_metal_1.iff	0	1029.58	74.9984	1722.35	0.979749	0	-0.20023	0		$|
1134714	0	object/static/structure/tatooine/debris_tatt_drum_dented_1.iff	0	1027.28	74.9991	1722.89	0.999994	0	0.00340647	0		$|
1134715	0	object/static/structure/tatooine/debris_tatt_drum_dented_1.iff	0	1028.65	74.9987	1720.31	0.959212	0	-0.282687	0		$|
1134716	0	object/static/structure/tatooine/jawa/tent_jawa_01_med.iff	0	1026.83	74.9992	1721.79	0.999135	0	-0.0415806	0		$|
1134717	0	object/static/structure/tatooine/wall_junkshop_watto.iff	0	1042.4	74.2667	1714.36	0.729362	0	0.684128	0		$|
1134718	0	object/static/structure/tatooine/debris_tatt_drum_dented_1.iff	0	1004.1	75	1708.76	0.986937	0	0.161109	0		$|
1134719	0	object/static/structure/tatooine/debris_tatt_drum_dented_1.iff	0	1004.6	75	1705.62	0.999068	0	-0.0431713	0		$|
1134720	0	object/static/structure/tatooine/debris_tatt_crate_metal_1.iff	0	1003.78	75	1706.9	0.886156	0	0.463387	0		$|
1134721	0	object/static/structure/tatooine/debris_tatt_drum_dented_1.iff	0	1001.85	75	1705.75	0.991795	0	-0.127839	0		$|
1134722	0	object/static/structure/tatooine/jawa/tent_jawa_01_med.iff	0	1003.05	75	1708.22	0.993185	0	0.116549	0		$|
1134723	0	object/static/structure/tatooine/debris_tatt_crate_metal_1.iff	0	1028.85	74.9986	1718.22	0.992998	0	0.11813	0		$|
1134724	0	object/static/structure/tatooine/shed_junkshop_watto.iff	0	997.858	75	1724.56	0.999859	0	0.0168137	0		$|
1134725	0	object/static/structure/tatooine/wall_junkshop_watto.iff	0	1007.82	75	1727.43	0.999913	0	-0.013185	0		$|
1134726	0	object/static/structure/tatooine/wall_junkshop_watto.iff	0	996.943	75	1711.77	0.71203	0	0.702149	0		$|
1134728	0	object/static/structure/tatooine/wall_junkshop_watto.iff	0	1051.44	74.9274	1678.54	0.725934	0	0.687764	0		$|
1134734	0	object/static/structure/tatooine/debris_tatt_drum_storage_1.iff	0	952.385	75	1686.02	0.978362	0	0.206902	0		$|
1134735	0	object/static/structure/tatooine/debris_tatt_drum_dented_1.iff	0	952.255	75	1684.82	0.978362	0	0.206902	0		$|
1134742	0	object/static/structure/tatooine/debris_tatt_pipe_narrow_1.iff	0	907.666	75	1707.94	0.981355	0	0.192204	0		$|
1134743	0	object/static/structure/tatooine/antenna_tatt_style_1.iff	0	923.723	74.9686	1739.35	0.991114	0	0.133012	0		$|
1134745	0	object/static/structure/tatooine/wall_junkshop_watto.iff	0	967.362	75	1736.2	0.999767	0	-0.0215908	0		$|
1134747	0	object/static/structure/tatooine/debris_tatt_drum_storage_1.iff	0	951.019	75	1688.23	0.978362	0	0.206902	0		$|
1134748	0	object/static/structure/tatooine/debris_tatt_drum_storage_1.iff	0	951.02	75	1689.9	0.978362	0	0.206902	0		$|
1134749	0	object/static/structure/tatooine/debris_tatt_drum_dented_1.iff	0	949.714	75	1684.88	0.978362	0	0.206902	0		$|
1134750	0	object/static/structure/tatooine/jawa/tent_jawa_01_med.iff	0	952.248	75	1687.02	0.0123891	0	0.999923	0		$|
1134751	0	object/static/structure/tatooine/shed_junkshop_watto.iff	0	1039.49	74.0023	1726.71	0.756552	0	0.653934	0		$|
1134752	0	object/static/structure/tatooine/wall_junkshop_watto.iff	0	1027.58	74.8533	1728.03	0.999862	0	-0.0165921	0		$|
1134753	0	object/static/structure/tatooine/debris_tatt_drum_storage_1.iff	0	1029.86	74.9983	1719.23	0.992998	0	0.11813	0		$|
1143336	0	object/static/structure/tatooine/shed_junkshop_watto.iff	0	1081.55	75	1550.49	1	0	0	0		$|
1165344	0	object/static/structure/tatooine/wall_archway_tatooine_large_style_01.iff	0	923.522	75	1734.15	1	0	0	0		$|
1165345	0	object/static/structure/tatooine/wall_junkshop_watto.iff	0	933.478	74.9886	1738.21	0.999767	0	-0.021591	0		$|
1165346	0	object/static/structure/tatooine/wall_junkshop_watto.iff	0	913.706	74.9938	1729.43	0.999767	0	-0.021591	0		$|
1165347	0	object/building/tatooine/filler_building_block_64x16_style_02.iff	0	877.042	75	1701.72	0.332736	0	0.94302	0		$|
1165351	0	object/static/structure/tatooine/wall_cleft_tatooine_large_style_01.iff	0	901.316	73.5975	1726	0.913089	0	0.407761	0		$|
1165352	0	object/static/structure/tatooine/pillar_damaged_large_style_01.iff	0	904.245	73.5315	1728.36	0.613746	0	0.789504	0		$|
1165353	0	object/building/tatooine/filler_building_block_64x16_style_01.iff	0	843.518	74.9353	1636.92	-0.703845	0	0.710353	0		$|
1165357	0	object/building/tatooine/filler_building_block_64x32_style_01.iff	0	894.905	75	1587.25	0.978031	0	0.20846	0		$|
1165360	0	object/static/structure/tatooine/pillar_pristine_large_style_01.iff	0	960.033	74.3111	1564.59	1	0	0	0		$|
1165361	0	object/static/structure/tatooine/wall_gate_tatooine_style_01.iff	0	934.452	75	1584.24	1	0	0	0		$|
1165363	0	object/static/structure/tatooine/wall_ruined_tatooine_large_style_01.iff	0	939.667	75	1575.9	0.924909	0	-0.380188	0		$|
1165364	0	object/static/structure/tatooine/wall_damaged_tatooine_large_style_01.iff	0	955.54	73.9125	1565.87	0.819648	0	-0.572868	0		$|
1165366	0	object/static/structure/tatooine/wall_damaged_tatooine_large_style_01.iff	0	948.052	73.7834	1568.43	0.543167	0	0.839625	0		$|
1165367	0	object/static/structure/tatooine/pillar_damaged_large_style_01.iff	0	952.224	74.9496	1567.83	1	0	0	0		$|
1165368	0	object/static/structure/tatooine/pillar_ruined_large_style_01.iff	0	945.108	75	1570.88	1	0	0	0		$|
1165370	0	object/static/structure/tatooine/stone_hovel_tatooine_style_01.iff	0	1098.29	75	1565.34	-0.629412	0	0.777072	0		$|
1165371	0	object/static/structure/tatooine/stone_hovel_tatooine_style_01.iff	0	1085.51	75	1566.6	0.561168	0	0.827702	0		$|
1165372	0	object/static/structure/tatooine/wall_archway_tatooine_large_style_01.iff	0	1079.29	75	1577.83	0.99875	0	-0.0499792	0		$|
1165373	0	object/static/structure/tatooine/tent_house_tatooine_style_01.iff	0	1090.26	74.8419	1557.85	-0.0691486	0	0.997606	0		$|
1165374	0	object/static/structure/tatooine/tent_house_tatooine_style_01.iff	0	1106.28	75	1583.71	0.947651	0	0.319309	0		$|
1165375	0	object/static/structure/tatooine/jawa/tent_jawa_01_large.iff	0	1097.29	75	1589.68	0.928665	0	-0.370921	0		$|
1165376	0	object/static/structure/tatooine/stone_hovel_tatooine_style_01.iff	0	1091.57	75	1599.68	-0.497571	0	0.867424	0		$|
1165377	0	object/static/structure/tatooine/stone_hovel_tatooine_style_01.iff	0	1084.74	75	1590.65	0.986418	0	0.164253	0		$|
1165378	0	object/static/structure/tatooine/stone_hovel_tatooine_style_01.iff	0	1081.69	75	1601.19	0.452176	0	0.891929	0		$|
1165379	0	object/building/tatooine/housing_tatt_style01_small.iff	0	1084.54	75	1610.8	0.696705	0	0.717356	0		$|
1165380	1165379	object/cell/cell.iff	1	0	0	0	1	0	0	0		$|
1165381	1165379	object/cell/cell.iff	2	0	0	0	1	0	0	0		$|
1165382	1165379	object/cell/cell.iff	3	0	0	0	1	0	0	0		$|
1165383	1165379	object/cell/cell.iff	4	0	0	0	1	0	0	0		$|
1165384	1165379	object/cell/cell.iff	5	0	0	0	1	0	0	0		$|
1165385	1165379	object/cell/cell.iff	6	0	0	0	1	0	0	0		$|
1165386	1165379	object/cell/cell.iff	7	0	0	0	1	0	0	0		$|
1165387	1165379	object/cell/cell.iff	8	0	0	0	1	0	0	0		$|
1165388	1165379	object/cell/cell.iff	9	0	0	0	1	0	0	0		$|
1165389	1165379	object/cell/cell.iff	10	0	0	0	1	0	0	0		$|
1165390	0	object/static/structure/tatooine/wall_ruined_tatooine_large_style_01.iff	0	1102.26	75	1612.38	0.52762	0	0.849481	0		$|
1165391	0	object/static/structure/tatooine/wall_ruined_tatooine_small_style_01.iff	0	1110.63	75	1607	0.986418	0	-0.164252	0		$|
1165392	0	object/static/structure/tatooine/wall_ruined_tatooine_large_style_01.iff	0	1112.03	75	1596.57	0.997888	0	-0.0649542	0		$|
1165393	0	object/static/structure/tatooine/wall_ruined_tatooine_large_style_01.iff	0	1093.85	75	1551.43	0.822502	0	0.568762	0		$|
1165394	0	object/static/structure/tatooine/wall_ruined_tatooine_small_style_01.iff	0	1104.66	74.2252	1555.63	0.877582	0	0.479426	0		$|
1165395	0	object/static/structure/tatooine/wall_ruined_tatooine_large_style_01.iff	0	1108.23	73.9751	1565.74	-0.0591688	0	0.998248	0		$|
1165396	0	object/static/structure/tatooine/wall_pristine_tatooine_small_style_01.iff	0	1078.74	75	1583.76	0.9992	0	-0.0399893	0		$|
1165400	0	object/static/structure/tatooine/wall_gate_tatooine_style_03.iff	0	1048.44	75	1667.87	0.758362	0	0.651834	0		$|
1165401	0	object/static/structure/tatooine/pillar_damaged_large_style_01.iff	0	1054.34	75	1647.8	0.703845	0	0.710353	0		$|
1165403	0	object/static/structure/tatooine/wall_gate_tatooine_style_03.iff	0	1051.07	74.983	1690.94	0.999888	0	-0.014999	0		$|
1165404	0	object/static/structure/tatooine/pillar_pristine_large_style_01.iff	0	1051.38	75	1687.78	1	0	0	0		$|
1165492	0	object/static/structure/tatooine/wall_gate_tatooine_style_01.iff	0	837.607	74.9933	1676.3	1	0	0	0		$|
1165493	0	object/static/structure/tatooine/wall_damaged_tatooine_large_style_01.iff	0	841.073	74.9887	1681.91	-0.536088	0	0.844162	0		$|
1165494	0	object/static/structure/tatooine/wall_damaged_tatooine_large_style_01.iff	0	848.442	75	1684.74	0.841901	0	0.539632	0		$|
1165495	0	object/static/structure/tatooine/pillar_damaged_large_style_01.iff	0	845.065	74.9896	1684	0.980067	0	-0.198669	0		$|
1165499	0	object/static/structure/tatooine/wall_gate_tatooine_style_01.iff	0	854.676	74.6113	1600.98	0.875174	0	-0.483807	0		$|
1165500	0	object/static/structure/tatooine/wall_pristine_tatooine_small_style_01.iff	0	849.616	74.8918	1604.19	0.877583	0	-0.479425	0		$|
1165501	0	object/static/structure/tatooine/wall_pristine_tatooine_small_style_01.iff	0	859.693	74.9521	1597.81	0.877582	0	-0.479426	0		$|
1165502	0	object/static/structure/tatooine/pillar_pristine_small_style_01.iff	0	848.225	75	1605.31	0.939373	0	0.342898	0		$|
1165503	0	object/static/structure/tatooine/pillar_pristine_small_style_01.iff	0	862.234	75	1596.56	0.959662	0	0.281157	0		$|
1165505	0	object/tangible/furniture/tatooine/frn_tato_fruit_stand_large_style_01.iff	0	876.474	75	1641.86	-0.123885	0	0.992297	0		$|
1165546	0	object/tangible/furniture/tatooine/frn_tato_meat_rack.iff	0	876.479	75	1623.59	0.671177	0	0.741297	0		$|
1165579	0	object/tangible/furniture/tatooine/frn_tato_chair_cafe_style_02.iff	0	922.825	75	1631.87	0.721382	0	-0.692537	0		$|
1165581	0	object/tangible/furniture/tatooine/frn_tato_chair_cafe_style_02.iff	0	919.695	75	1632.91	0.655014	0	0.755617	0		$|
1165582	0	object/tangible/furniture/tatooine/frn_tato_chair_cafe_style_01.iff	0	922.006	75	1633.49	-0.272313	0	0.962209	0		$|
1165583	0	object/tangible/furniture/tatooine/frn_tato_tbl_cafe_table_style_01.iff	0	921.131	75	1632.33	0.877583	0	-0.479426	0		$|
1165594	0	object/tangible/furniture/tatooine/frn_tato_cafe_parasol.iff	0	921.922	74.7579	1630.93	0.945753	-0.0364207	0.316297	-0.064659		$|
1165604	0	object/tangible/furniture/tatooine/frn_tato_chair_cafe_style_01.iff	0	920.389	75	1631.04	0.981048	0	0.193767	0		$|
1165611	0	object/static/structure/tatooine/debris_tatt_drum_dented_1.iff	0	883.663	75	1634.67	0.786917	0	-0.617059	0		$|
1165612	0	object/static/structure/tatooine/debris_tatt_drum_storage_1.iff	0	879.754	75	1627.47	0.992198	0	0.124675	0		$|
1165613	0	object/static/structure/tatooine/debris_tatt_drum_storage_2.iff	0	883.318	75	1633.78	0.999888	0	0.0149994	0		$|
1165614	0	object/static/structure/tatooine/debris_tatt_pipe_narrow_1.iff	0	862.452	75	1654.14	1	0	0	0		$|
1165616	0	object/static/structure/tatooine/debris_tatt_pipe_widemouth.iff	0	854.161	75	1659.29	1	0	0	0		$|
1165617	0	object/static/structure/tatooine/debris_tatt_pipe_widemouth.iff	0	873.164	75	1643.51	-0.301053	0	0.953608	0		$|
1165618	0	object/static/structure/tatooine/debris_tatt_pipe_narrow_1.iff	0	880.038	75	1641.73	1	0	0	0		$|
1165619	0	object/static/structure/tatooine/debris_tatt_pipe_dual_unconnected.iff	0	885.791	75	1642.96	1	0	0	0		$|
1165630	0	object/static/structure/tatooine/debris_tatt_crate_metal_1.iff	0	875.924	75	1625.76	-0.281922	0	0.959437	0		$|
1165632	0	object/static/structure/tatooine/debris_tatt_drum_storage_1.iff	0	877.153	75	1624.2	0.074134	0	0.997248	0		$|
1165633	0	object/static/structure/tatooine/debris_tatt_drum_storage_2.iff	0	875.174	75	1625.54	-0.0507746	0	0.99871	0		$|
1165640	0	object/static/structure/tatooine/wall_archway_tatooine_large_style_01.iff	0	882.636	75	1609.48	0.979061	0	0.203567	0		$|
1165641	0	object/static/structure/tatooine/wall_pristine_tatooine_small_style_01.iff	0	884.485	75	1614.02	0.979061	0	0.203567	0		$|
1165642	0	object/static/structure/tatooine/wall_pristine_tatooine_small_style_01.iff	0	880.232	75	1604	0.978031	0	0.20846	0		$|
1165643	0	object/static/structure/tatooine/wall_pristine_tatooine_small_style_01.iff	0	853.695	75	1654.7	0.71092	0	0.703273	0		$|
1165644	0	object/static/structure/tatooine/wall_pristine_tatooine_small_style_01.iff	0	865.632	75	1655.64	-0.685868	0	0.727726	0		$|
1165645	0	object/static/structure/tatooine/wall_archway_tatooine_large_style_01.iff	0	859.656	75	1655.36	-0.693111	0	0.720831	0		$|
1170332	0	object/static/structure/tatooine/wall_gate_tatooine_style_03.iff	0	997.369	75	1696.93	1	0	0	0		$|
1170333	0	object/static/structure/tatooine/pillar_damaged_large_style_01.iff	0	997.667	75	1700.78	0.703845	0	0.710353	0		$|
1170335	0	object/static/structure/tatooine/pillar_pristine_large_style_01.iff	0	997.611	75	1693.09	1	0	0	0		$|
1170336	0	object/static/structure/tatooine/wall_junkshop_watto.iff	0	997.233	75	1682.47	0.710914	0	0.703279	0		$|
1171329	0	object/building/tatooine/tower_jabbas_palace.iff	0	131.038	76.2414	1428.03	1	0	0	0		$|
1224077	0	object/static/installation/mockup_mining_liquid_moisture_harvester.iff	0	980.559	75	1695.59	1	0	0	0		$|
1224079	0	object/static/installation/mockup_mining_liquid_moisture_harvester.iff	0	1008.5	75	1690.35	0.998988	0	-0.044985	0		$|
1224130	0	object/building/tatooine/filler_building_block_64x32_style_02.iff	0	945.309	75	1670.45	0.0242006	0	0.999707	0		$|
1224144	0	object/static/installation/mockup_mining_gas_harvester_style_1.iff	0	902.376	75	1614.58	0.976976	0	0.213347	0		$|
1224147	0	object/static/installation/mockup_mining_gas_harvester_style_1.iff	0	932.444	75	1629.51	0.9992	0	-0.0399893	0		$|
1224939	0	object/static/installation/mockup_mining_ore_harvester_style_1.iff	0	1027.69	75	1706.08	0.9992	0	-0.0399893	0		$|
1224940	0	object/static/installation/mockup_mining_ore_harvester_style_1.iff	0	1013.33	75	1717.04	0.9998	0	-0.0199987	0		$|
1224943	0	object/static/structure/tatooine/wall_archway_tatooine_large_style_01.iff	0	899.463	75	1660.09	0.72138	0	0.692539	0		$|
1224953	0	object/static/structure/tatooine/pillar_pristine_large_style_01.iff	0	895.565	75	1660.69	1	0	0	0		$|
1225092	0	object/static/installation/mockup_power_generator_solar_style_1.iff	0	861.769	75	1617.53	0.707413	0	0.7068	0		$|
1225093	0	object/static/structure/tatooine/debris_tatt_drum_storage_2.iff	0	854.602	75	1619.44	0.915116	0	-0.40319	0		$|
1225094	0	object/static/structure/tatooine/debris_tatt_drum_storage_1.iff	0	854.861	75	1620.57	0.981048	0	-0.193767	0		$|
1225095	0	object/static/structure/tatooine/debris_tatt_drum_dented_1.iff	0	854.032	75	1620	0.934124	0	-0.35695	0		$|
1225096	0	object/static/structure/tatooine/debris_tatt_crate_metal_1.iff	0	853.742	75	1618.97	0.983844	0	-0.17903	0		$|
1225097	0	object/static/structure/tatooine/debris_tatt_crate_1.iff	0	853.057	75	1619.38	-0.540303	0	0.841471	0		$|
1225103	0	object/static/installation/mockup_power_generator_wind_style_1.iff	0	949.015	75	1573.7	0.90687	0	-0.42141	0		$|
1225104	0	object/static/installation/mockup_power_generator_wind_style_1.iff	0	962.473	75	1568.13	-0.671178	0	0.741296	0		$|
1225107	0	object/static/installation/mockup_power_generator_photo_bio_style_1.iff	0	1005.41	75	1567.26	0.9998	0	-0.0199987	0		$|
1305392	0	object/tangible/terminal/terminal_mission.iff	0	1014.13	75	1601.89	0.852525	0	0.522687	0		$|
1305393	0	object/static/structure/tatooine/debris_tatt_crate_metal_1.iff	0	1004.07	75	1605.57	0.986418	0	-0.164252	0		$|
1305394	0	object/static/structure/tatooine/debris_tatt_drum_dented_1.iff	0	1012.82	75	1600.7	-0.62161	0	0.783327	0		$|
1305397	0	object/static/structure/tatooine/debris_tatt_drum_storage_2.iff	0	1005.49	75	1603.43	-0.52762	0	0.849481	0		$|
1305398	0	object/static/structure/tatooine/debris_tatt_crate_metal_1.iff	0	1005.12	75	1605.47	-0.514819	0	0.857299	0		$|
1305399	0	object/static/structure/tatooine/debris_tatt_crate_1.iff	0	1005.71	75	1602.57	-0.617686	0	0.786425	0		$|
1305401	0	object/static/structure/tatooine/debris_tatt_crate_metal_1.iff	0	1012.64	75	1602.75	-0.370181	0	0.92896	0		$|
1305403	0	object/static/structure/tatooine/debris_tatt_drum_storage_1.iff	0	1010.35	75	1602.64	0.390152	0	0.920751	0		$|
1305405	0	object/static/structure/tatooine/debris_tatt_drum_storage_2.iff	0	1009.33	75	1602.28	0.453596	0	0.891207	0		$|
1305407	0	object/static/structure/tatooine/debris_tatt_crate_1.iff	0	1008.67	75	1601.69	0.35302	0	0.935616	0		$|
1305408	0	object/static/structure/tatooine/debris_tatt_crate_1.iff	0	1013.98	75	1600.37	0.18473	0	0.982789	0		$|
1305426	0	object/static/structure/tatooine/debris_tatt_crate_1.iff	0	1006.53	75	1600.89	0.844589	0	-0.535416	0		$|
1322869	0	object/static/item/item_container_inorganic_chemicals.iff	0	1108.95	75	1584.08	0.986418	0	-0.164252	0		$|
1322870	0	object/static/item/item_rocket_launcher.iff	0	1108.94	75.3795	1583.92	0.710913	0	0	0.70328		$|
1322871	0	object/static/item/item_ammo_rocket.iff	0	1108.98	75.3795	1584.26	1	0	0	0		$|
1322872	0	object/static/item/item_ammo_rocket.iff	0	1108.82	75.3795	1584.25	0.983844	0	-0.17903	0		$|
1340461	0	object/static/installation/mockup_mining_liquid_moisture_harvester.iff	0	761.296	38.678	2024.09	0.985501	0.144232	-0.00866435	-0.0889354		$|
1491860	0	object/tangible/furniture/tatooine/frn_tato_chair_cafe_style_01.iff	0	1107.57	75	1585.06	0.902611	0	-0.430458	0		$|
1491861	0	object/tangible/furniture/tatooine/frn_tato_chair_cafe_style_02.iff	0	1104.9	75	1586.03	0.407033	0	0.913413	0		$|
1491864	0	object/tangible/furniture/tatooine/frn_tato_table_small_style_01.iff	0	1106.07	75	1585.57	1	0	0	0		$|
1491865	0	object/tangible/furniture/cheap/chest_s01.iff	0	1103.46	75	1584.65	0.678557	0	0.734548	0		$|
1491866	0	object/tangible/furniture/all/frn_all_bed_sm_s1.iff	0	1106.95	75	1581.33	-0.514819	0	0.857299	0		$|
1491868	0	object/tangible/furniture/all/frn_all_bed_sm_s1.iff	0	1093.26	75	1558.17	0.980067	0	0.198669	0		$|
1491869	0	object/tangible/furniture/tatooine/frn_tato_tbl_cafe_table_style_01.iff	0	1090.11	75	1555.97	1	0	0	0		$|
1491870	0	object/tangible/furniture/tatooine/frn_tato_chair_cafe_style_02.iff	0	1091.41	75	1555.23	1	0	0	0		$|
1491871	0	object/tangible/furniture/tatooine/frn_tato_chair_cafe_style_02.iff	0	1088.67	75	1555.66	0.825335	0	0.564643	0		$|
1491872	0	object/tangible/furniture/tatooine/frn_tato_table_small_style_01.iff	0	1100.36	75	1590.29	1	0	0	0		$|
1491873	0	object/tangible/furniture/tatooine/frn_tato_chair_cafe_style_01.iff	0	1100.96	75	1591.65	-0.286715	0	0.958016	0		$|
1491874	0	object/tangible/furniture/tatooine/frn_tato_chair_cafe_style_02.iff	0	1100.93	75	1588.89	0.975897	0	-0.21823	0		$|
1491875	0	object/static/structure/tatooine/debris_tatt_drum_dented_1.iff	0	1096.09	75	1591.55	1	0	0	0		$|
1491876	0	object/static/structure/tatooine/debris_tatt_drum_dented_1.iff	0	1094.39	75	1591.62	1	0	0	0		$|
1491877	0	object/static/structure/tatooine/debris_tatt_drum_storage_1.iff	0	1095.57	75	1588.59	1	0	0	0		$|
1491878	0	object/static/structure/tatooine/debris_tatt_crate_metal_1.iff	0	1093.76	75	1590.07	1	0	0	0		$|
1491879	0	object/static/structure/tatooine/debris_tatt_drum_dented_1.iff	0	1093.5	75	1588.62	1	0	0	0		$|
1491880	0	object/static/structure/tatooine/debris_tatt_drum_storage_2.iff	0	1097.22	75	1588.48	1	0	0	0		$|
1491881	0	object/static/structure/tatooine/debris_tatt_drum_storage_2.iff	0	1099.13	75	1587.45	1	0	0	0		$|
1495845	0	object/building/tatooine/cloning_facility_tatooine_small.iff	0	1070.49	75	1564.2	0.999388	0	-0.0349929	0		$|
1495846	1495845	object/cell/cell.iff	1	0	0	0	1	0	0	0		$|
1495847	1495845	object/cell/cell.iff	2	0	0	0	1	0	0	0		$|
1495848	1495845	object/cell/cell.iff	3	0	0	0	1	0	0	0		$|
1495849	1495845	object/cell/cell.iff	4	0	0	0	1	0	0	0		$|
1495850	1495845	object/cell/cell.iff	5	0	0	0	1	0	0	0		$|
1495851	1495845	object/cell/cell.iff	6	0	0	0	1	0	0	0		$|
1495852	1495845	object/cell/cell.iff	7	0	0	0	1	0	0	0		$|
1495853	1495845	object/cell/cell.iff	8	0	0	0	1	0	0	0		$|
1495854	1495845	object/cell/cell.iff	9	0	0	0	1	0	0	0		$|
1495855	1495845	object/cell/cell.iff	10	0	0	0	1	0	0	0		$|
1499417	0	object/building/tatooine/housing_tatt_style01_med.iff	0	1023.43	75	1568.02	1	0	0	0		$|
1499418	1499417	object/cell/cell.iff	1	0	0	0	1	0	0	0		$|
1499419	1499417	object/cell/cell.iff	2	0	0	0	1	0	0	0		$|
1499420	1499417	object/cell/cell.iff	3	0	0	0	1	0	0	0		$|
1499421	1499417	object/cell/cell.iff	4	0	0	0	1	0	0	0		$|
1499422	1499417	object/cell/cell.iff	5	0	0	0	1	0	0	0		$|
1499423	1499417	object/cell/cell.iff	6	0	0	0	1	0	0	0		$|
1499424	1499417	object/cell/cell.iff	7	0	0	0	1	0	0	0		$|
1499425	1499417	object/cell/cell.iff	8	0	0	0	1	0	0	0		$|
1499426	1499417	object/cell/cell.iff	9	0	0	0	1	0	0	0		$|
1499427	1499417	object/cell/cell.iff	10	0	0	0	1	0	0	0		$|
1499428	1499417	object/cell/cell.iff	11	0	0	0	1	0	0	0		$|
1499429	1499417	object/cell/cell.iff	12	0	0	0	1	0	0	0		$|
1563387	0	object/static/structure/general/skeleton_human_headandbody.iff	0	778.464	38.7424	2042.44	-0.458046	0	0.888928	0		$|
1563392	0	object/static/structure/general/skeleton_bith_headandbody.iff	0	785.807	47.1981	2014.41	0.975184	0.209404	0.0150913	0.0702792		$|
1563394	0	object/static/structure/general/skeleton_human_headandbody.iff	0	748.178	38.3626	2032.98	1	0	0	0		$|
1563395	0	object/static/structure/general/skeleton_human_headandbody.iff	0	762.101	49.3292	2004.06	-0.297541	-0.119525	0.923843	0.20904		$|
1563398	0	object/static/particle/pt_smoke_small.iff	0	761.352	40.3369	2024.32	1	0	0	0		$|
1563456	0	object/static/item/wp_pistol_dl44_combined.iff	0	785.42	47.4859	2013.68	-0.457094	0.433471	0.755885	-0.178343		$|
1563457	0	object/static/item/wp_mle_baton_gaderiffi.iff	0	785.8	47.366	2014.86	0.974273	0.207169	0.0447598	0.076619		$|
1563458	0	object/static/item/wp_mle_baton_gaderiffi.iff	0	778.104	39.0242	2042.47	-0.296277	0.955089	0.00477548	0.0014814		$|
1563459	0	object/static/item/wp_mle_lance_vibrolance.iff	0	747.938	38.8957	2033.67	0.957746	0.239458	0.0386436	0.154561		$|
1563461	0	object/static/item/wp_mle_baton_gaderiffi.iff	0	761.905	49.7998	2003.9	-0.115954	-0.0737299	0.972934	0.18579		$|
1643794	0	object/static/worldbuilding/sign/thm_sign_cantina.iff	0	919.583	75	1607.51	1	0	0	0		$|
1643797	0	object/static/worldbuilding/sign/thm_sign_cantina.iff	0	1024.69	75	1623.94	0.94441	0	0.328769	0		$|
2426363	0	object/static/structure/general/streetlamp_large_style_02.iff	0	936.999	75	1643.36	0.893822	0	-0.448423	0		$|
2426365	0	object/static/structure/general/streetlamp_large_style_02.iff	0	1064.39	75	1620.27	0.993395	0	0.114747	0		$|
2426366	0	object/static/structure/general/streetlamp_large_style_02.iff	0	1050.15	75	1603.22	1	0	0	0		$|
3005785	0	object/static/structure/general/streetlamp_large_style_02.iff	0	844.081	75	1680.76	0.222716	0	0.974883	0		$|
3005830	0	object/tangible/terminal/terminal_bank.iff	0	1032.69	75	1647.31	-0.674876	0	0.737931	0		$|
3005832	0	object/tangible/terminal/terminal_bank.iff	0	1032.38	75	1650.64	-0.671178	0	0.741296	0		$|
3315378	0	object/tangible/terminal/terminal_mission.iff	0	938.981	75	1725.86	0.710914	0	-0.703279	0		$|
3315380	0	object/tangible/terminal/terminal_mission_bounty.iff	0	939.108	75	1732.78	0.710914	0	-0.703279	0		$|
3665799	0	object/tangible/sign/all_sign_city_s01.iff	0	922.295	75	1736.67	1	0	0	0		$|
3665800	0	object/tangible/sign/all_sign_city_s01.iff	0	836.364	75	1678.77	1	0	0	0		$|
3665801	0	object/tangible/sign/all_sign_city_s01.iff	0	851.985	75	1601.27	0.873865	0	-0.486168	0		$|
3665802	0	object/tangible/sign/all_sign_city_s01.iff	0	1110.61	74.6562	1573.78	0.871063	-0.140572	-0.464615	-0.0749792		$|
3735352	0	object/tangible/crafting/station/public_structure_station.iff	0	899.49	75	1684.47	-0.693111	0	0.720831	0		$|
3735353	0	object/tangible/crafting/station/public_clothing_station.iff	0	880.552	75	1673.66	0.682221	0	0.731146	0		$|
3735354	0	object/tangible/crafting/station/public_food_station.iff	0	882.208	75	1631.82	0.839192	0	-0.543835	0		$|
3735355	0	object/static/structure/tatooine/jawa/tent_jawa_01_small.iff	0	874.964	75	1623.79	-0.0457803	0	0.998951	0		$|
3735358	0	object/tangible/crafting/station/public_weapon_station.iff	0	868.167	75	1646.84	-0.444662	0	0.895699	0		$|
3735359	0	object/static/structure/tatooine/debris_tatt_drum_storage_2.iff	0	866.188	75	1650.83	0.916485	0	0.40007	0		$|
3735360	0	object/static/structure/tatooine/debris_tatt_crate_metal_1.iff	0	865.785	75	1651.72	0.798142	0	0.602469	0		$|
3735361	0	object/static/structure/tatooine/debris_tatt_drum_storage_1.iff	0	869.815	75	1646.03	0.992198	0	0.124675	0		$|
3735362	0	object/tangible/furniture/tatooine/frn_tato_chair_cafe_style_02.iff	0	904.275	75	1641.61	0.608526	0	0.793535	0		$|
3735363	0	object/tangible/furniture/tatooine/frn_tato_cafe_parasol.iff	0	906.243	75.0074	1639.37	0.925085	-0.0324782	0.372439	-0.0667266		$|
3735364	0	object/tangible/furniture/tatooine/frn_tato_tbl_cafe_table_style_01.iff	0	905.63	75	1640.86	0.904751	0	-0.42594	0		$|
3735365	0	object/tangible/furniture/tatooine/frn_tato_chair_cafe_style_01.iff	0	904.74	75	1639.67	0.967663	0	0.252246	0		$|
3735366	0	object/tangible/furniture/tatooine/frn_tato_chair_cafe_style_02.iff	0	907.257	75	1640.2	0.761612	0	-0.648033	0		$|
3735367	0	object/tangible/furniture/tatooine/frn_tato_chair_cafe_style_01.iff	0	906.639	75	1641.91	-0.329521	0	0.944149	0		$|
3735368	0	object/tangible/furniture/tatooine/frn_tato_chair_cafe_style_02.iff	0	912.66	75	1649.93	0.655014	0	0.755617	0		$|
3735369	0	object/tangible/furniture/tatooine/frn_tato_cafe_parasol.iff	0	914.887	75	1647.95	0.945753	-0.036421	0.316297	-0.064659		$|
3735370	0	object/tangible/furniture/tatooine/frn_tato_tbl_cafe_table_style_01.iff	0	914.095	75	1649.35	0.877582	0	-0.479427	0		$|
3735371	0	object/tangible/furniture/tatooine/frn_tato_chair_cafe_style_01.iff	0	913.354	75	1648.06	0.981048	0	0.193767	0		$|
3735372	0	object/tangible/furniture/tatooine/frn_tato_chair_cafe_style_02.iff	0	915.79	75	1648.89	0.721383	0	-0.692536	0		$|
3735373	0	object/tangible/furniture/tatooine/frn_tato_chair_cafe_style_01.iff	0	914.971	75	1650.51	-0.272313	0	0.962209	0		$|
3765419	0	object/static/structure/tatooine/pillar_ruined_large_style_01.iff	0	1038.17	74.2727	1546.56	-0.238476	0	0.971148	0		$|
3815401	0	object/tangible/furniture/tatooine/frn_tato_chair_cafe_style_02.iff	0	903.283	75	1624.26	0.870293	0	0.492535	0		$|
3815402	0	object/tangible/furniture/tatooine/frn_tato_tbl_cafe_table_style_01.iff	0	904.108	75	1623.04	1	0	0	0		$|
3815407	0	object/static/item/item_dye_kit.iff	0	904.546	75.7273	1623.17	-0.544503	0	0.838759	0		$|
3815408	0	object/static/item/item_document.iff	0	904.498	75.737	1622.72	1	0	0	0		$|
3815409	0	object/static/item/item_document.iff	0	904.484	75.8	1622.74	0.888492	0.116159	0.440202	-0.0575508		$|
3815412	0	object/static/item/item_con_bag_sm.iff	0	903.211	75	1624.75	1	0	0	0		$|
3815414	0	object/static/item/item_bottle_fat.iff	0	903.744	75.74	1623.1	1	0	0	0		$|
3815415	0	object/static/item/item_bottle_fat.iff	0	904.005	75.74	1623.08	1	0	0	0		$|
3815416	0	object/static/item/item_bottle_fat.iff	0	904.147	75.8538	1623.33	0.707107	-7.73E-09	7.73E-09	0.707106		$|
3945394	0	object/tangible/terminal/terminal_bazaar.iff	0	966.763	75	1706.85	-0.00499746	0	0.999987	0		$|
3945395	0	object/tangible/terminal/terminal_bazaar.iff	0	969.762	75	1706.82	-0.00499746	0	0.999987	0		$|
4335371	0	object/soundobject/soundobject_city_crowd_sentients.iff	0	915.664	75	1639.37	1	0	0	0		$|
4335382	0	object/static/structure/general/streetlamp_small_red_style_01.iff	0	1106.81	75	1583.62	0.961055	0	-0.276356	0		$|
4925364	0	object/static/structure/general/streetlamp_large_blue_style_02.iff	0	1033.95	75	1579.75	0.999687	0	0.0249974	0		$|
4925369	0	object/static/structure/general/streetlamp_medium_style_02.iff	0	1032.85	75	1648.94	-0.678557	0	0.734548	0		$|
4925454	0	object/static/structure/general/trash_pile_s01.iff	0	925.031	75	1678.02	1	0	0	0		$|
4925455	0	object/static/structure/general/droid_r3_powerdown.iff	0	923.855	75.0949	1678.52	0.0608936	0.0288788	0.787138	-0.613084		$|
5225996	0	object/tangible/terminal/terminal_mission_artisan.iff	0	941.373	75	1717.72	-0.696707	0	0.717356	0		$|
5226000	0	object/tangible/terminal/terminal_mission_scout.iff	0	941.123	75	1722.1	-0.696707	0	0.717356	0		$|
5226002	0	object/tangible/terminal/terminal_mission_entertainer.iff	0	940.869	75	1714.77	-0.700285	0	0.713863	0		$|
5226014	0	object/static/item/item_con_bag_ingredients_lg_s1.iff	0	892.882	75	1636.95	0.877583	0	0.479425	0		$|
5226015	0	object/static/item/item_cheap_cabinet_01.iff	0	889.479	75	1639.28	0.531861	0	0.846832	0		$|
5226016	0	object/static/item/item_con_bag_ingredients_lg_s1.iff	0	893.088	75	1637.42	0.999888	0	-0.0149984	0		$|
5226017	0	object/static/item/item_carbine_laser.iff	0	889.499	76.8184	1639.27	-0.700285	0	0	0.713864		$|
5226018	0	object/static/item/item_crate_spice.iff	0	892.808	75	1638.25	0.990216	0	-0.139543	0		$|
5226019	0	object/static/item/item_crate_spice.iff	0	894.339	75	1637.95	0.974794	0	0.223106	0		$|
5226020	0	object/tangible/terminal/terminal_mission_artisan.iff	0	1007.21	75	1598.43	0.534743	0	0.845015	0		$|
5226024	0	object/tangible/terminal/terminal_mission_scout.iff	0	1013.72	75	1604.34	0.755093	0	0.655617	0		$|
5226026	0	object/tangible/terminal/terminal_mission_entertainer.iff	0	1009.26	75	1599.34	0.27078	0	0.962641	0		$|
5226029	0	object/static/structure/general/streetlamp_medium_style_01.iff	0	1093.29	75	1607.96	-0.703846	0	0.710354	0		$|
5226030	0	object/static/item/item_container_organic_hide.iff	0	1095	75	1603.94	0.992198	0	-0.124675	0		$|
5226031	0	object/static/item/item_container_organic_hide.iff	0	1094.62	75	1603.21	0.998201	0	0.059964	0		$|
5226032	0	object/static/item/item_container_inorganic_chemicals.iff	0	1093.66	75	1605.4	0.497571	0	0.867423	0		$|
5226033	0	object/static/item/item_container_energy_radioactive.iff	0	1093.48	75	1603.72	0.980067	0	-0.198669	0		$|
5285865	0	object/static/structure/tatooine/debris_tatt_drum_storage_1.iff	0	1012.57	75	1608.22	0.968912	0	-0.247404	0		$|
5285866	0	object/static/structure/tatooine/debris_tatt_drum_storage_1.iff	0	1012.96	75	1607.52	0.972514	0	-0.232843	0		$|
5285867	0	object/static/structure/tatooine/debris_tatt_drum_storage_1.iff	0	1013.35	75	1606.81	0.961055	0	-0.276356	0		$|
5285868	0	object/static/structure/general/trash_pile_s01.iff	0	1007.63	75	1603.58	1	0	0	0		$|
5285869	0	object/static/structure/general/trash_pile_s01.iff	0	1007.77	75	1604.79	-0.497571	0	0.867423	0		$|
5285870	0	object/static/item/item_crate_spice.iff	0	1011.22	75	1603.99	0.99955	0	0.0299955	0		$|
5285871	0	object/static/item/item_diagnostic_screen.iff	0	1012.47	75.8855	1608.06	-0.348337	0	0.937369	0		$|
5285873	0	object/static/item/item_jar_spice_blue.iff	0	1013.1	75.8855	1606.8	1	0	0	0		$|
5285874	0	object/static/item/item_katana.iff	0	1011.01	75.6009	1604.31	0.146346	0.986911	0.0476795	-0.0481195		$|
5285875	0	object/static/item/item_sclpt_stuffed_bantha.iff	0	1008.58	75.0316	1603.98	0.00917597	-0.593143	0.805025	0.00568903		$|
5285876	0	object/tangible/furniture/all/frn_all_toolchest_med_s01.iff	0	1007.13	75	1606.36	0.501902	0	0.864924	0		$|
5285877	0	object/static/item/item_nemodian_bird_cage.iff	0	1008.9	75.1265	1603.75	0.710914	-0.703279	0	0		$|
5285878	0	object/static/structure/general/droid_r2_powerdown.iff	0	1006.48	75	1604.8	0.728272	0	0.685288	0		$|
5285880	0	object/tangible/furniture/tatooine/frn_tato_chair_cafe_style_02.iff	0	1007.94	75	1607.54	0.447711	0	0.894178	0		$|
5285881	0	object/static/item/item_tool_instrument_calibrator.iff	0	1007.3	76.012	1606.42	0.685868	0	0.727726	0		$|
5285888	0	object/static/structure/general/streetlamp_medium_style_01.iff	0	1010.1	74.7154	1603.62	0.857709	0	0.514136	0		$|
5285889	0	object/static/item/item_pistol.iff	0	1012.9	75.9171	1607.16	0.617941	0.367891	0.371292	0.587322		$|
5495566	0	object/tangible/terminal/terminal_mission_rebel.iff	0	847.79	75	1661.79	0.703845	0	0.710353	0		$|
5495568	0	object/static/structure/tatooine/debris_tatt_drum_dented_1.iff	0	849.922	75	1664.39	-0.130424	0	0.991458	0		$|
5495569	0	object/static/item/item_carbine_dh17.iff	0	849.485	76.1701	1664.23	-0.63057	0.278812	-0.333855	0.642796		$|
5525371	0	object/soundobject/soundobject_city_crowd_sentients.iff	0	1095.65	75	1570.15	1	0	0	0		$|
6575447	0	object/tangible/furniture/tatooine/frn_tato_cafe_parasol.iff	0	1009.8	85.4738	1662.02	0.989506	0	-0.144492	0		$|
6575450	0	object/tangible/furniture/tatooine/frn_tato_tbl_cafe_table_style_01.iff	0	1009.82	85.4738	1662.04	0.989506	0	-0.144492	0		$|
6575451	0	object/tangible/furniture/tatooine/frn_tato_chair_cafe_style_02.iff	0	1011.16	85.4738	1661.85	0.777573	0	-0.628793	0		$|
6575452	0	object/tangible/furniture/tatooine/frn_tato_chair_cafe_style_02.iff	0	1008.95	85.4738	1663.12	0.313811	0	0.949485	0		$|
6575453	0	object/tangible/furniture/tatooine/frn_tato_chair_cafe_style_02.iff	0	1008.45	85.4738	1662.02	0.681056	0	0.732231	0		$|
6575454	0	object/tangible/furniture/tatooine/frn_tato_chair_cafe_style_02.iff	0	1010.3	85.4738	1663.43	-0.25785	0	0.966185	0		$|
6575455	0	object/tangible/furniture/tatooine/frn_tato_table_small_style_02.iff	0	1009.75	85.4738	1665.39	-0.305817	0	0.95209	0		$|
6575456	0	object/static/item/item_bottle_fat.iff	0	1009.74	86.2328	1665.37	0.989506	0	-0.144492	0		$|
6575457	0	object/static/item/item_jar_spice_white.iff	0	1009.96	85.79	1665.23	0.989506	0	-0.144492	0		$|
6575460	0	object/static/item/item_glass_empty.iff	0	1009.6	85.9798	1665.12	0.989506	0	-0.144492	0		$|
6575461	0	object/static/item/item_glass_empty.iff	0	1009.63	85.9798	1665.28	0.989506	0	-0.144492	0		$|
6575462	0	object/static/item/item_glass_empty.iff	0	1009.5	85.9798	1665.24	0.989506	0	-0.144492	0		$|
6575463	0	object/static/item/item_glass_empty.iff	0	1009.72	85.9798	1665.16	0.989506	0	-0.144492	0		$|
6711091	0	object/static/structure/tatooine/wall_ruined_tatooine_large_style_01.iff	0	1054.07	75	1649.94	0.999888	0	-0.0149994	0		$|
6711093	0	object/static/structure/tatooine/wall_ruined_tatooine_large_style_02.iff	0	1052.53	75	1664.63	0.747442	0	0.664327	0		$|
6711095	0	object/static/structure/tatooine/wall_archway_tatooine_wide_style_01.iff	0	1047.44	75	1547.02	0.707389	0	0.706825	0		$|
6711098	0	object/static/structure/tatooine/wall_archway_tatooine_wide_style_01.iff	0	1069.83	75	1550.33	0.774419	0	0.632673	0		$|
6711099	0	object/static/structure/tatooine/wall_archway_tatooine_large_style_01.iff	0	1058.85	75	1548.09	-0.60582	0	0.795602	0		$|
6711122	0	object/building/tatooine/shuttleport_tatooine.iff	0	1054.89	74.983	1598.26	-0.682221	0	0.731146	0	structure.municipal.starport:planet_map.map_loc	travel.cost|0|200|travel.ground_time|0|300|travel.is_shuttleport|0|1|travel.point_name|4|Wayfar Shuttleport|travel.shuttle_available|0|1|travel.version|0|3|$|
7875536	0	object/tangible/camp/camp_spit.iff	0	1092.37	75	1563.9	0.714421	0	-0.699716	0		$|
7875537	0	object/tangible/camp/camp_spit.iff	0	1092.33	75	1563.57	0.808028	0	-0.589145	0		$|
7875539	0	object/static/item/item_crate_spice.iff	0	1096.23	75	1587	0.50622	0	0.862404	0		$|
7875540	0	object/static/item/item_crate_spice.iff	0	1096.88	75	1586.24	0.50622	0	0.862404	0		$|
7875541	0	object/static/item/item_crate_spice.iff	0	1097.76	75	1585.75	0.399339	0	0.916803	0		$|
7875542	0	object/static/item/item_shisha.iff	0	1100.35	75.6009	1590.3	1	0	0	0		$|
7875548	0	object/static/structure/dantooine/dant_rack_spears.iff	0	874.916	75	1622.19	0.982936	0	-0.183947	0		$|
7875549	0	object/static/structure/dantooine/dant_cooking_stone.iff	0	873.417	74.6833	1622.78	0.956802	0	0.29074	0		$|
8095659	0	object/tangible/furniture/all/frn_all_rug_rectangle_large_style_04.iff	0	1088.75	74.9684	1559.04	0.946042	0	0.324043	0		$|
8095663	0	object/tangible/furniture/elegant/coffee_table_s01.iff	0	1088.03	75	1559.6	0.89927	0	-0.437394	0		$|
8095665	0	object/tangible/furniture/all/frn_all_lamp_candlestick_free_s02.iff	0	1087.16	75	1558.96	1	0	0	0		$|
8095666	0	object/tangible/furniture/all/frn_all_lamp_candlestick_free_s02.iff	0	1088.46	75	1560.59	1	0	0	0		$|
8095670	0	object/tangible/furniture/all/frn_all_decorative_sm_s3.iff	0	1087.95	75.3795	1559.66	0.9001	0	-0.435683	0		$|
8095673	0	object/tangible/furniture/all/frn_all_lamp_candlestick_tbl_s02.iff	0	1087.66	75.4111	1559.42	1	0	0	0		$|
8095674	0	object/tangible/furniture/all/frn_all_lamp_candlestick_tbl_s02.iff	0	1088.11	75.4111	1559.99	0.735088	0	0.677971	0		$|
8095684	0	object/static/structure/general/skeleton_human_head.iff	0	1087.15	75.6009	1558.97	0.435682	0	0.9001	0		$|
8095685	0	object/static/structure/general/skeleton_human_head.iff	0	1088.44	75.6009	1560.61	0.435682	0	0.9001	0		$|
8885499	0	object/static/structure/tatooine/tato_imprv_bannerpole_s01.iff	0	923.342	80.8467	1734.17	0.707107	0	-0.707106	0		$|
8885500	0	object/static/structure/tatooine/tato_imprv_bannerpole_s01.iff	0	854.635	80.3972	1600.73	0.958244	0	0.285952	0		$|
8885501	0	object/static/structure/tatooine/tato_imprv_bannerpole_s01.iff	0	1079.05	80.8857	1577.79	0.735088	0	0.677972	0		$|
8885502	0	object/static/structure/tatooine/tato_imprv_bannerpole_s01.iff	0	1050.82	80.7452	1691.08	0.71442	0	0.699717	0		$|
8885769	0	object/static/vehicle/e3/landspeeder.iff	0	938.367	75	1685.48	0.786917	0	-0.617059	0		$|
8885774	0	object/soundobject/soundobject_hovering.iff	0	937.481	75	1685.77	1	0	0	0		$|
9745413	0	object/static/item/wp_mle_baton_gaderiffi.iff	0	872.75	75.4743	1623.59	-0.0107309	-0.00118519	0.993898	-0.109772		$|
9745414	0	object/static/creature/tatooine_bantha_saddle.iff	0	876.606	75	1628.91	-0.294759	0	0.955572	0		$|
9745419	0	object/static/flora/flora_flower_tato_funnel.iff	0	874.467	75	1626.99	-0.563613	0.535686	0.433189	0.455772		$|
9745420	0	object/static/flora/flora_flower_tato_funnel_med.iff	0	874.661	75	1626.53	0.764842	0.644218	0	0		$|
9745421	0	object/static/flora/flora_flower_tato_funnel_med.iff	0	875.142	75	1626.56	0.720685	-0.0114198	-0.0608312	-0.690495		$|
9745424	0	object/static/flora/flora_plant_tato_pika.iff	0	875.558	75.0316	1627.32	-0.209239	0	0.977865	0		$|
9745425	0	object/static/flora/flora_plant_tato_pika_tri.iff	0	874.573	75	1626.66	1	0	0	0		$|
9745427	0	object/static/item/item_sclpt_stuffed_bantha.iff	0	875.807	75.3162	1625.74	0.796084	0	-0.605186	0		$|
9835352	0	object/static/installation/mockup_power_generator_photo_bio_style_1.iff	0	927.842	75	1659.09	0.0299955	0	0.99955	0		$|
189707	0	object/tangible/space/content_infrastructure/ground_npc_spawner.iff	0	275	90	1998	0.43051	0	-0.90258	0		$|
4006309	0	object/tangible/spawning/spawn_egg.iff	0	977.7	75	1575.76	1	0	0	0	quest.hero_of_tatooine.intellect_spawner	$|
-1	0	object/tangible/spawning/static_npc/bestine_artist06.iff	0	904.6	75	1624.5	1	0	0	0		$|
-2	0	object/tangible/spawning/static_npc/tato_zicx_jowir.iff	0	894.7	75	1644.6	1	0	0	0		$|
-3	0	object/tangible/spawning/static_npc/tato_zicx_palu.iff	0	1096	75	1610	1	0	0	0		$|
-4	0	object/tangible/npc/tatooine_spawn/rakir_banai.iff	0	1099	75	1591	1	0	0	0		$|
