objid	container	server_template_crc	cell_index	px	py	pz	qw	qx	qy	qz	scripts	objvars
i	i	h	i	f	f	f	f	f	f	f	s	p
1094832	0	object/static/structure/tatooine/jawa/tent_jawa_01_small.iff	0	1279.14	5	1975.28	0.731689	0	0.681638	0		$|
1094833	0	object/tangible/furniture/tatooine/frn_tato_chair_cafe_style_02.iff	0	1280.87	5	1976.12	-0.431177	0	0.902268	0		$|
1094834	0	object/tangible/furniture/tatooine/frn_tato_table_small_style_01.iff	0	1279.86	5	1976.75	1	0	0	0		$|
1256003	0	object/building/tatooine/guild_commerce_tatooine_style_01.iff	0	1255.02	5	1986.38	-0.633289	0	0.773915	0		$|
1256004	1256003	object/cell/cell.iff	1	0	0	0	1	0	0	0		$|
1256005	1256003	object/cell/cell.iff	2	0	0	0	1	0	0	0		$|
1256006	1256003	object/cell/cell.iff	3	0	0	0	1	0	0	0		$|
1256007	1256003	object/cell/cell.iff	4	0	0	0	1	0	0	0		$|
1256008	1256003	object/cell/cell.iff	5	0	0	0	1	0	0	0		$|
1256009	1256003	object/cell/cell.iff	6	0	0	0	1	0	0	0		$|
1256010	1256003	object/cell/cell.iff	7	0	0	0	1	0	0	0	systems.crafting.station_cell	$|
1256011	1256003	object/cell/cell.iff	8	0	0	0	1	0	0	0		$|
1256012	1256003	object/cell/cell.iff	9	0	0	0	1	0	0	0	systems.crafting.station_cell	$|
1256245	0	object/building/tatooine/parking_garage_tatooine_style_1.iff	0	1239.54	4.99894	1923.5	0.992198	0	-0.124674	0		$|
1261178	0	object/static/structure/tatooine/wall_archway_tatooine_wide_style_01.iff	0	1335.26	5	1965.75	0.906708	0	0.42176	0		$|
1261452	0	object/building/tatooine/housing_tatt_style01_large.iff	0	1086.79	5	1960.51	0.795602	0	0.60582	0		$|
1261453	1261452	object/cell/cell.iff	1	0	0	0	1	0	0	0		$|
1261454	1261452	object/cell/cell.iff	2	0	0	0	1	0	0	0		$|
1261455	1261452	object/cell/cell.iff	3	0	0	0	1	0	0	0		$|
1261456	1261452	object/cell/cell.iff	4	0	0	0	1	0	0	0		$|
1261457	1261452	object/cell/cell.iff	5	0	0	0	1	0	0	0		$|
1261458	1261452	object/cell/cell.iff	6	0	0	0	1	0	0	0		$|
1261459	1261452	object/cell/cell.iff	7	0	0	0	1	0	0	0		$|
1261460	1261452	object/cell/cell.iff	8	0	0	0	1	0	0	0		$|
1261461	1261452	object/cell/cell.iff	9	0	0	0	1	0	0	0		$|
1261462	1261452	object/cell/cell.iff	10	0	0	0	1	0	0	0		$|
1261463	1261452	object/cell/cell.iff	11	0	0	0	1	0	0	0		$|
1261464	1261452	object/cell/cell.iff	12	0	0	0	1	0	0	0		$|
1261465	1261452	object/cell/cell.iff	13	0	0	0	1	0	0	0		$|
1261466	1261452	object/cell/cell.iff	14	0	0	0	1	0	0	0		$|
1261467	1261452	object/cell/cell.iff	15	0	0	0	1	0	0	0		$|
1261468	1261452	object/cell/cell.iff	16	0	0	0	1	0	0	0		$|
1261469	1261452	object/cell/cell.iff	17	0	0	0	1	0	0	0		$|
1261470	1261452	object/cell/cell.iff	18	0	0	0	1	0	0	0		$|
1261471	1261452	object/cell/cell.iff	19	0	0	0	1	0	0	0		$|
1261472	1261452	object/cell/cell.iff	20	0	0	0	1	0	0	0		$|
1261473	1261452	object/cell/cell.iff	21	0	0	0	1	0	0	0		$|
1261519	0	object/static/structure/tatooine/wall_gate_tatooine_wide_style_01.iff	0	1133.06	5	1973.27	0.990955	0	-0.134193	0		$|
1261526	0	object/static/structure/tatooine/wall_pristine_tatooine_tall_style_01.iff	0	1125.73	5.0005	2005.48	0.134195	0	0.990955	0		$|
1261527	0	object/static/structure/tatooine/wall_pristine_tatooine_tall_style_01.iff	0	1121.34	5.00272	2021.39	0.134195	0	0.990955	0		$|
1261532	0	object/static/structure/tatooine/wall_pristine_tatooine_large_style_01.iff	0	1145.8	5	1962.78	0.795602	0	0.60582	0		$|
1261533	0	object/static/structure/tatooine/wall_pristine_tatooine_large_style_01.iff	0	1138.76	5	1988.33	0.795602	0	0.60582	0		$|
1261538	0	object/static/structure/tatooine/wall_pristine_tatooine_large_style_01.iff	0	1133.4	5	1984.26	0.964884	0	0.262677	0		$|
1261540	0	object/static/structure/tatooine/wall_pristine_tatooine_tall_style_01.iff	0	1111.83	5.00291	2032.86	0.524648	0	0.851319	0		$|
1261543	0	object/static/structure/tatooine/wall_pristine_tatooine_tall_style_01.iff	0	1134.54	5	1902.1	-0.605819	0	0.795602	0		$|
1261544	0	object/static/structure/tatooine/wall_pristine_tatooine_tall_style_01.iff	0	1104.16	4.99993	1899.43	0.864168	0	-0.503203	0		$|
1261545	0	object/static/structure/tatooine/wall_pristine_tatooine_tall_style_01.iff	0	1118.63	5.00126	1897.71	-0.605819	0	0.795602	0		$|
1261549	0	object/static/structure/tatooine/wall_pristine_tatooine_tall_style_01.iff	0	1070.51	5.00046	2021.37	0.966878	0	0.255241	0		$|
1261551	0	object/static/structure/tatooine/wall_pristine_tatooine_tall_style_01.iff	0	1058.48	5	2012.34	0.795602	0	0.60582	0		$|
1261552	0	object/static/structure/tatooine/wall_pristine_tatooine_tall_style_01.iff	0	1046.93	5	2003.45	0.966878	0	0.255241	0		$|
1261553	0	object/static/structure/tatooine/wall_pristine_tatooine_tall_style_01.iff	0	1044.74	5	1988.84	0.134195	0	0.990955	0		$|
1261557	0	object/static/structure/tatooine/wall_pristine_tatooine_tall_style_01.iff	0	1053.51	5	1957.03	0.134195	0	0.990955	0		$|
1261558	0	object/building/tatooine/parking_garage_tatooine_style_1.iff	0	1073.43	5.00009	1909.22	-0.60582	0	0.795602	0		$|
1261559	0	object/static/structure/tatooine/wall_pristine_tatooine_tall_style_01.iff	0	1061.97	5	1943.29	0.922108	0	-0.386932	0		$|
1261566	0	object/static/structure/tatooine/wall_gate_tatooine_style_03.iff	0	1068.94	5	1933.1	0.153991	0	0.988072	0		$|
1261567	0	object/building/tatooine/housing_tatt_style01_med.iff	0	1106.39	5	2005.64	0.7956	0	0.605822	0		$|
1261568	1261567	object/cell/cell.iff	1	0	0	0	1	0	0	0		$|
1261569	1261567	object/cell/cell.iff	2	0	0	0	1	0	0	0		$|
1261570	1261567	object/cell/cell.iff	3	0	0	0	1	0	0	0		$|
1261571	1261567	object/cell/cell.iff	4	0	0	0	1	0	0	0		$|
1261572	1261567	object/cell/cell.iff	5	0	0	0	1	0	0	0		$|
1261573	1261567	object/cell/cell.iff	6	0	0	0	1	0	0	0		$|
1261574	1261567	object/cell/cell.iff	7	0	0	0	1	0	0	0		$|
1261575	1261567	object/cell/cell.iff	8	0	0	0	1	0	0	0		$|
1261576	1261567	object/cell/cell.iff	9	0	0	0	1	0	0	0		$|
1261577	1261567	object/cell/cell.iff	10	0	0	0	1	0	0	0		$|
1261578	1261567	object/cell/cell.iff	11	0	0	0	1	0	0	0		$|
1261579	1261567	object/cell/cell.iff	12	0	0	0	1	0	0	0		$|
1261580	0	object/building/tatooine/housing_tatt_style01_med.iff	0	1127.04	5	1932.29	-0.605821	0	0.795601	0		$|
1261581	1261580	object/cell/cell.iff	1	0	0	0	1	0	0	0		$|
1261582	1261580	object/cell/cell.iff	2	0	0	0	1	0	0	0		$|
1261583	1261580	object/cell/cell.iff	3	0	0	0	1	0	0	0		$|
1261584	1261580	object/cell/cell.iff	4	0	0	0	1	0	0	0		$|
1261585	1261580	object/cell/cell.iff	5	0	0	0	1	0	0	0		$|
1261586	1261580	object/cell/cell.iff	6	0	0	0	1	0	0	0		$|
1261587	1261580	object/cell/cell.iff	7	0	0	0	1	0	0	0		$|
1261588	1261580	object/cell/cell.iff	8	0	0	0	1	0	0	0		$|
1261589	1261580	object/cell/cell.iff	9	0	0	0	1	0	0	0		$|
1261590	1261580	object/cell/cell.iff	10	0	0	0	1	0	0	0		$|
1261591	1261580	object/cell/cell.iff	11	0	0	0	1	0	0	0		$|
1261592	1261580	object/cell/cell.iff	12	0	0	0	1	0	0	0		$|
1261596	0	object/static/structure/tatooine/pillar_pristine_large_style_01.iff	0	1131.54	5	1980.64	0.795602	0	0.60582	0		$|
1261597	0	object/static/structure/tatooine/pillar_pristine_large_style_01.iff	0	1135.94	5	1987.46	0.884303	0	0.466913	0		$|
1261598	0	object/static/structure/tatooine/wall_pristine_tatooine_large_style_01.iff	0	1138.74	5	1963.95	0.868017	0	-0.496534	0		$|
1261599	0	object/static/structure/tatooine/pillar_pristine_large_style_01.iff	0	1142.16	5	1961.45	0.659384	0	0.751806	0		$|
1261600	0	object/static/structure/tatooine/pillar_pristine_large_style_01.iff	0	1135.8	5	1965.21	0.795602	0	0.60582	0		$|
1261602	0	object/static/structure/tatooine/wall_pristine_tatooine_large_style_01.iff	0	1113.06	5	1959.22	0.795602	0	0.60582	0		$|
1261607	0	object/static/structure/tatooine/wall_pristine_tatooine_large_style_01.iff	0	1108.76	5	1974.87	0.795602	0	0.60582	0		$|
1261621	0	object/static/structure/tatooine/pillar_pristine_large_style_01.iff	0	1117.94	5	1960.31	0.795602	0	0.60582	0		$|
1261622	0	object/static/structure/tatooine/pillar_pristine_large_style_01.iff	0	1109.27	5	1957.92	0.795602	0	0.60582	0		$|
1261623	0	object/static/structure/tatooine/pillar_pristine_large_style_01.iff	0	1113.69	5	1975.74	0.795602	0	0.60582	0		$|
1261624	0	object/static/structure/tatooine/pillar_pristine_large_style_01.iff	0	1105.01	5	1973.34	0.795602	0	0.60582	0		$|
1261633	0	object/static/structure/tatooine/wall_pristine_tatooine_large_style_01.iff	0	1125.58	5	1962.85	0.795602	0	0.60582	0		$|
1261634	0	object/static/structure/tatooine/wall_pristine_tatooine_large_style_01.iff	0	1121.32	5	1978.27	0.795602	0	0.60582	0		$|
1261639	0	object/static/structure/tatooine/pillar_pristine_large_style_01.iff	0	1130.47	5	1963.94	0.795602	0	0.60582	0		$|
1261640	0	object/static/structure/tatooine/pillar_pristine_large_style_01.iff	0	1121.79	5	1961.55	0.795602	0	0.60582	0		$|
1261642	0	object/static/structure/tatooine/pillar_pristine_large_style_01.iff	0	1126.21	5	1979.36	0.795602	0	0.60582	0		$|
1261643	0	object/static/structure/tatooine/pillar_pristine_large_style_01.iff	0	1117.53	5	1976.97	0.795602	0	0.60582	0		$|
1261686	0	object/building/tatooine/filler_building_tatt_style01_10.iff	0	1297.45	5	1933.74	0.828149	0	-0.560508	0		$|
1261690	0	object/building/tatooine/filler_building_tatt_style01_07.iff	0	1261.41	5	1875.29	0.796084	0	0.605187	0		$|
1261692	0	object/building/tatooine/filler_building_tatt_style01_08.iff	0	1318.5	5	1951.99	0.927396	0	-0.374082	0		$|
1261694	0	object/building/tatooine/filler_building_tatt_style01_09.iff	0	1147.73	5.00127	1892.04	-0.62161	0	0.783327	0		$|
1261779	0	object/building/tatooine/filler_building_tatt_style01_08.iff	0	1120.02	5	2045.72	0.14865	0	0.98889	0		$|
1263424	0	object/building/tatooine/filler_building_tatt_style01_09.iff	0	1007.82	5	2038.59	-0.656218	0	0.754571	0		$|
1263426	0	object/building/tatooine/filler_building_tatt_style01_07.iff	0	1022.77	5	2016.91	0.864524	0	0.502591	0		$|
1263428	0	object/building/tatooine/filler_building_tatt_style01_06.iff	0	1228.03	5	2017.57	-0.60582	0	0.795602	0		$|
1263609	0	object/static/structure/tatooine/stone_hovel_tatooine_style_01.iff	0	1224.69	5	2029.98	-0.601835	0	0.798621	0		$|
1263610	0	object/building/tatooine/filler_building_tatt_style01_08.iff	0	1139.21	5	2009.83	0.957724	0	-0.28769	0		$|
1263612	0	object/building/tatooine/filler_building_tatt_style01_07.iff	0	1162.55	5	1944.95	0.990901	0	-0.134591	0		$|
1263614	0	object/building/tatooine/filler_building_tatt_style01_06.iff	0	1176.6	5	1891.87	-0.171536	0	0.985178	0		$|
1263616	0	object/building/tatooine/filler_building_tatt_style01_10.iff	0	1169.75	5	1914.56	0.991767	0	-0.128053	0		$|
1263618	0	object/building/tatooine/filler_building_block_64x32_style_01.iff	0	1216.99	5.03478	1868.07	0.0741333	0	0.997248	0		$|
1263634	0	object/static/structure/tatooine/wall_archway_tatooine_wide_style_01.iff	0	1358.39	5	1988.19	0.940945	0	0.33856	0		$|
1263643	0	object/static/structure/tatooine/wall_archway_tatooine_wide_style_01.iff	0	1379.94	5	2021.14	0.973578	0	0.228353	0		$|
1263648	0	object/building/tatooine/shuttleport_tatooine.iff	0	1204.05	5	1914.09	0.792806	0	0.609474	0	structure.municipal.starport:planet_map.map_loc	travel.cost|0|200|travel.ground_time|0|300|travel.is_shuttleport|0|1|travel.point_name|4|Mos Espa Shuttleport South|travel.shuttle_available|0|1|travel.version|0|3|$|
1263649	0	object/building/tatooine/filler_building_tatt_style01_09.iff	0	1307.41	5	1909.81	0.143704	0	0.989621	0		$|
1263664	0	object/static/structure/tatooine/pillar_ruined_small_style_01.iff	0	1305.67	4.99944	1838.63	0.933554	0	-0.358437	0		$|
1263666	0	object/static/structure/tatooine/pillar_pristine_small_style_01.iff	0	1281.69	5	1870.21	0.380925	0	0.924606	0		$|
1263667	0	object/static/structure/tatooine/pillar_ruined_small_style_01.iff	0	1343.63	5	1870.97	0.29628	0	0.955101	0		$|
1263669	0	object/static/structure/tatooine/pillar_pristine_small_style_01.iff	0	1286.09	5.01826	1863.34	0.296284	0	0.9551	0		$|
1263670	0	object/static/structure/tatooine/pillar_ruined_small_style_01.iff	0	1299.67	5.00012	1843.56	-0.113955	0	0.993486	0		$|
1263673	0	object/static/structure/tatooine/pillar_pristine_small_style_01.iff	0	1290.62	5.00718	1856.74	0.296284	0	0.9551	0		$|
1263675	0	object/static/structure/tatooine/pillar_ruined_small_style_01.iff	0	1295.74	5.00147	1850.54	0.678557	0	0.734548	0		$|
1263676	0	object/static/structure/tatooine/pillar_pristine_small_style_01.iff	0	1318.27	5	1892.65	0.422132	0	0.906534	0		$|
1263679	0	object/static/structure/tatooine/pillar_ruined_small_style_01.iff	0	1336.52	5	1878.61	0.955337	0	-0.29552	0		$|
1263680	0	object/static/structure/tatooine/pillar_pristine_small_style_01.iff	0	1324.4	5	1887.5	0.422132	0	0.906534	0		$|
1263682	0	object/static/structure/tatooine/pillar_pristine_small_style_01.iff	0	1330.52	5	1882.35	0.422132	0	0.906534	0		$|
1267546	0	object/static/structure/tatooine/pillar_pristine_small_style_01.iff	0	1138.66	5	2032.78	-0.445374	0	0.895345	0		$|
1267547	0	object/static/structure/tatooine/wall_pristine_tatooine_small_style_01.iff	0	1146.15	5	2020.04	-0.431894	0	0.901924	0		$|
1267551	0	object/static/structure/tatooine/pillar_pristine_small_style_01.iff	0	1147.48	5	2021.36	-0.431894	0	0.901924	0		$|
1267558	0	object/static/structure/tatooine/pillar_pristine_small_style_01.iff	0	1142.03	5	2028.09	-0.42738	0	0.904073	0		$|
1267613	0	object/static/structure/tatooine/pillar_pristine_large_style_01.iff	0	1071.03	5	1929.25	0.795606	0	0.605814	0		$|
1267633	0	object/static/structure/tatooine/wall_pristine_tatooine_large_style_01.iff	0	1121.31	8.36582	1978.27	0.73504	-0.231838	0.559705	-0.304463		$|
1267634	0	object/static/structure/tatooine/wall_pristine_tatooine_large_style_01.iff	0	1125.57	8.66824	1962.85	0.73504	0.231838	0.559705	0.304463		$|
1267635	0	object/static/structure/tatooine/wall_pristine_tatooine_large_style_01.iff	0	1113.05	8.66824	1959.22	0.73504	0.231838	0.559705	0.304463		$|
1267636	0	object/static/structure/tatooine/wall_pristine_tatooine_large_style_01.iff	0	1108.75	8.36582	1974.86	0.73504	-0.231838	0.559705	-0.304463		$|
1267637	0	object/static/structure/tatooine/wall_pristine_tatooine_large_style_01.iff	0	1109.4	11.0783	1972.48	-0.562575	0.42838	-0.42838	0.562575		$|
1267638	0	object/static/structure/tatooine/wall_pristine_tatooine_large_style_01.iff	0	1112.27	11.5277	1961.99	0.562575	0.42838	0.42838	0.562575		$|
1267639	0	object/static/structure/tatooine/wall_pristine_tatooine_large_style_01.iff	0	1124.79	11.5277	1965.62	0.562575	0.42838	0.42838	0.562575		$|
1267640	0	object/static/structure/tatooine/wall_pristine_tatooine_large_style_01.iff	0	1121.97	11.0783	1975.88	-0.562575	0.42838	-0.42838	0.562575		$|
1267648	0	object/static/structure/tatooine/pillar_pristine_large_style_01.iff	0	1124.85	11.5459	1965.4	-0.567168	0.567167	-0.422281	-0.422281		$|
1267649	0	object/static/structure/tatooine/pillar_pristine_large_style_01.iff	0	1124.57	11.5459	1966.36	-0.422281	0.422281	0.567168	0.567168		$|
1267650	0	object/static/structure/tatooine/pillar_pristine_large_style_01.iff	0	1112.22	11.6196	1961.83	-0.567168	0.567167	-0.422281	-0.422281		$|
1267651	0	object/static/structure/tatooine/pillar_pristine_large_style_01.iff	0	1111.93	11.6196	1962.79	-0.422281	0.422281	0.567168	0.567168		$|
1267652	0	object/static/structure/tatooine/pillar_pristine_large_style_01.iff	0	1109.62	11.6432	1971.61	-0.56505	0.565049	-0.425112	-0.425112		$|
1267653	0	object/static/structure/tatooine/pillar_pristine_large_style_01.iff	0	1109.34	11.6432	1972.57	-0.425112	0.425112	0.56505	0.565049		$|
1267654	0	object/static/structure/tatooine/pillar_pristine_large_style_01.iff	0	1122.24	11.6432	1975.06	-0.56505	0.565049	-0.425112	-0.425112		$|
1267655	0	object/static/structure/tatooine/pillar_pristine_large_style_01.iff	0	1121.96	11.6432	1976.02	-0.425112	0.425112	0.56505	0.565049		$|
1267658	0	object/static/installation/mockup_mining_liquid_moisture_harvester.iff	0	1091.13	5	1990.94	1	0	0	0		$|
1267659	0	object/static/installation/mockup_mining_liquid_moisture_harvester.iff	0	1084.46	5	2016.61	1	0	0	0		$|
1267660	0	object/static/installation/mockup_mining_liquid_moisture_harvester.iff	0	1066.34	5	2010.89	1	0	0	0		$|
1267661	0	object/static/installation/mockup_mining_liquid_moisture_harvester.iff	0	1073.01	5	1987.62	1	0	0	0		$|
1267662	0	object/static/installation/mockup_mining_liquid_moisture_harvester.iff	0	1048.73	5	1985.3	1	0	0	0		$|
1267663	0	object/static/installation/mockup_mining_liquid_moisture_harvester.iff	0	1055.06	5	1962.43	1	0	0	0		$|
1267664	0	object/static/installation/mockup_mining_liquid_harvester_style_1.iff	0	1054.54	5	1995.25	0.990901	0	-0.13459	0		$|
1267665	0	object/static/structure/tatooine/luke_farm_garage.iff	0	1080.08	5	2002.24	0.990216	0	0.139543	0		$|
1267666	0	object/static/installation/mockup_mining_gas_harvester_style_1.iff	0	1064.91	5	1968.02	0.990901	0	-0.13459	0		$|
1267667	0	object/static/installation/mockup_power_generator_solar_style_1.iff	0	1076.19	12.9401	1915.84	0.710911	0	0.703282	0		$|
1267670	0	object/static/installation/mockup_power_generator_solar_style_1.iff	0	1073.65	17.017	1966.27	0.738465	0	0.674291	0		$|
1267671	0	object/static/structure/tatooine/wall_pristine_tatooine_small_style_01.iff	0	1139.79	5.00115	1898.84	-0.621921	0	0.78308	0		$|
1267672	0	object/static/structure/tatooine/pillar_pristine_small_style_01.iff	0	1137.8	5.00365	1898.6	0.993486	0	-0.113956	0		$|
1267673	0	object/static/structure/tatooine/wall_pristine_tatooine_small_style_01.iff	0	1137.18	5.01138	1900.38	0.993486	0	-0.113956	0		$|
1267674	0	object/static/structure/tatooine/wall_pristine_tatooine_small_style_01.iff	0	1168.71	5	1884.66	-0.170359	0	0.985382	0		$|
1267675	0	object/static/structure/tatooine/pillar_pristine_small_style_01.iff	0	1167.83	5	1882.85	0.817233	0	-0.576307	0		$|
1267693	0	object/static/structure/tatooine/wall_pristine_tatooine_small_style_01.iff	0	1180.17	5	1902.46	0.0882907	0	0.996095	0		$|
1267696	0	object/static/structure/tatooine/wall_pristine_tatooine_small_style_01.iff	0	1262.81	5	1892.67	0.998809	0	-0.0487843	0		$|
1267698	0	object/static/structure/tatooine/pillar_pristine_small_style_01.iff	0	1262.92	5	1894.57	0.740762	0	0.671767	0		$|
1267701	0	object/static/structure/tatooine/pillar_pristine_small_style_01.iff	0	1260.21	5	1900.49	-0.618309	0	0.785933	0		$|
1267721	0	object/static/structure/tatooine/debris_tatt_crate_1.iff	0	1328.15	5	1935.21	0.959662	0	-0.281157	0		$|
1267723	0	object/static/structure/tatooine/stone_hovel_tatooine_style_01.iff	0	1326.54	5	1938.75	0.000795536	0	1	0		$|
1267724	0	object/static/structure/tatooine/debris_tatt_pipe_narrow_1.iff	0	1321.99	5	1934.25	0.272314	0	0.962209	0		$|
1267725	0	object/static/structure/tatooine/debris_tatt_pipe_dual_unconnected.iff	0	1318.44	5	1925.07	0.348336	0	0.93737	0		$|
1267728	0	object/static/installation/mockup_mining_liquid_moisture_harvester.iff	0	1314.58	5	1932.67	0.204347	0	0.978898	0		$|
1267729	0	object/static/structure/tatooine/stone_hovel_tatooine_style_01.iff	0	1315.05	5	1926.94	0.682221	0	0.731146	0		$|
1267730	0	object/static/structure/tatooine/stone_hovel_tatooine_style_01.iff	0	1318.69	5	1936.31	0.301055	0	0.953607	0		$|
1267737	0	object/static/structure/tatooine/pillar_ruined_small_style_01.iff	0	1362.69	5	1958.01	0.296281	0	0.955101	0		$|
1267739	0	object/static/structure/tatooine/pillar_pristine_small_style_01.iff	0	1357.05	5	1963.69	0.380924	0	0.924606	0		$|
1267742	0	object/static/structure/tatooine/pillar_ruined_small_style_01.iff	0	1368.33	5	1952.33	-0.0242012	0	0.999707	0		$|
1267743	0	object/static/structure/tatooine/pillar_ruined_small_style_01.iff	0	1374.72	5	1946.33	0.253015	0	0.967462	0		$|
1267745	0	object/static/structure/tatooine/pillar_pristine_small_style_01.iff	0	1351.42	5	1969.37	0.380924	0	0.924606	0		$|
1267746	0	object/static/structure/tatooine/pillar_ruined_small_style_01.iff	0	1390.39	5	1990.55	0.408487	0	0.912764	0		$|
1267748	0	object/static/structure/tatooine/pillar_pristine_small_style_01.iff	0	1383.56	5	1994.73	0.488872	0	0.872355	0		$|
1267751	0	object/static/structure/tatooine/pillar_ruined_small_style_01.iff	0	1397.21	5	1986.38	0.0956501	0	0.995415	0		$|
1267754	0	object/static/structure/tatooine/pillar_pristine_small_style_01.iff	0	1376.74	5	1998.91	0.488872	0	0.872355	0		$|
1267773	0	object/static/structure/tatooine/pillar_pristine_small_style_01.iff	0	1396.27	5	2036.77	0.629411	0	0.777072	0		$|
1267775	0	object/static/structure/tatooine/pillar_ruined_small_style_01.iff	0	1430.08	5	2030.27	0.519098	0	0.854714	0		$|
1267776	0	object/static/structure/tatooine/pillar_ruined_small_style_01.iff	0	1419.75	5	2031.78	0.262678	0	0.964883	0		$|
1267779	0	object/static/structure/tatooine/pillar_pristine_small_style_01.iff	0	1404.1	5	2035.11	0.629411	0	0.777072	0		$|
1267781	0	object/static/structure/tatooine/pillar_ruined_small_style_01.iff	0	1411.92	5	2033.45	0.557023	0	0.830497	0		$|
1267783	0	object/static/structure/tatooine/pillar_pristine_small_style_01.iff	0	1388.88	5	2039.11	0.990901	0	0.134591	0		$|
1267787	0	object/static/structure/tatooine/pillar_pristine_small_style_01.iff	0	1371.19	5	2003.6	0.961055	0	0.276356	0		$|
1267790	0	object/static/structure/tatooine/pillar_pristine_small_style_01.iff	0	1347.62	5	1974.88	0.922997	0	0.384808	0		$|
1267793	0	object/static/installation/mockup_mining_liquid_moisture_harvester.iff	0	1302.83	5	1951.34	0.204347	0	0.978898	0		$|
1267794	0	object/static/installation/mockup_mining_liquid_moisture_harvester.iff	0	1254.23	5	1899.29	0.204347	0	0.978898	0		$|
1267798	0	object/static/installation/mockup_mining_liquid_moisture_harvester.iff	0	1166.59	5	1885.67	0.204347	0	0.978898	0		$|
1267799	0	object/static/installation/mockup_mining_liquid_moisture_harvester.iff	0	1139.34	5	1900.39	0.204347	0	0.978898	0		$|
1267801	0	object/static/installation/mockup_mining_liquid_moisture_harvester.iff	0	1111.1	5.00145	1897.46	0.204347	0	0.978898	0		$|
1267802	0	object/static/installation/mockup_mining_liquid_moisture_harvester.iff	0	1140.75	5	1905.24	0.204347	0	0.978898	0		$|
1267805	0	object/static/installation/mockup_mining_liquid_moisture_harvester.iff	0	1172.83	5	1930.71	0.204347	0	0.978898	0		$|
1267833	0	object/static/structure/tatooine/pillar_pristine_small_style_01.iff	0	1214.42	5	2023.93	0.871033	0	0.491224	0		$|
1267835	0	object/static/structure/tatooine/debris_tatt_drum_storage_1.iff	0	1220.67	5	2030.42	1	0	0	0		$|
1267837	0	object/static/structure/tatooine/debris_tatt_pipe_narrow_1.iff	0	1222.37	5	2026.73	1	0	0	0		$|
1267840	0	object/static/structure/tatooine/debris_tatt_pipe_narrow_1.iff	0	1213.02	5	2023.63	0.994493	0	0.104807	0		$|
1267861	0	object/static/installation/mockup_mining_liquid_moisture_harvester.iff	0	1299.31	5	1993.34	0.204347	0	0.978898	0		$|
1267867	0	object/static/structure/tatooine/wall_archway_tatooine_wide_style_01.iff	0	1177.8	5	2032.41	0.875175	0	0.483806	0		$|
1267868	0	object/static/structure/tatooine/pillar_pristine_large_style_01.iff	0	1185.54	5	2036.69	0.882333	0	0.470626	0		$|
1267869	0	object/static/structure/tatooine/wall_cleft_tatooine_large_style_01.iff	0	1187.95	5	2039.17	-0.469924	0	0.882707	0		$|
1267876	0	object/static/structure/tatooine/wall_archway_tatooine_wide_style_01.iff	0	1163.96	5	2023.77	0.875175	0	0.483806	0		$|
1267878	0	object/static/structure/tatooine/wall_archway_tatooine_wide_style_01.iff	0	1292.46	5	1968.51	0.992197	0	-0.124677	0		$|
1267879	0	object/static/structure/tatooine/wall_ruined_tatooine_large_style_02.iff	0	1296.88	5	1953.77	-0.585743	0	0.810497	0		$|
1267880	0	object/static/structure/tatooine/wall_ruined_tatooine_small_style_01.iff	0	1295.48	5	1958.81	0.984727	0	-0.174108	0		$|
1267881	0	object/static/structure/tatooine/pillar_ruined_small_style_01.iff	0	1295.27	5	1959.98	0.802096	0	0.597195	0		$|
1267882	0	object/static/structure/tatooine/pillar_ruined_large_style_01.iff	0	1297.47	5	1949.47	-0.629412	0	0.777072	0		$|
1267883	0	object/static/structure/tatooine/wall_ruined_tatooine_large_style_02.iff	0	1262.49	5	1920.43	0.193767	0	0.981048	0		$|
1267884	0	object/static/structure/tatooine/pillar_ruined_large_style_01.iff	0	1266.74	5	1921.32	0.139544	0	0.990216	0		$|
1267885	0	object/static/structure/tatooine/pillar_ruined_small_style_01.iff	0	1257.93	5	1919.42	0.983701	0	-0.179814	0		$|
1267889	0	object/static/structure/tatooine/pillar_ruined_large_style_01.iff	0	1277.56	5	1927.24	0.981201	0	-0.192986	0		$|
1267890	0	object/static/structure/tatooine/wall_ruined_tatooine_large_style_02.iff	0	1281.69	5	1928.59	0.969109	0	-0.246633	0		$|
1267891	0	object/static/structure/tatooine/wall_pristine_tatooine_large_style_01.iff	0	1153.63	5	2017.09	0.870293	0	0.492535	0		$|
1267892	0	object/static/structure/tatooine/pillar_pristine_large_style_01.iff	0	1171.55	5	2027.84	0.872744	0	0.488178	0		$|
1267893	0	object/static/structure/tatooine/pillar_pristine_large_style_01.iff	0	1157.68	5	2019.2	0.872744	0	0.488178	0		$|
1267894	0	object/static/structure/tatooine/pillar_pristine_large_style_01.iff	0	1150.59	5	2014.94	0.872744	0	0.488178	0		$|
1267897	0	object/static/installation/mockup_mining_liquid_moisture_harvester.iff	0	1208.69	5	2027.4	0.204347	0	0.978898	0		$|
1267898	0	object/static/installation/mockup_mining_liquid_moisture_harvester.iff	0	1123.19	5	2025.47	0.204347	0	0.978898	0		$|
1267900	0	object/static/structure/tatooine/antenna_tatt_style_1.iff	0	1282.49	5	1926.53	1	0	0	0		$|
1267901	0	object/static/structure/tatooine/antenna_tatt_style_1.iff	0	1309.74	5.03445	1835.23	1	0	0	0		$|
1267902	0	object/static/structure/tatooine/antenna_tatt_style_1.iff	0	1405.36	5	1982.14	1	0	0	0		$|
1284077	0	object/static/structure/tatooine/streetsign_upright_style_01.iff	0	1168.54	5	2026.94	0.96639	0	-0.257081	0		$|
1284087	0	object/static/structure/tatooine/debris_tatt_drum_dented_1.iff	0	1136.35	5	2022.14	1	0	0	0		$|
1284089	0	object/static/structure/tatooine/debris_tatt_pipe_dual_unconnected.iff	0	1151.7	5	2011.51	0.561168	0	0.827702	0		$|
1284091	0	object/static/structure/tatooine/debris_tatt_pipe_widemouth.iff	0	1143.44	5	2028.68	1	0	0	0		$|
1284096	0	object/static/structure/tatooine/debris_tatt_pipe_narrow_1.iff	0	1127.4	5	2035.37	0.434248	0	0.900793	0		$|
1284097	0	object/static/structure/tatooine/debris_tatt_pipe_narrow_2.iff	0	1219.35	5	2009.96	-0.519099	0	0.854714	0		$|
1284098	0	object/static/structure/tatooine/debris_tatt_pipe_narrow_2.iff	0	1214.74	5	1934.62	0.99955	0	-0.0299955	0		$|
1284099	0	object/static/structure/tatooine/debris_tatt_pipe_narrow_1.iff	0	1164.67	5	1963	1	0	0	0		$|
1284100	0	object/static/structure/tatooine/debris_tatt_pipe_dual_unconnected.iff	0	1285.69	5	1945.22	1	0	0	0		$|
1284101	0	object/static/structure/tatooine/debris_tatt_pipe_narrow_1.iff	0	1279.87	5	1937.17	1	0	0	0		$|
1284102	0	object/static/structure/tatooine/debris_tatt_pipe_dual_unconnected.iff	0	1266.31	5	1919.93	1	0	0	0		$|
1284103	0	object/static/structure/tatooine/streetsign_upright_style_01.iff	0	1293.89	5	1962.98	-0.617686	0	0.786425	0		$|
1284105	0	object/static/structure/tatooine/debris_tatt_drum_dented_1.iff	0	1261.23	5	1922.96	0.852525	0	-0.522687	0		$|
1284106	0	object/static/structure/tatooine/debris_tatt_crate_metal_1.iff	0	1258.75	5	1922.08	1	0	0	0		$|
1284109	0	object/static/structure/tatooine/debris_tatt_pipe_widemouth.iff	0	1275.9	5	1886.18	1	0	0	0		$|
1284110	0	object/static/structure/tatooine/debris_tatt_pipe_dual_unconnected.iff	0	1280.74	5	1875.55	1	0	0	0		$|
1284111	0	object/static/structure/tatooine/debris_tatt_pipe_narrow_2.iff	0	1307.85	5	1897.44	-0.320063	0	0.947396	0		$|
1284112	0	object/static/structure/tatooine/debris_tatt_pipe_narrow_1.iff	0	1313.97	5	1900.87	-0.135379	0	0.990794	0		$|
1284113	0	object/static/structure/tatooine/debris_tatt_pipe_narrow_1.iff	0	1248.34	5	1970.73	1	0	0	0		$|
1284114	0	object/static/structure/tatooine/debris_tatt_pipe_widemouth.iff	0	1264.26	5	1973.92	-0.37166	0	0.928369	0		$|
1284115	0	object/static/structure/tatooine/debris_tatt_pipe_narrow_2.iff	0	1136.68	5	1966.44	1	0	0	0		$|
1284116	0	object/static/structure/tatooine/debris_tatt_pipe_widemouth.iff	0	1132.59	5	1981.27	0.52762	0	0.849481	0		$|
1284117	0	object/static/structure/tatooine/debris_tatt_pipe_narrow_1.iff	0	1096.76	5	1975.62	1	0	0	0		$|
1284118	0	object/static/structure/tatooine/debris_tatt_pipe_narrow_1.iff	0	1097.04	5	1974.65	1	0	0	0		$|
1284119	0	object/static/structure/tatooine/debris_tatt_pipe_dual_unconnected.iff	0	1115.52	5	1995.78	1	0	0	0		$|
1284120	0	object/static/structure/tatooine/debris_tatt_pipe_narrow_2.iff	0	1118.07	5	1942.25	0.992198	0	-0.124675	0		$|
1284121	0	object/static/structure/tatooine/orchard_tatooine_style_02.iff	0	1127.29	5	1949.34	0.992198	0	-0.124675	0		$|
1284122	0	object/static/structure/tatooine/orchard_tatooine_style_02.iff	0	1106.92	5	1988.17	0.992198	0	-0.124675	0		$|
1284123	0	object/static/structure/tatooine/debris_tatt_pipe_widemouth.iff	0	1129.77	5	1965.51	1	0	0	0		$|
1284124	0	object/static/structure/tatooine/debris_tatt_pipe_widemouth.iff	0	1120.86	5	1962.77	1	0	0	0		$|
1284125	0	object/static/structure/tatooine/debris_tatt_pipe_widemouth.iff	0	1117.29	5	1961.58	1	0	0	0		$|
1284126	0	object/static/structure/tatooine/debris_tatt_pipe_widemouth.iff	0	1108.37	5	1959.22	1	0	0	0		$|
1284127	0	object/static/structure/tatooine/debris_tatt_pipe_widemouth.iff	0	1104.69	5	1972.79	0.173324	0	0.984865	0		$|
1284128	0	object/static/structure/tatooine/debris_tatt_pipe_widemouth.iff	0	1113.28	5	1975.18	0.173324	0	0.984865	0		$|
1284129	0	object/static/structure/tatooine/debris_tatt_pipe_widemouth.iff	0	1117.13	5	1976.31	0.173324	0	0.984865	0		$|
1284130	0	object/static/structure/tatooine/debris_tatt_pipe_widemouth.iff	0	1125.92	5	1978.8	0.173324	0	0.984865	0		$|
1284134	0	object/static/structure/tatooine/pillar_pristine_small_style_01.iff	0	1216.89	5	1967.09	0.994043	0	-0.108987	0		$|
1284136	0	object/static/structure/tatooine/pillar_pristine_small_style_01.iff	0	1225.43	5	1968.88	0.993486	0	-0.113957	0		$|
1284137	0	object/static/structure/tatooine/wall_pristine_tatooine_small_style_01.iff	0	1216.3	4.74465	1968.87	0.994043	0	-0.108987	0		$|
1284138	0	object/static/structure/tatooine/pillar_pristine_small_style_01.iff	0	1215.92	5	1971.73	0.994043	0	-0.108987	0		$|
1284141	0	object/static/structure/tatooine/pillar_pristine_small_style_01.iff	0	1212.4	5	1990.32	0.994043	0	-0.108987	0		$|
1284143	0	object/static/structure/tatooine/pillar_pristine_small_style_01.iff	0	1220.81	5	1992.09	0.993486	0	-0.113957	0		$|
1284144	0	object/static/structure/tatooine/wall_pristine_tatooine_small_style_01.iff	0	1212.31	4.74465	1987.26	0.108987	0	0.994043	0		$|
1284145	0	object/static/structure/tatooine/pillar_pristine_small_style_01.iff	0	1212.69	5	1984.39	0.108987	0	0.994043	0		$|
1284146	0	object/static/structure/tatooine/guild_ball_free_style_01.iff	0	1213.87	5	1968.42	0.993395	0	-0.114746	0		$|
1284147	0	object/static/structure/tatooine/guild_ball_free_style_01.iff	0	1210.18	5	1986.7	0.992809	0	-0.119712	0		$|
1284149	0	object/static/structure/tatooine/debris_tatt_pipe_narrow_2.iff	0	1142.96	5	1998.23	0.721382	0	0.692538	0		$|
1284151	0	object/static/structure/tatooine/debris_tatt_pipe_widemouth.iff	0	1153.55	5	1960.92	1	0	0	0		$|
1288843	0	object/static/structure/general/skeleton_human_head.iff	0	1134.02	6.29654	2021.09	0.958244	0	-0.285952	0		$|
1288903	0	object/static/item/item_katana.iff	0	1133.95	6.64439	2021.11	-0.0294384	0.465339	0.0344337	0.883973		$|
1288905	0	object/static/structure/general/skeleton_human_head.iff	0	1130.95	6.32816	2019.08	0.958244	0	-0.285952	0		$|
1288906	0	object/static/item/item_katana.iff	0	1130.91	6.67601	2019.13	0.034434	0.883973	0.029438	-0.465339		$|
1288907	0	object/static/structure/general/skeleton_human_head.iff	0	1125.33	6.89737	2034.52	0.153593	0	0.988134	0		$|
1288909	0	object/static/item/item_ryyk_blade.iff	0	1125.05	7.15035	2034.38	0.404067	0.696326	0.297717	-0.513054		$|
1288910	0	object/static/item/item_ryyk_blade.iff	0	1125.64	7.2136	2034.55	0.263763	0.531308	-0.357985	0.721102		$|
1288911	0	object/static/item/item_ryyk_blade.iff	0	1121.57	7.15036	2033.33	0.404067	0.696326	0.297717	-0.513054		$|
1288912	0	object/static/structure/general/skeleton_human_head.iff	0	1121.85	6.89737	2033.47	0.153593	0	0.988134	0		$|
1288913	0	object/static/item/item_ryyk_blade.iff	0	1122.17	7.2136	2033.5	0.263763	0.531308	-0.357985	0.721102		$|
1289946	0	object/tangible/furniture/tatooine/frn_tato_table_small_style_01.iff	0	1315.35	5	2011.72	0.777573	0	0.628793	0		$|
1289947	0	object/tangible/furniture/tatooine/frn_tato_chair_cafe_style_01.iff	0	1315.61	5	2012.87	0.661114	0	0.750286	0		$|
1289948	0	object/tangible/furniture/tatooine/frn_tato_chair_cafe_style_01.iff	0	1315.07	5	2010.8	0.577609	0	0.816314	0		$|
1289949	0	object/static/structure/tatooine/debris_tatt_crate_1.iff	0	1313.83	4.95095	2012.6	0.992809	0	0.119712	0		$|
1289951	0	object/static/structure/tatooine/debris_tatt_crate_1.iff	0	1319.92	4.95095	2021.57	0.891568	0	0.452886	0		$|
1289952	0	object/static/structure/tatooine/debris_tatt_drum_dented_1.iff	0	1317.83	6.02612	2017.17	0.830942	0	-0.556359	0		$|
1289955	0	object/static/structure/tatooine/debris_tatt_drum_dented_1.iff	0	1318	4.95095	2016.49	0.830942	0	-0.556359	0		$|
1289957	0	object/static/structure/tatooine/debris_tatt_drum_storage_2.iff	0	1321.82	4.92785	2017.64	0.979061	0	-0.203569	0		$|
1289958	0	object/static/structure/tatooine/debris_tatt_drum_dented_1.iff	0	1318.19	4.92785	2017.7	0.830942	0	-0.556359	0		$|
1289959	0	object/static/structure/tatooine/debris_tatt_drum_storage_1.iff	0	1319.4	4.92785	2020.35	0.979061	0	-0.203569	0		$|
1289960	0	object/static/structure/tatooine/jawa/tent_jawa_01_med.iff	0	1319.93	5.04333	2018.08	0.959214	0	0.282681	0		$|
1289961	0	object/static/structure/tatooine/jawa/tent_jawa_01_small.iff	0	1315.41	4.95095	2012.06	0.921061	0	0.389418	0		$|
1289962	0	object/tangible/furniture/tatooine/frn_tato_chair_cafe_style_01.iff	0	1328.63	5	2035.32	0.403918	0	0.914795	0		$|
1289963	0	object/tangible/furniture/tatooine/frn_tato_table_small_style_01.iff	0	1329.44	5	2036.12	0.796083	0	0.605187	0		$|
1289964	0	object/tangible/furniture/tatooine/frn_tato_chair_cafe_style_01.iff	0	1330.2	5	2037.03	0.484503	0	0.874789	0		$|
1289967	0	object/static/structure/tatooine/debris_tatt_crate_1.iff	0	1335.27	4.95095	2034.46	0.552863	0	0.833272	0		$|
1289968	0	object/static/structure/tatooine/debris_tatt_crate_1.iff	0	1336.19	4.95095	2033.57	0.552863	0	0.833272	0		$|
1289969	0	object/static/structure/tatooine/debris_tatt_drum_storage_2.iff	0	1336.09	4.92785	2044.63	0.979061	0	-0.203567	0		$|
1289970	0	object/static/structure/tatooine/debris_tatt_drum_storage_2.iff	0	1336.35	4.92785	2045.33	0.979061	0	-0.203567	0		$|
1289971	0	object/static/structure/tatooine/debris_tatt_drum_dented_1.iff	0	1333.82	4.92785	2042.43	0.830942	0	-0.556359	0		$|
1289972	0	object/static/structure/tatooine/debris_tatt_drum_storage_1.iff	0	1333.27	4.92785	2043.94	0.979061	0	-0.203567	0		$|
1289973	0	object/static/structure/tatooine/jawa/tent_jawa_01_med.iff	0	1335.55	5.04333	2042.81	0.959214	0	0.282681	0		$|
1289974	0	object/static/structure/tatooine/debris_tatt_crate_1.iff	0	1334.33	4.95219	2033.73	0.417595	0	0.908633	0		$|
1289976	0	object/static/structure/tatooine/debris_tatt_drum_storage_2.iff	0	1328.92	4.95219	2031.32	0.939373	0	0.342898	0		$|
1289977	0	object/static/structure/tatooine/debris_tatt_drum_storage_2.iff	0	1328.41	4.95219	2030.63	0.796083	0	0.605187	0		$|
1289978	0	object/static/structure/tatooine/debris_tatt_drum_storage_2.iff	0	1329.28	4.95219	2032.24	0.135381	0	0.990794	0		$|
1289979	0	object/static/structure/tatooine/jawa/tent_jawa_01_large.iff	0	1330.93	4.93853	2032.8	0.453595	0	0.891208	0		$|
1299003	0	object/static/structure/tatooine/skeleton_krayt_head_style_01.iff	0	1098.45	12.3738	1963.59	0.622373	0.486812	0.481541	-0.379188		$|
1311467	0	object/static/structure/tatooine/pillar_pristine_small_style_01.iff	0	1103.7	5	1960.52	0.990216	0	-0.139543	0		$|
1311468	0	object/static/structure/tatooine/pillar_pristine_small_style_01.iff	0	1101.04	5	1970.15	0.990216	0	-0.139543	0		$|
1311472	0	object/building/tatooine/housing_tatt_style01_small.iff	0	1098.06	5	1913.58	0.991562	0	-0.129634	0		$|
1311473	1311472	object/cell/cell.iff	1	0	0	0	1	0	0	0		$|
1311474	1311472	object/cell/cell.iff	2	0	0	0	1	0	0	0		$|
1311475	1311472	object/cell/cell.iff	3	0	0	0	1	0	0	0		$|
1311476	1311472	object/cell/cell.iff	4	0	0	0	1	0	0	0		$|
1311477	1311472	object/cell/cell.iff	5	0	0	0	1	0	0	0		$|
1311478	1311472	object/cell/cell.iff	6	0	0	0	1	0	0	0		$|
1311479	1311472	object/cell/cell.iff	7	0	0	0	1	0	0	0		$|
1311480	1311472	object/cell/cell.iff	8	0	0	0	1	0	0	0		$|
1311481	1311472	object/cell/cell.iff	9	0	0	0	1	0	0	0		$|
1311482	1311472	object/cell/cell.iff	10	0	0	0	1	0	0	0		$|
1311483	0	object/static/structure/tatooine/stone_hovel_tatooine_style_01.iff	0	1125.22	5	1904.42	0.990901	0	-0.13459	0		$|
1311484	0	object/static/structure/tatooine/stone_hovel_tatooine_style_01.iff	0	1131.16	5	1910.28	0.855128	0	-0.518418	0		$|
1311485	0	object/static/structure/tatooine/stone_hovel_tatooine_style_01.iff	0	1116.48	5	1906.21	0.973666	0	0.227977	0		$|
1311486	0	object/static/structure/tatooine/debris_tatt_pipe_dual_unconnected.iff	0	1125.7	5	1908.56	1	0	0	0		$|
1311487	0	object/static/structure/tatooine/debris_tatt_pipe_narrow_1.iff	0	1128.66	5	1913.1	1	0	0	0		$|
1311488	0	object/static/structure/tatooine/debris_tatt_drum_dented_1.iff	0	1129.17	5	1914.15	1	0	0	0		$|
1311489	0	object/static/structure/tatooine/debris_tatt_drum_storage_2.iff	0	1127.97	5	1913.51	1	0	0	0		$|
1311490	0	object/static/structure/tatooine/debris_tatt_crate_metal_1.iff	0	1115.06	5	1910.07	1	0	0	0		$|
1311491	0	object/static/structure/tatooine/debris_tatt_crate_metal_1.iff	0	1115.63	5	1910.5	1	0	0	0		$|
1311492	0	object/static/structure/tatooine/debris_tatt_crate_1.iff	0	1122.22	5	1907.24	1	0	0	0		$|
1311493	0	object/static/structure/tatooine/debris_tatt_drum_dented_1.iff	0	1121	5	1906.87	1	0	0	0		$|
1311494	0	object/static/structure/tatooine/debris_tatt_drum_storage_2.iff	0	1091.61	5	1921.03	0.961055	0	-0.276356	0		$|
1311495	0	object/static/structure/tatooine/debris_tatt_drum_storage_2.iff	0	1091.03	5	1920.62	0.902611	0	0.430458	0		$|
1311496	0	object/static/structure/tatooine/debris_tatt_drum_storage_2.iff	0	1090.9	5	1921.22	1	0	0	0		$|
1311497	0	object/static/structure/tatooine/debris_tatt_drum_storage_1.iff	0	1099.95	5	1923.17	1	0	0	0		$|
1311498	0	object/static/structure/tatooine/debris_tatt_drum_dented_1.iff	0	1098.97	5	1922.7	0.985585	0	-0.169182	0		$|
1311499	0	object/static/structure/tatooine/debris_tatt_pipe_widemouth.iff	0	1101.46	5	1922.27	1	0	0	0		$|
1316187	0	object/tangible/terminal/terminal_mission.iff	0	1216.71	5	1970.56	0.777573	0	0.628793	0		$|
1316189	0	object/tangible/terminal/terminal_mission.iff	0	1213.33	5	1987.82	0.771246	0	0.636537	0		$|
1642315	0	object/static/worldbuilding/sign/thm_sign_garage.iff	0	1053.37	5	1920.47	0.968912	0	0.247404	0		$|
1642318	0	object/static/worldbuilding/sign/thm_sign_garage.iff	0	1062.15	5	1888.99	0.872745	0	-0.488177	0		$|
1642471	0	object/static/worldbuilding/sign/thm_sign_garage.iff	0	1224.02	5	1937.96	-0.589788	0	0.807558	0		$|
3945383	0	object/tangible/terminal/terminal_bazaar.iff	0	1321.05	5	2025.46	0.477407	0	0.878682	0		$|
3945384	0	object/tangible/terminal/terminal_bazaar.iff	0	1322.69	5	2027.98	0.477407	0	0.878682	0		$|
4365372	0	object/static/structure/general/streetlamp_small_style_02.iff	0	1169.85	5	2029.64	1	0	0	0		$|
4365373	0	object/static/structure/general/streetlamp_small_style_02.iff	0	1217.47	6.08421	1968.45	1	0	0	0		$|
4365374	0	object/static/structure/general/streetlamp_small_style_02.iff	0	1211.8	6.30312	1997.26	1	0	0	0		$|
4925841	0	object/static/structure/tatooine/wall_pristine_tatooine_large_style_02.iff	0	1134.13	2.8	2038.82	0.328767	0	0.944411	0		$|
4925842	0	object/static/structure/tatooine/wall_pristine_tatooine_large_style_01.iff	0	1145.34	2.8	2024.45	0.334237	0	0.942489	0		$|
4925843	0	object/static/structure/tatooine/wall_pristine_tatooine_large_style_01.iff	0	1211.71	2.8	2027.91	0.963771	0	-0.266731	0		$|
4925845	0	object/static/structure/tatooine/wall_pristine_tatooine_large_style_01.iff	0	1216.15	2.6	1990.81	-0.629412	0	0.777072	0		$|
4925846	0	object/static/structure/tatooine/wall_pristine_tatooine_large_style_01.iff	0	1220.79	2.6	1967.65	-0.629412	0	0.777071	0		$|
4925849	0	object/static/structure/tatooine/pillar_pristine_tall_style_01.iff	0	1149.91	5	1964.6	0.990216	0	-0.139543	0		$|
4925853	0	object/static/structure/tatooine/pillar_pristine_tall_style_01.iff	0	1142.56	5	1904.7	0.991562	0	-0.129634	0		$|
4925854	0	object/static/structure/tatooine/pillar_pristine_tall_style_01.iff	0	1127.13	5	1900.32	0.991562	0	-0.129634	0		$|
4925855	0	object/static/structure/tatooine/pillar_pristine_tall_style_01.iff	0	1111.21	5	1896.06	0.982004	0	-0.188859	0		$|
4925856	0	object/static/structure/tatooine/pillar_pristine_tall_style_01.iff	0	1097.43	5	1903.5	0.9998	0	0.0199988	0		$|
4925858	0	object/static/structure/tatooine/pillar_pristine_tall_style_01.iff	0	1068.05	5	1937.97	0.991562	0	-0.129634	0		$|
4925859	0	object/static/structure/tatooine/pillar_pristine_tall_style_01.iff	0	1056.31	5	1949.66	0.988012	0	-0.15438	0		$|
4925860	0	object/static/structure/tatooine/pillar_pristine_tall_style_01.iff	0	1051.92	5	1965.65	0.991562	0	-0.129634	0		$|
4925861	0	object/static/structure/tatooine/pillar_pristine_tall_style_01.iff	0	1047.51	5	1981.64	0.991562	0	-0.129634	0		$|
4925862	0	object/static/structure/tatooine/pillar_pristine_tall_style_01.iff	0	1043.21	5	1997.32	0.991562	0	-0.129634	0		$|
4925863	0	object/static/structure/tatooine/pillar_pristine_tall_style_01.iff	0	1050.48	5	2011.08	0.860269	0	-0.509841	0		$|
4925864	0	object/static/structure/tatooine/pillar_pristine_tall_style_01.iff	0	1066.74	5	2015.4	0.991562	0	-0.129634	0		$|
4925865	0	object/static/structure/tatooine/pillar_pristine_tall_style_01.iff	0	1074.64	5	2029.1	0.991562	0	-0.129634	0		$|
4925866	0	object/static/structure/tatooine/pillar_pristine_tall_style_01.iff	0	1089.73	5	2033.19	0.991562	0	-0.129634	0		$|
4925867	0	object/static/structure/tatooine/pillar_pristine_tall_style_01.iff	0	1104.87	5	2037.39	0.991562	0	-0.129634	0		$|
4925868	0	object/static/structure/tatooine/pillar_pristine_tall_style_01.iff	0	1119.8	5	2029.87	0.991562	0	-0.129634	0		$|
4925869	0	object/static/structure/tatooine/pillar_pristine_tall_style_01.iff	0	1124.15	5	2014.25	0.991562	0	-0.129634	0		$|
4925870	0	object/static/structure/tatooine/pillar_pristine_tall_style_01.iff	0	1128.46	5	1998.51	0.971338	0	-0.237703	0		$|
4925871	0	object/static/structure/tatooine/pillar_pristine_tall_style_01.iff	0	1142.7	5	1990.37	0.985585	0	-0.169182	0		$|
4925874	0	object/static/structure/tatooine/wall_pristine_tatooine_large_style_02.iff	0	1258.94	3.04548	1908.05	0.991562	0	-0.129635	0		$|
4925875	0	object/static/structure/tatooine/wall_pristine_tatooine_large_style_01.iff	0	1314.27	4.37888	1939.14	-0.367014	0	0.930215	0		$|
4925876	0	object/static/structure/tatooine/wall_pristine_tatooine_large_style_01.iff	0	1309.79	4.41509	1921.95	0.990216	0	-0.139543	0		$|
4925877	0	object/static/structure/tatooine/wall_pristine_tatooine_large_style_01.iff	0	1297.07	5	1917.12	0.953847	0	-0.300293	0		$|
4925878	0	object/static/structure/tatooine/wall_pristine_tatooine_large_style_01.iff	0	1304.76	5	1949.55	-0.440178	0	0.897911	0		$|
4925879	0	object/static/structure/tatooine/wall_pristine_tatooine_large_style_01.iff	0	1278.37	5	1978.9	-0.644827	0	0.764329	0		$|
4925882	0	object/tangible/furniture/tatooine/frn_tato_chair_cafe_style_01.iff	0	1334.37	5	2040.83	0.484503	0	0.874789	0		$|
5995461	0	object/soundobject/soundobject_city_crowd_small.iff	0	1214.76	5	2020.37	1	0	0	0		$|
5995463	0	object/soundobject/soundobject_city_crowd_small.iff	0	1215.02	5	1968.33	1	0	0	0		$|
5995490	0	object/soundobject/soundobject_city_crowd_small.iff	0	1270.28	5	1925.92	1	0	0	0		$|
6016348	0	object/static/creature/tatooine_ronto.iff	0	1319.31	5	1916.35	0.466913	0	0.884303	0		$|
6016381	0	object/static/creature/tatooine_cu_pa.iff	0	1370.87	5	2006.58	0.94441	0	0.328769	0		$|
6076344	0	object/tangible/terminal/terminal_mission_artisan.iff	0	1225.27	5	1969.95	-0.637151	0	0.770739	0		$|
6076346	0	object/tangible/terminal/terminal_mission_artisan.iff	0	1221.07	5	1997.42	-0.629412	0	0.777072	0		$|
6719207	0	object/static/structure/tatooine/wall_archway_tatooine_wide_style_01.iff	0	1081.84	9.69728	2030.47	0.796084	0	0.605186	0		$|
6719208	0	object/static/structure/tatooine/wall_archway_tatooine_wide_style_01.iff	0	1096.95	9.72324	2034.68	0.796084	0	0.605186	0		$|
6719215	0	object/static/structure/tatooine/pillar_pristine_tall_style_01.iff	0	1075.49	1.39485	2029.22	0.990216	0	-0.139543	0		$|
6719216	0	object/static/structure/tatooine/pillar_pristine_tall_style_01.iff	0	1088.85	1.39043	2032.94	0.990216	0	-0.139543	0		$|
6719217	0	object/static/structure/tatooine/pillar_pristine_tall_style_01.iff	0	1090.62	1.54213	2033.42	0.992198	0	-0.124675	0		$|
6719218	0	object/static/structure/tatooine/pillar_pristine_tall_style_01.iff	0	1103.96	1.44784	2037.14	0.990901	0	-0.13459	0		$|
6719583	0	object/static/structure/tatooine/wall_pristine_tatooine_small_style_01.iff	0	1071.4	5	1927.3	0.990216	0	-0.139543	0		$|
6719653	0	object/static/structure/tatooine/wall_ruined_tatooine_large_style_01.iff	0	1160.23	5	1884.99	0.555699	0	0.831383	0		$|
6719892	0	object/static/structure/tatooine/wall_ruined_tatooine_large_style_01.iff	0	1292.87	5	1983.88	0.991562	0	0.129634	0		$|
7325355	0	object/soundobject/soundobject_city_crowd_small.iff	0	1315.87	5	1993.65	1	0	0	0		$|
7495600	0	object/tangible/furniture/tatooine/frn_tato_fruit_stand_small_style_01.iff	0	1151.3	5	2006.07	0.613746	0	0.789504	0		$|
7495601	0	object/tangible/furniture/tatooine/frn_tato_meat_rack.iff	0	1149.67	5	2002.07	0.741831	0	0.670586	0		$|
7495602	0	object/tangible/furniture/tatooine/frn_tato_chair_cafe_style_02.iff	0	1150.76	5	2003.83	0.343646	0	0.939099	0		$|
7495603	0	object/static/structure/tatooine/jawa/tent_jawa_01_small.iff	0	1150	5.51647	2002.65	0.481304	0.0555953	0.869011	-0.100379		$|
7495607	0	object/tangible/terminal/terminal_bazaar.iff	0	1187.05	5	1927.34	0.990901	0	-0.13459	0		$|
8195893	0	object/tangible/sign/streetsign_upright_style_01.iff	0	1436.86	5	2030.22	0.783822	0	-0.620986	0		$|
8195894	0	object/tangible/sign/streetsign_upright_style_01.iff	0	1379.04	5	1943.04	0.939373	0	-0.342898	0		$|
8195895	0	object/tangible/sign/streetsign_upright_style_01.iff	0	1348.64	5	1867.34	0.900447	0	-0.434965	0		$|
8195896	0	object/tangible/sign/streetsign_upright_style_01.iff	0	948.628	5	2030.24	0.992809	0	0.119712	0		$|
8795423	0	object/static/structure/general/prp_junk_s6.iff	0	1969.96	6.50657	677.803	1	0	0	0		$|
8795424	0	object/static/structure/general/prp_junk_s7.iff	0	1968.09	5.37229	676.464	0.253515	0.397499	0.725949	0.500722		$|
8795425	0	object/static/structure/general/prp_junk_s8.iff	0	1970	9.00784	677.782	1	0	0	0		$|
8795429	0	object/static/structure/general/prp_junk_s4.iff	0	1967.05	7.85144	680.057	0.994954	-0.0998284	-0.000998314	0.00994988		$|
8795430	0	object/static/structure/general/prp_junk_s5.iff	0	1970.16	6.95526	680.493	0.213742	-0.179545	-0.0399996	0.959415		$|
8795431	0	object/static/structure/general/trash_pile_s01.iff	0	1968.21	6.96131	681.972	0.994954	-0.0998284	-0.000998314	0.00994988		$|
8885493	0	object/static/structure/tatooine/tato_imprv_flagpole_s01.iff	0	1187.18	14.379	1922.04	1	0	0	0		$|
1254520	0	object/static/tatooine/rock_spire_lumpy_tatooine.iff	0	1951.79	8.801	828.893	1	0	0	0		$|
1254521	0	object/static/tatooine/rock_spire_skinny_tatooine_style_2.iff	0	1985.9	9.36113	859.835	1	0	0	0		$|
1254522	0	object/static/tatooine/rock_spire_skinny_tatooine_style_2.iff	0	1532.62	39.3752	990.249	1	0	0	0		$|
1254523	0	object/static/tatooine/rock_spire_smooth_tatooine.iff	0	1771.87	9.26985	1620.11	1	0	0	0		$|
1254524	0	object/static/tatooine/rock_spire_lumpy_tatooine_style_2.iff	0	1792.95	6.11431	1733.88	1	0	0	0		$|
1254525	0	object/static/tatooine/rock_spire_lumpy_tatooine.iff	0	1572.57	8.09241	1607.66	1	0	0	0		$|
1254526	0	object/static/tatooine/rock_spire_skinny_tatooine.iff	0	1587.58	6.84049	1629.76	1	0	0	0		$|
1254527	0	object/static/tatooine/rock_spire_skinny_tatooine.iff	0	1072.93	7.42663	1409.5	1	0	0	0		$|
1254528	0	object/static/tatooine/rock_spire_lumpy_tatooine.iff	0	1043.37	9.44179	1465.26	1	0	0	0		$|
1254529	0	object/static/tatooine/rock_spire_lumpy_tatooine_style_1.iff	0	890.892	7.53681	1312.1	1	0	0	0		$|
1254534	0	object/static/tatooine/rock_spire_lumpy_tatooine_style_1.iff	0	188.069	21.5533	1908.1	1	0	0	0		$|
1254535	0	object/static/tatooine/rock_spire_lumpy_tatooine_style_2.iff	0	207.701	17.3583	1889.93	1	0	0	0		$|
6719498	0	object/static/structure/tatooine/palette_supply_02.iff	0	1076.65	5	2043.37	0.822502	0	0.568762	0		$|
894825	0	object/tangible/poi/spawnegg/exterior_spawnegg.iff	0	1966.737793	6.580749989	674.3850098	1	0	0	0		$|
1033634	0	object/tangible/poi/spawnegg/exterior_spawnegg.iff	0	1351.292236	5	2031.262085	1	0	0	0		$|
1033636	0	object/tangible/poi/spawnegg/exterior_spawnegg.iff	0	1170.442139	5	2014.031494	1	0	0	0		$|
4936007	0	object/tangible/poi/spawnegg/exterior_spawnegg.iff	0	1523.73	7.3551	1800.51	1	0	0	0		$|
4936008	0	object/tangible/poi/spawnegg/exterior_spawnegg.iff	0	1548.07	8.90699	1819.24	1	0	0	0		$|
4936009	0	object/tangible/poi/spawnegg/exterior_spawnegg.iff	0	1527.37	8.80482	1825.13	1	0	0	0		$|
4936010	0	object/tangible/poi/spawnegg/exterior_spawnegg.iff	0	1335.03	6.21689	1650.09	1	0	0	0		$|
4936011	0	object/tangible/poi/spawnegg/exterior_spawnegg.iff	0	1295.61	9.99276	1649.52	1	0	0	0		$|
4936012	0	object/tangible/poi/spawnegg/exterior_spawnegg.iff	0	1315.96	7.51887	1625.98	1	0	0	0		$|
4936013	0	object/tangible/poi/spawnegg/exterior_spawnegg.iff	0	1060.95	11.4664	1651.13	1	0	0	0		$|
4936014	0	object/tangible/poi/spawnegg/exterior_spawnegg.iff	0	1034.65	11.2347	1651.79	1	0	0	0		$|
4936015	0	object/tangible/poi/spawnegg/exterior_spawnegg.iff	0	1046.99	7.88604	1667.27	1	0	0	0		$|
4936016	0	object/tangible/poi/spawnegg/exterior_spawnegg.iff	0	870.98	13.1582	1761.17	1	0	0	0		$|
4936017	0	object/tangible/poi/spawnegg/exterior_spawnegg.iff	0	873.76	11.147	1793.39	1	0	0	0		$|
4936018	0	object/tangible/poi/spawnegg/exterior_spawnegg.iff	0	888.62	9.49746	1775.71	1	0	0	0		$|
